<?xml version="1.0" encoding="utf-8"?>
<!-- Generator: Adobe Illustrator 23.0.4, SVG Export Plug-In . SVG Version: 6.00 Build 0)  -->
<svg version="1.1" id="Livello_1" xmlns="http://www.w3.org/2000/svg" xmlns:xlink="http://www.w3.org/1999/xlink" x="0px" y="0px"
	 viewBox="0 0 750 1334" style="enable-background:new 0 0 750 1334;" xml:space="preserve">
<style type="text/css">
	.st0{fill:#6A929B;}
	.st1{fill:#729EAA;}
	.st2{fill:#80AFBF;}
	.st3{fill:#4A686B;}
	.st4{fill:#FFFFFF;}
	.st5{font-family:'Krub-Regular';}
	.st6{font-size:28.8897px;}
	.st7{font-family:'Krub-Bold';}
</style>
<g>
	<g>
		<polygon class="st0" points="-498,-2877.7 -498,-3290 -1063,-3290 -608,-2910 		"/>
	</g>
	<g>
		<polygon class="st1" points="-1063,-3290 -1248,-3290 -1248,-2539.55 -608,-2910 		"/>
	</g>
	<g>
		<polygon class="st2" points="-1247.5,-1955.96 -1247.5,-1955.5 -1242.33,-1955.5 		"/>
		<polygon class="st2" points="-498.5,-1955.5 -498.5,-2877.63 -608,-2910 -1247.5,-2539.81 -1247.5,-1955.96 -1242.33,-1955.5 		
			"/>
	</g>
</g>
<g>
	<circle class="st3" cx="-1002" cy="-2941" r="185"/>
	<g>
		<g>
			<path class="st4" d="M-1120.07-2919.43v-93.5h19.83c7.7,0,13.55,2.1,17.53,6.3s5.97,10.16,5.97,17.86v43.73
				c0,8.75-2.12,15.21-6.37,19.37c-4.25,4.16-10.35,6.24-18.32,6.24L-1120.07-2919.43L-1120.07-2919.43z M-1106.68-3000.32v68.28
				h6.17c3.76,0,6.43-0.94,8.01-2.82c1.58-1.88,2.36-4.84,2.36-8.86v-45.04c0-3.68-0.74-6.52-2.23-8.54
				c-1.49-2.01-4.2-3.02-8.14-3.02L-1106.68-3000.32L-1106.68-3000.32z"/>
			<path class="st3" d="M-1101.42-2917.53h-20.55v-97.3h21.73c8.21,0,14.57,2.32,18.91,6.9c4.31,4.55,6.5,11,6.5,19.17v43.73
				c0,9.24-2.33,16.22-6.94,20.73C-1086.37-2919.81-1092.98-2917.53-1101.42-2917.53z M-1118.17-2921.34h16.74
				c7.41,0,13.13-1.92,16.99-5.69c3.85-3.77,5.8-9.83,5.8-18.01v-43.73c0-7.16-1.83-12.73-5.45-16.55
				c-3.59-3.79-9.03-5.71-16.15-5.71h-17.92v89.69H-1118.17z M-1100.5-2930.13h-8.08v-72.09h8.08c4.56,0,7.81,1.28,9.67,3.79
				c1.73,2.34,2.61,5.6,2.61,9.67v45.04c0,4.53-0.92,7.83-2.81,10.09C-1092.98-2931.31-1096.17-2930.13-1100.5-2930.13z
				 M-1104.77-2933.94h4.27c3.16,0,5.36-0.72,6.55-2.14c1.27-1.52,1.92-4.09,1.92-7.64v-45.04c0-3.24-0.63-5.73-1.86-7.4
				c-1.1-1.49-3.33-2.25-6.61-2.25h-4.27L-1104.77-2933.94L-1104.77-2933.94z"/>
		</g>
		<g>
			<path class="st4" d="M-1064.92-2990.87c0-3.76,0.66-7.09,1.97-9.98c1.31-2.89,3.06-5.3,5.25-7.22c2.1-1.84,4.49-3.24,7.16-4.2
				s5.36-1.44,8.08-1.44c2.71,0,5.4,0.48,8.08,1.44c2.67,0.96,5.1,2.36,7.29,4.2c2.1,1.93,3.81,4.33,5.12,7.22s1.97,6.22,1.97,9.98
				v49.37c0,3.94-0.66,7.31-1.97,10.11s-3.02,5.12-5.12,6.96c-2.19,1.93-4.62,3.37-7.29,4.33s-5.36,1.44-8.08,1.44
				c-2.71,0-5.41-0.48-8.08-1.44c-2.67-0.96-5.06-2.41-7.16-4.33c-2.19-1.84-3.94-4.16-5.25-6.96s-1.97-6.17-1.97-10.11V-2990.87z
				 M-1051.53-2941.49c0,3.24,0.9,5.63,2.69,7.16c1.79,1.53,3.92,2.3,6.37,2.3s4.57-0.77,6.37-2.3c1.79-1.53,2.69-3.92,2.69-7.16
				v-49.37c0-3.24-0.9-5.62-2.69-7.16c-1.79-1.53-3.92-2.3-6.37-2.3s-4.58,0.77-6.37,2.3c-1.8,1.53-2.69,3.92-2.69,7.16V-2941.49z"
				/>
			<path class="st3" d="M-1042.46-2916.74c-2.92,0-5.85-0.52-8.72-1.56c-2.88-1.04-5.5-2.62-7.77-4.69
				c-2.38-2.01-4.3-4.56-5.72-7.58c-1.43-3.04-2.15-6.72-2.15-10.92v-49.37c0-4.02,0.72-7.64,2.14-10.77
				c1.42-3.12,3.35-5.77,5.73-7.86c2.27-1.99,4.88-3.52,7.77-4.56c5.73-2.07,11.7-2.07,17.44,0c2.87,1.04,5.52,2.56,7.87,4.54
				l0.06,0.05c2.28,2.09,4.15,4.73,5.57,7.84c1.42,3.12,2.14,6.75,2.14,10.77v49.37c0,4.2-0.72,7.88-2.15,10.92
				c-1.42,3.03-3.3,5.58-5.59,7.58c-2.35,2.07-5.01,3.65-7.9,4.69C-1036.61-2917.26-1039.55-2916.74-1042.46-2916.74z
				 M-1042.46-3011.81c-2.48,0-4.98,0.45-7.43,1.33c-2.43,0.88-4.64,2.17-6.55,3.84c-1.97,1.73-3.58,3.95-4.77,6.58
				c-1.19,2.63-1.8,5.72-1.8,9.19v49.37c0,3.64,0.6,6.77,1.79,9.3c1.19,2.54,2.79,4.66,4.75,6.31l0.06,0.06
				c1.9,1.75,4.1,3.07,6.52,3.94c4.9,1.77,9.95,1.77,14.86,0c2.43-0.88,4.68-2.21,6.68-3.97c1.9-1.66,3.46-3.79,4.66-6.34
				c1.19-2.53,1.79-5.66,1.79-9.3v-49.37c0-3.47-0.61-6.57-1.8-9.19c-1.19-2.63-2.76-4.84-4.64-6.58c-2-1.67-4.24-2.96-6.68-3.84
				C-1037.49-3011.36-1039.99-3011.81-1042.46-3011.81z M-1042.46-2930.13c-2.91,0-5.47-0.93-7.61-2.76
				c-2.23-1.9-3.36-4.79-3.36-8.6v-49.37c0-3.81,1.13-6.7,3.36-8.6c2.14-1.83,4.7-2.75,7.61-2.75c2.9,0,5.46,0.93,7.6,2.75
				c2.23,1.91,3.36,4.8,3.36,8.61v49.37c0,3.81-1.13,6.7-3.36,8.6C-1037-2931.06-1039.56-2930.13-1042.46-2930.13z
				 M-1042.46-2998.42c-2,0-3.68,0.6-5.13,1.84c-1.36,1.16-2.02,3.03-2.02,5.71v49.37c0,2.68,0.66,4.55,2.02,5.71
				c1.45,1.24,3.13,1.84,5.13,1.84s3.68-0.6,5.13-1.84c1.36-1.16,2.02-3.03,2.02-5.71v-49.37c0-2.68-0.66-4.54-2.02-5.71
				C-1038.79-2997.81-1040.46-2998.42-1042.46-2998.42z"/>
		</g>
		<g>
			<path class="st4" d="M-1007.8-2919.43v-93.5h13.39v93.5H-1007.8z"/>
			<path class="st3" d="M-992.5-2917.53h-17.2v-97.3h17.2V-2917.53z M-1005.89-2921.34h9.59v-89.69h-9.59V-2921.34z"/>
		</g>
		<g>
			<path class="st4" d="M-981.93-2919.43v-93.5h12.87l20.22,56.33h0.26v-56.33h13.39v93.5h-12.61l-20.48-56.2h-0.26v56.2H-981.93z"
				/>
			<path class="st3" d="M-933.28-2917.53h-15.84l-17.51-48.04v48.04h-17.2v-97.3h16.11l17.24,48.03v-48.03h17.2L-933.28-2917.53
				L-933.28-2917.53z M-946.46-2921.34h9.37v-89.69h-9.59v56.33h-3.51l-20.22-56.33h-9.62v89.69h9.58v-56.2h3.5L-946.46-2921.34z"/>
		</g>
		<g>
			<path class="st4" d="M-923.89-2990.87c0-3.76,0.66-7.09,1.97-9.98s3.06-5.3,5.25-7.22c2.1-1.84,4.49-3.24,7.16-4.2
				s5.36-1.44,8.08-1.44c2.71,0,5.4,0.48,8.08,1.44c2.67,0.96,5.1,2.36,7.29,4.2c2.1,1.93,3.81,4.33,5.12,7.22s1.97,6.22,1.97,9.98
				v4.73h-13.39v-4.73c0-3.24-0.9-5.62-2.69-7.16c-1.79-1.53-3.92-2.3-6.37-2.3s-4.58,0.77-6.37,2.3c-1.8,1.53-2.69,3.92-2.69,7.16
				v49.37c0,3.24,0.9,5.63,2.69,7.16s3.92,2.3,6.37,2.3s4.57-0.77,6.37-2.3c1.79-1.53,2.69-3.92,2.69-7.16v-17.6H-903v-11.82h24.03
				v29.41c0,3.94-0.66,7.31-1.97,10.11s-3.02,5.12-5.12,6.96c-2.19,1.93-4.62,3.37-7.29,4.33s-5.36,1.44-8.08,1.44
				c-2.71,0-5.41-0.48-8.08-1.44c-2.67-0.96-5.06-2.41-7.16-4.33c-2.19-1.84-3.94-4.16-5.25-6.96s-1.97-6.17-1.97-10.11V-2990.87z"
				/>
			<path class="st3" d="M-901.44-2916.74c-2.92,0-5.85-0.52-8.72-1.56c-2.88-1.04-5.5-2.62-7.77-4.69c-2.38-2.01-4.3-4.56-5.72-7.58
				c-1.43-3.04-2.15-6.72-2.15-10.92v-49.37c0-4.02,0.72-7.64,2.14-10.77c1.42-3.12,3.35-5.77,5.73-7.86
				c2.27-1.99,4.88-3.52,7.77-4.56c5.73-2.07,11.7-2.07,17.44,0c2.87,1.04,5.52,2.56,7.87,4.54l0.06,0.05
				c2.28,2.09,4.15,4.73,5.57,7.84c1.42,3.12,2.14,6.75,2.14,10.77v6.63h-17.2v-6.63c0-2.68-0.66-4.54-2.02-5.71
				c-1.45-1.24-3.13-1.84-5.13-1.84s-3.68,0.6-5.13,1.84c-1.36,1.16-2.02,3.03-2.02,5.71v49.37c0,2.68,0.66,4.55,2.02,5.71
				c1.45,1.24,3.13,1.84,5.13,1.84s3.68-0.6,5.13-1.84c1.36-1.16,2.02-3.03,2.02-5.71v-15.69h-10.64v-15.63h27.84v31.32
				c0,4.2-0.72,7.88-2.15,10.92c-1.42,3.03-3.3,5.58-5.59,7.58c-2.35,2.07-5.01,3.65-7.9,4.69
				C-895.59-2917.26-898.52-2916.74-901.44-2916.74z M-901.44-3011.81c-2.48,0-4.98,0.45-7.43,1.33c-2.43,0.88-4.64,2.17-6.55,3.84
				c-1.97,1.73-3.58,3.95-4.77,6.58c-1.19,2.63-1.8,5.72-1.8,9.19v49.37c0,3.64,0.6,6.77,1.79,9.3c1.19,2.54,2.79,4.66,4.75,6.31
				l0.06,0.06c1.9,1.75,4.1,3.07,6.52,3.94c4.9,1.77,9.95,1.77,14.86,0c2.43-0.88,4.68-2.21,6.68-3.97c1.9-1.66,3.46-3.79,4.66-6.34
				c1.19-2.53,1.79-5.66,1.79-9.3v-27.5h-20.22v8.01h10.64v19.5c0,3.81-1.13,6.7-3.36,8.6c-2.14,1.83-4.7,2.75-7.6,2.75
				c-2.91,0-5.47-0.93-7.61-2.76c-2.23-1.9-3.36-4.79-3.36-8.6v-49.37c0-3.81,1.13-6.7,3.36-8.6c2.14-1.83,4.7-2.75,7.61-2.75
				c2.9,0,5.46,0.93,7.6,2.75c2.23,1.91,3.36,4.8,3.36,8.61v2.82h9.59v-2.82c0-3.47-0.61-6.57-1.8-9.19
				c-1.19-2.63-2.76-4.84-4.64-6.58c-2-1.67-4.24-2.96-6.68-3.84C-896.46-3011.36-898.96-3011.81-901.44-3011.81z"/>
		</g>
	</g>
	<text transform="matrix(1 0 0 1 -1122.7148 -2872.9512)" class="st4 st5 st6">Part of </text>
	<text transform="matrix(1 0 0 1 -1026.0548 -2872.9512)" class="st4 st7 st6">Capgemini</text>
</g>
<g>
	<g>
		<polygon class="st0" points="-498,-2877.7 -498,-3290 -1063,-3290 -608,-2910 		"/>
	</g>
	<g>
		<polygon class="st1" points="-1063,-3290 -1248,-3290 -1248,-2539.55 -608,-2910 		"/>
	</g>
	<g>
		<polygon class="st2" points="-1247.5,-1955.96 -1247.5,-1955.5 -1242.33,-1955.5 		"/>
		<polygon class="st2" points="-498.5,-1955.5 -498.5,-2877.63 -608,-2910 -1247.5,-2539.81 -1247.5,-1955.96 -1242.33,-1955.5 		
			"/>
	</g>
</g>
<g>
	<circle class="st3" cx="-1002" cy="-2941" r="185"/>
	<g>
		<g>
			<path class="st4" d="M-1120.07-2919.43v-93.5h19.83c7.7,0,13.55,2.1,17.53,6.3s5.97,10.16,5.97,17.86v43.73
				c0,8.75-2.12,15.21-6.37,19.37c-4.25,4.16-10.35,6.24-18.32,6.24L-1120.07-2919.43L-1120.07-2919.43z M-1106.68-3000.32v68.28
				h6.17c3.76,0,6.43-0.94,8.01-2.82c1.58-1.88,2.36-4.84,2.36-8.86v-45.04c0-3.68-0.74-6.52-2.23-8.54
				c-1.49-2.01-4.2-3.02-8.14-3.02L-1106.68-3000.32L-1106.68-3000.32z"/>
			<path class="st3" d="M-1101.42-2917.53h-20.55v-97.3h21.73c8.21,0,14.57,2.32,18.91,6.9c4.31,4.55,6.5,11,6.5,19.17v43.73
				c0,9.24-2.33,16.22-6.94,20.73C-1086.37-2919.81-1092.98-2917.53-1101.42-2917.53z M-1118.17-2921.34h16.74
				c7.41,0,13.13-1.92,16.99-5.69c3.85-3.77,5.8-9.83,5.8-18.01v-43.73c0-7.16-1.83-12.73-5.45-16.55
				c-3.59-3.79-9.03-5.71-16.15-5.71h-17.92v89.69H-1118.17z M-1100.5-2930.13h-8.08v-72.09h8.08c4.56,0,7.81,1.28,9.67,3.79
				c1.73,2.34,2.61,5.6,2.61,9.67v45.04c0,4.53-0.92,7.83-2.81,10.09C-1092.98-2931.31-1096.17-2930.13-1100.5-2930.13z
				 M-1104.77-2933.94h4.27c3.16,0,5.36-0.72,6.55-2.14c1.27-1.52,1.92-4.09,1.92-7.64v-45.04c0-3.24-0.63-5.73-1.86-7.4
				c-1.1-1.49-3.33-2.25-6.61-2.25h-4.27L-1104.77-2933.94L-1104.77-2933.94z"/>
		</g>
		<g>
			<path class="st4" d="M-1064.92-2990.87c0-3.76,0.66-7.09,1.97-9.98c1.31-2.89,3.06-5.3,5.25-7.22c2.1-1.84,4.49-3.24,7.16-4.2
				s5.36-1.44,8.08-1.44c2.71,0,5.4,0.48,8.08,1.44c2.67,0.96,5.1,2.36,7.29,4.2c2.1,1.93,3.81,4.33,5.12,7.22s1.97,6.22,1.97,9.98
				v49.37c0,3.94-0.66,7.31-1.97,10.11s-3.02,5.12-5.12,6.96c-2.19,1.93-4.62,3.37-7.29,4.33s-5.36,1.44-8.08,1.44
				c-2.71,0-5.41-0.48-8.08-1.44c-2.67-0.96-5.06-2.41-7.16-4.33c-2.19-1.84-3.94-4.16-5.25-6.96s-1.97-6.17-1.97-10.11V-2990.87z
				 M-1051.53-2941.49c0,3.24,0.9,5.63,2.69,7.16c1.79,1.53,3.92,2.3,6.37,2.3s4.57-0.77,6.37-2.3c1.79-1.53,2.69-3.92,2.69-7.16
				v-49.37c0-3.24-0.9-5.62-2.69-7.16c-1.79-1.53-3.92-2.3-6.37-2.3s-4.58,0.77-6.37,2.3c-1.8,1.53-2.69,3.92-2.69,7.16V-2941.49z"
				/>
			<path class="st3" d="M-1042.46-2916.74c-2.92,0-5.85-0.52-8.72-1.56c-2.88-1.04-5.5-2.62-7.77-4.69
				c-2.38-2.01-4.3-4.56-5.72-7.58c-1.43-3.04-2.15-6.72-2.15-10.92v-49.37c0-4.02,0.72-7.64,2.14-10.77
				c1.42-3.12,3.35-5.77,5.73-7.86c2.27-1.99,4.88-3.52,7.77-4.56c5.73-2.07,11.7-2.07,17.44,0c2.87,1.04,5.52,2.56,7.87,4.54
				l0.06,0.05c2.28,2.09,4.15,4.73,5.57,7.84c1.42,3.12,2.14,6.75,2.14,10.77v49.37c0,4.2-0.72,7.88-2.15,10.92
				c-1.42,3.03-3.3,5.58-5.59,7.58c-2.35,2.07-5.01,3.65-7.9,4.69C-1036.61-2917.26-1039.55-2916.74-1042.46-2916.74z
				 M-1042.46-3011.81c-2.48,0-4.98,0.45-7.43,1.33c-2.43,0.88-4.64,2.17-6.55,3.84c-1.97,1.73-3.58,3.95-4.77,6.58
				c-1.19,2.63-1.8,5.72-1.8,9.19v49.37c0,3.64,0.6,6.77,1.79,9.3c1.19,2.54,2.79,4.66,4.75,6.31l0.06,0.06
				c1.9,1.75,4.1,3.07,6.52,3.94c4.9,1.77,9.95,1.77,14.86,0c2.43-0.88,4.68-2.21,6.68-3.97c1.9-1.66,3.46-3.79,4.66-6.34
				c1.19-2.53,1.79-5.66,1.79-9.3v-49.37c0-3.47-0.61-6.57-1.8-9.19c-1.19-2.63-2.76-4.84-4.64-6.58c-2-1.67-4.24-2.96-6.68-3.84
				C-1037.49-3011.36-1039.99-3011.81-1042.46-3011.81z M-1042.46-2930.13c-2.91,0-5.47-0.93-7.61-2.76
				c-2.23-1.9-3.36-4.79-3.36-8.6v-49.37c0-3.81,1.13-6.7,3.36-8.6c2.14-1.83,4.7-2.75,7.61-2.75c2.9,0,5.46,0.93,7.6,2.75
				c2.23,1.91,3.36,4.8,3.36,8.61v49.37c0,3.81-1.13,6.7-3.36,8.6C-1037-2931.06-1039.56-2930.13-1042.46-2930.13z
				 M-1042.46-2998.42c-2,0-3.68,0.6-5.13,1.84c-1.36,1.16-2.02,3.03-2.02,5.71v49.37c0,2.68,0.66,4.55,2.02,5.71
				c1.45,1.24,3.13,1.84,5.13,1.84s3.68-0.6,5.13-1.84c1.36-1.16,2.02-3.03,2.02-5.71v-49.37c0-2.68-0.66-4.54-2.02-5.71
				C-1038.79-2997.81-1040.46-2998.42-1042.46-2998.42z"/>
		</g>
		<g>
			<path class="st4" d="M-1007.8-2919.43v-93.5h13.39v93.5H-1007.8z"/>
			<path class="st3" d="M-992.5-2917.53h-17.2v-97.3h17.2V-2917.53z M-1005.89-2921.34h9.59v-89.69h-9.59V-2921.34z"/>
		</g>
		<g>
			<path class="st4" d="M-981.93-2919.43v-93.5h12.87l20.22,56.33h0.26v-56.33h13.39v93.5h-12.61l-20.48-56.2h-0.26v56.2H-981.93z"
				/>
			<path class="st3" d="M-933.28-2917.53h-15.84l-17.51-48.04v48.04h-17.2v-97.3h16.11l17.24,48.03v-48.03h17.2L-933.28-2917.53
				L-933.28-2917.53z M-946.46-2921.34h9.37v-89.69h-9.59v56.33h-3.51l-20.22-56.33h-9.62v89.69h9.58v-56.2h3.5L-946.46-2921.34z"/>
		</g>
		<g>
			<path class="st4" d="M-923.89-2990.87c0-3.76,0.66-7.09,1.97-9.98s3.06-5.3,5.25-7.22c2.1-1.84,4.49-3.24,7.16-4.2
				s5.36-1.44,8.08-1.44c2.71,0,5.4,0.48,8.08,1.44c2.67,0.96,5.1,2.36,7.29,4.2c2.1,1.93,3.81,4.33,5.12,7.22s1.97,6.22,1.97,9.98
				v4.73h-13.39v-4.73c0-3.24-0.9-5.62-2.69-7.16c-1.79-1.53-3.92-2.3-6.37-2.3s-4.58,0.77-6.37,2.3c-1.8,1.53-2.69,3.92-2.69,7.16
				v49.37c0,3.24,0.9,5.63,2.69,7.16s3.92,2.3,6.37,2.3s4.57-0.77,6.37-2.3c1.79-1.53,2.69-3.92,2.69-7.16v-17.6H-903v-11.82h24.03
				v29.41c0,3.94-0.66,7.31-1.97,10.11s-3.02,5.12-5.12,6.96c-2.19,1.93-4.62,3.37-7.29,4.33s-5.36,1.44-8.08,1.44
				c-2.71,0-5.41-0.48-8.08-1.44c-2.67-0.96-5.06-2.41-7.16-4.33c-2.19-1.84-3.94-4.16-5.25-6.96s-1.97-6.17-1.97-10.11V-2990.87z"
				/>
			<path class="st3" d="M-901.44-2916.74c-2.92,0-5.85-0.52-8.72-1.56c-2.88-1.04-5.5-2.62-7.77-4.69c-2.38-2.01-4.3-4.56-5.72-7.58
				c-1.43-3.04-2.15-6.72-2.15-10.92v-49.37c0-4.02,0.72-7.64,2.14-10.77c1.42-3.12,3.35-5.77,5.73-7.86
				c2.27-1.99,4.88-3.52,7.77-4.56c5.73-2.07,11.7-2.07,17.44,0c2.87,1.04,5.52,2.56,7.87,4.54l0.06,0.05
				c2.28,2.09,4.15,4.73,5.57,7.84c1.42,3.12,2.14,6.75,2.14,10.77v6.63h-17.2v-6.63c0-2.68-0.66-4.54-2.02-5.71
				c-1.45-1.24-3.13-1.84-5.13-1.84s-3.68,0.6-5.13,1.84c-1.36,1.16-2.02,3.03-2.02,5.71v49.37c0,2.68,0.66,4.55,2.02,5.71
				c1.45,1.24,3.13,1.84,5.13,1.84s3.68-0.6,5.13-1.84c1.36-1.16,2.02-3.03,2.02-5.71v-15.69h-10.64v-15.63h27.84v31.32
				c0,4.2-0.72,7.88-2.15,10.92c-1.42,3.03-3.3,5.58-5.59,7.58c-2.35,2.07-5.01,3.65-7.9,4.69
				C-895.59-2917.26-898.52-2916.74-901.44-2916.74z M-901.44-3011.81c-2.48,0-4.98,0.45-7.43,1.33c-2.43,0.88-4.64,2.17-6.55,3.84
				c-1.97,1.73-3.58,3.95-4.77,6.58c-1.19,2.63-1.8,5.72-1.8,9.19v49.37c0,3.64,0.6,6.77,1.79,9.3c1.19,2.54,2.79,4.66,4.75,6.31
				l0.06,0.06c1.9,1.75,4.1,3.07,6.52,3.94c4.9,1.77,9.95,1.77,14.86,0c2.43-0.88,4.68-2.21,6.68-3.97c1.9-1.66,3.46-3.79,4.66-6.34
				c1.19-2.53,1.79-5.66,1.79-9.3v-27.5h-20.22v8.01h10.64v19.5c0,3.81-1.13,6.7-3.36,8.6c-2.14,1.83-4.7,2.75-7.6,2.75
				c-2.91,0-5.47-0.93-7.61-2.76c-2.23-1.9-3.36-4.79-3.36-8.6v-49.37c0-3.81,1.13-6.7,3.36-8.6c2.14-1.83,4.7-2.75,7.61-2.75
				c2.9,0,5.46,0.93,7.6,2.75c2.23,1.91,3.36,4.8,3.36,8.61v2.82h9.59v-2.82c0-3.47-0.61-6.57-1.8-9.19
				c-1.19-2.63-2.76-4.84-4.64-6.58c-2-1.67-4.24-2.96-6.68-3.84C-896.46-3011.36-898.96-3011.81-901.44-3011.81z"/>
		</g>
	</g>
	<text transform="matrix(1 0 0 1 -1122.7148 -2872.9512)" class="st4 st5 st6">Part of </text>
	<text transform="matrix(1 0 0 1 -1026.0548 -2872.9512)" class="st4 st7 st6">Capgemini</text>
</g>
<g>
	<g>
		<polygon class="st0" points="750,412.3 750,0 185,0 640,380 		"/>
	</g>
	<g>
		<polygon class="st1" points="185,0 0,0 0,750.45 640,380 		"/>
	</g>
	<g>
		<polygon class="st2" points="0.5,1334.04 0.5,1334.5 5.67,1334.5 		"/>
		<polygon class="st2" points="749.5,1334.5 749.5,412.37 640,380 0.5,750.19 0.5,1334.04 5.67,1334.5 		"/>
	</g>
</g>
<g>
	<g>
		<g>
			<path class="st4" d="M253.4,379.87v-93.5h19.83c7.7,0,13.55,2.1,17.53,6.3c3.98,4.2,5.97,10.16,5.97,17.86v43.73
				c0,8.75-2.12,15.21-6.37,19.37s-10.35,6.24-18.32,6.24L253.4,379.87L253.4,379.87z M266.79,298.98v68.28h6.17
				c3.76,0,6.43-0.94,8.01-2.82s2.36-4.84,2.36-8.86v-45.04c0-3.68-0.74-6.52-2.23-8.54c-1.49-2.01-4.2-3.02-8.14-3.02H266.79z"/>
			<path class="st1" d="M272.05,381.77H251.5v-97.3h21.73c8.21,0,14.57,2.32,18.91,6.9c4.31,4.55,6.5,11,6.5,19.17v43.73
				c0,9.24-2.33,16.22-6.94,20.73C287.1,379.49,280.49,381.77,272.05,381.77z M255.3,377.96h16.74c7.41,0,13.13-1.92,16.99-5.69
				c3.85-3.77,5.8-9.83,5.8-18.01v-43.73c0-7.16-1.83-12.73-5.45-16.55c-3.59-3.79-9.03-5.71-16.15-5.71h-17.92v89.69H255.3z
				 M272.97,369.17h-8.08v-72.09h8.08c4.56,0,7.81,1.28,9.67,3.79c1.73,2.34,2.61,5.6,2.61,9.67v45.04c0,4.53-0.92,7.83-2.81,10.09
				C280.49,367.99,277.3,369.17,272.97,369.17z M268.7,365.36h4.27c3.16,0,5.36-0.72,6.55-2.14c1.27-1.52,1.92-4.09,1.92-7.64
				v-45.04c0-3.24-0.63-5.73-1.86-7.4c-1.1-1.49-3.33-2.25-6.61-2.25h-4.27V365.36z"/>
		</g>
		<g>
			<path class="st4" d="M308.55,308.43c0-3.76,0.66-7.09,1.97-9.98s3.06-5.3,5.25-7.22c2.1-1.84,4.49-3.24,7.16-4.2
				c2.67-0.96,5.36-1.44,8.08-1.44c2.71,0,5.4,0.48,8.08,1.44c2.67,0.96,5.1,2.36,7.29,4.2c2.1,1.93,3.81,4.33,5.12,7.22
				s1.97,6.22,1.97,9.98v49.37c0,3.94-0.66,7.31-1.97,10.11s-3.02,5.12-5.12,6.96c-2.19,1.93-4.62,3.37-7.29,4.33
				c-2.67,0.96-5.36,1.44-8.08,1.44c-2.71,0-5.41-0.48-8.08-1.44c-2.67-0.96-5.06-2.41-7.16-4.33c-2.19-1.84-3.94-4.16-5.25-6.96
				s-1.97-6.17-1.97-10.11V308.43z M321.94,357.81c0,3.24,0.9,5.63,2.69,7.16s3.92,2.3,6.37,2.3s4.57-0.77,6.37-2.3
				c1.79-1.53,2.69-3.92,2.69-7.16v-49.37c0-3.24-0.9-5.62-2.69-7.16c-1.79-1.53-3.92-2.3-6.37-2.3s-4.58,0.77-6.37,2.3
				c-1.8,1.53-2.69,3.92-2.69,7.16V357.81z"/>
			<path class="st1" d="M331.01,382.56c-2.92,0-5.85-0.52-8.72-1.56c-2.88-1.04-5.5-2.62-7.77-4.69c-2.38-2.01-4.3-4.56-5.72-7.58
				c-1.43-3.04-2.15-6.72-2.15-10.92v-49.37c0-4.02,0.72-7.64,2.14-10.77c1.42-3.12,3.35-5.77,5.73-7.86
				c2.27-1.99,4.88-3.52,7.77-4.56c5.73-2.07,11.7-2.07,17.44,0c2.87,1.04,5.52,2.56,7.87,4.54l0.06,0.05
				c2.28,2.09,4.15,4.73,5.57,7.84c1.42,3.12,2.14,6.75,2.14,10.77v49.37c0,4.2-0.72,7.88-2.15,10.92c-1.42,3.03-3.3,5.58-5.59,7.58
				c-2.35,2.07-5.01,3.65-7.9,4.69C336.86,382.04,333.92,382.56,331.01,382.56z M331.01,287.49c-2.48,0-4.98,0.45-7.43,1.33
				c-2.43,0.88-4.64,2.17-6.55,3.84c-1.97,1.73-3.58,3.95-4.77,6.58c-1.19,2.63-1.8,5.72-1.8,9.19v49.37c0,3.64,0.6,6.77,1.79,9.3
				c1.19,2.54,2.79,4.66,4.75,6.31l0.06,0.06c1.9,1.75,4.1,3.07,6.52,3.94c4.9,1.77,9.95,1.77,14.86,0
				c2.43-0.88,4.68-2.21,6.68-3.97c1.9-1.66,3.46-3.79,4.66-6.34c1.19-2.53,1.79-5.66,1.79-9.3v-49.37c0-3.47-0.61-6.57-1.8-9.19
				c-1.19-2.63-2.76-4.84-4.64-6.58c-2-1.67-4.24-2.96-6.68-3.84C335.98,287.94,333.48,287.49,331.01,287.49z M331.01,369.17
				c-2.91,0-5.47-0.93-7.61-2.76c-2.23-1.9-3.36-4.79-3.36-8.6v-49.37c0-3.81,1.13-6.7,3.36-8.6c2.14-1.83,4.7-2.75,7.61-2.75
				c2.9,0,5.46,0.93,7.6,2.75c2.23,1.91,3.36,4.8,3.36,8.61v49.37c0,3.81-1.13,6.7-3.36,8.6
				C336.47,368.24,333.91,369.17,331.01,369.17z M331.01,300.88c-2,0-3.68,0.6-5.13,1.84c-1.36,1.16-2.02,3.03-2.02,5.71v49.37
				c0,2.68,0.66,4.55,2.02,5.71c1.45,1.24,3.13,1.84,5.13,1.84s3.68-0.6,5.13-1.84c1.36-1.16,2.02-3.03,2.02-5.71v-49.37
				c0-2.68-0.66-4.54-2.02-5.71C334.68,301.49,333.01,300.88,331.01,300.88z"/>
		</g>
		<g>
			<path class="st4" d="M365.67,379.87v-93.5h13.39v93.5H365.67z"/>
			<path class="st1" d="M380.97,381.77h-17.2v-97.3h17.2V381.77z M367.58,377.96h9.59v-89.69h-9.59V377.96z"/>
		</g>
		<g>
			<path class="st4" d="M391.54,379.87v-93.5h12.87l20.22,56.33h0.26v-56.33h13.39v93.5h-12.61l-20.48-56.2h-0.26v56.2H391.54z"/>
			<path class="st1" d="M440.19,381.77h-15.84l-17.51-48.04v48.04h-17.2v-97.3h16.11l17.24,48.03v-48.03h17.2L440.19,381.77
				L440.19,381.77z M427.01,377.96h9.37v-89.69h-9.59v56.33h-3.51l-20.22-56.33h-9.62v89.69h9.58v-56.2h3.5L427.01,377.96z"/>
		</g>
		<g>
			<path class="st4" d="M449.58,308.43c0-3.76,0.66-7.09,1.97-9.98s3.06-5.3,5.25-7.22c2.1-1.84,4.49-3.24,7.16-4.2
				c2.67-0.96,5.36-1.44,8.08-1.44c2.71,0,5.4,0.48,8.08,1.44c2.67,0.96,5.1,2.36,7.29,4.2c2.1,1.93,3.81,4.33,5.12,7.22
				s1.97,6.22,1.97,9.98v4.73h-13.39v-4.73c0-3.24-0.9-5.62-2.69-7.16c-1.79-1.53-3.92-2.3-6.37-2.3c-2.45,0-4.58,0.77-6.37,2.3
				c-1.8,1.53-2.69,3.92-2.69,7.16v49.37c0,3.24,0.9,5.63,2.69,7.16s3.92,2.3,6.37,2.3c2.45,0,4.57-0.77,6.37-2.3
				c1.79-1.53,2.69-3.92,2.69-7.16v-17.6h-10.64v-11.82h24.03v29.41c0,3.94-0.66,7.31-1.97,10.11s-3.02,5.12-5.12,6.96
				c-2.19,1.93-4.62,3.37-7.29,4.33s-5.36,1.44-8.08,1.44c-2.71,0-5.41-0.48-8.08-1.44c-2.67-0.96-5.06-2.41-7.16-4.33
				c-2.19-1.84-3.94-4.16-5.25-6.96s-1.97-6.17-1.97-10.11L449.58,308.43L449.58,308.43z"/>
			<path class="st1" d="M472.03,382.56c-2.92,0-5.85-0.52-8.72-1.56c-2.88-1.04-5.5-2.62-7.77-4.69c-2.38-2.01-4.3-4.56-5.72-7.58
				c-1.43-3.04-2.15-6.72-2.15-10.92v-49.37c0-4.02,0.72-7.64,2.14-10.77c1.42-3.12,3.35-5.77,5.73-7.86
				c2.27-1.99,4.88-3.52,7.77-4.56c5.73-2.07,11.7-2.07,17.44,0c2.87,1.04,5.52,2.56,7.87,4.54l0.06,0.05
				c2.28,2.09,4.15,4.73,5.57,7.84c1.42,3.12,2.14,6.75,2.14,10.77v6.63h-17.2v-6.63c0-2.68-0.66-4.54-2.02-5.71
				c-1.45-1.24-3.13-1.84-5.13-1.84s-3.68,0.6-5.13,1.84c-1.36,1.16-2.02,3.03-2.02,5.71v49.37c0,2.68,0.66,4.55,2.02,5.71
				c1.45,1.24,3.13,1.84,5.13,1.84s3.68-0.6,5.13-1.84c1.36-1.16,2.02-3.03,2.02-5.71v-15.69h-10.64V326.5h27.84v31.32
				c0,4.2-0.72,7.88-2.15,10.92c-1.42,3.03-3.3,5.58-5.59,7.58c-2.35,2.07-5.01,3.65-7.9,4.69
				C477.88,382.04,474.95,382.56,472.03,382.56z M472.03,287.49c-2.48,0-4.98,0.45-7.43,1.33c-2.43,0.88-4.64,2.17-6.55,3.84
				c-1.97,1.73-3.58,3.95-4.77,6.58c-1.19,2.63-1.8,5.72-1.8,9.19v49.37c0,3.64,0.6,6.77,1.79,9.3c1.19,2.54,2.79,4.66,4.75,6.31
				l0.06,0.06c1.9,1.75,4.1,3.07,6.52,3.94c4.9,1.77,9.95,1.77,14.86,0c2.43-0.88,4.68-2.21,6.67-3.97c1.9-1.66,3.46-3.79,4.66-6.34
				c1.19-2.53,1.79-5.66,1.79-9.3v-27.5h-20.22v8.01H483v19.5c0,3.81-1.13,6.7-3.36,8.6c-2.14,1.83-4.7,2.75-7.6,2.75
				c-2.91,0-5.47-0.93-7.61-2.76c-2.23-1.9-3.36-4.79-3.36-8.6v-49.37c0-3.81,1.13-6.7,3.36-8.6c2.14-1.83,4.7-2.75,7.61-2.75
				c2.9,0,5.46,0.93,7.6,2.75c2.23,1.91,3.36,4.8,3.36,8.61v2.82h9.59v-2.82c0-3.47-0.61-6.57-1.8-9.19
				c-1.19-2.63-2.76-4.84-4.64-6.58c-2-1.67-4.24-2.96-6.68-3.84C477.01,287.94,474.51,287.49,472.03,287.49z"/>
		</g>
	</g>
	<text transform="matrix(1 0 0 1 250.76 426.3488)" class="st4 st5 st6">Part of </text>
	<text transform="matrix(1 0 0 1 347.4201 426.3488)" class="st4 st7 st6">Capgemini</text>
</g>
</svg>
