<?xml version="1.0" encoding="utf-8"?>
<!-- Generator: Adobe Illustrator 23.0.4, SVG Export Plug-In . SVG Version: 6.00 Build 0)  -->
<svg version="1.1" id="Livello_1" xmlns="http://www.w3.org/2000/svg" xmlns:xlink="http://www.w3.org/1999/xlink" x="0px" y="0px"
	 viewBox="0 0 750 1334" style="enable-background:new 0 0 750 1334;" xml:space="preserve">
<style type="text/css">
	.st0{fill:#6A929B;}
	.st1{fill:#729EAA;}
	.st2{fill:#80AFBF;}
	.st3{fill:#4A686B;}
	.st4{fill:#FFFFFF;}
	.st5{clip-path:url(#SVGID_2_);}
	.st6{fill:#637275;}
	.st7{fill:#394244;}
	.st8{fill:#2B2B2B;}
	.st9{opacity:0.13;}
	.st10{opacity:0.06;}
	.st11{opacity:0.38;fill:none;stroke:#FFFFFF;stroke-width:3;stroke-miterlimit:10;}
	.st12{clip-path:url(#SVGID_4_);}
	.st13{fill:url(#SVGID_5_);}
	.st14{opacity:0.9;}
	.st15{clip-path:url(#SVGID_7_);}
	.st16{fill:url(#SVGID_8_);}
	.st17{clip-path:url(#SVGID_10_);}
	.st18{fill:url(#SVGID_11_);}
</style>
<g>
	<g>
		<polygon class="st0" points="-498,-2877.7 -498,-3290 -1063,-3290 -608,-2910 		"/>
	</g>
	<g>
		<polygon class="st1" points="-1063,-3290 -1248,-3290 -1248,-2539.55 -608,-2910 		"/>
	</g>
	<g>
		<polygon class="st2" points="-1247.5,-1955.96 -1247.5,-1955.5 -1242.33,-1955.5 		"/>
		<polygon class="st2" points="-498.5,-1955.5 -498.5,-2877.63 -608,-2910 -1247.5,-2539.81 -1247.5,-1955.96 -1242.33,-1955.5 		
			"/>
	</g>
</g>
<g>
	<circle class="st3" cx="-1002" cy="-2941" r="185"/>
	<g>
		<g>
			<path class="st4" d="M-1120.07-2919.43v-93.5h19.83c7.7,0,13.55,2.1,17.53,6.3c3.98,4.2,5.97,10.16,5.97,17.86v43.73
				c0,8.75-2.12,15.21-6.37,19.37c-4.25,4.16-10.35,6.24-18.32,6.24H-1120.07z M-1106.68-3000.32v68.28h6.17
				c3.76,0,6.43-0.94,8.01-2.82c1.58-1.88,2.36-4.84,2.36-8.86v-45.04c0-3.68-0.74-6.52-2.23-8.54c-1.49-2.01-4.2-3.02-8.14-3.02
				H-1106.68z"/>
			<path class="st3" d="M-1101.42-2917.53h-20.55v-97.3h21.73c8.21,0,14.57,2.32,18.91,6.9c4.31,4.55,6.5,11,6.5,19.17v43.73
				c0,9.24-2.33,16.22-6.94,20.73C-1086.37-2919.81-1092.98-2917.53-1101.42-2917.53z M-1118.17-2921.34h16.74
				c7.41,0,13.13-1.92,16.99-5.69c3.85-3.77,5.8-9.83,5.8-18.01v-43.73c0-7.16-1.83-12.73-5.45-16.55
				c-3.59-3.79-9.03-5.71-16.15-5.71h-17.92V-2921.34z M-1100.5-2930.13h-8.08v-72.09h8.08c4.56,0,7.81,1.28,9.67,3.79
				c1.73,2.34,2.61,5.6,2.61,9.67v45.04c0,4.53-0.92,7.83-2.81,10.09C-1092.98-2931.31-1096.17-2930.13-1100.5-2930.13z
				 M-1104.77-2933.94h4.27c3.16,0,5.36-0.72,6.55-2.14c1.27-1.52,1.92-4.09,1.92-7.64v-45.04c0-3.24-0.63-5.73-1.86-7.4
				c-1.1-1.49-3.33-2.25-6.61-2.25h-4.27V-2933.94z"/>
		</g>
		<g>
			<path class="st4" d="M-1064.92-2990.87c0-3.76,0.66-7.09,1.97-9.98c1.31-2.89,3.06-5.3,5.25-7.22c2.1-1.84,4.49-3.24,7.16-4.2
				c2.67-0.96,5.36-1.44,8.08-1.44c2.71,0,5.4,0.48,8.08,1.44c2.67,0.96,5.1,2.36,7.29,4.2c2.1,1.93,3.81,4.33,5.12,7.22
				c1.31,2.89,1.97,6.22,1.97,9.98v49.37c0,3.94-0.66,7.31-1.97,10.11c-1.31,2.8-3.02,5.12-5.12,6.96
				c-2.19,1.93-4.62,3.37-7.29,4.33c-2.67,0.96-5.36,1.44-8.08,1.44c-2.71,0-5.41-0.48-8.08-1.44c-2.67-0.96-5.06-2.41-7.16-4.33
				c-2.19-1.84-3.94-4.16-5.25-6.96c-1.31-2.8-1.97-6.17-1.97-10.11V-2990.87z M-1051.53-2941.49c0,3.24,0.9,5.63,2.69,7.16
				c1.79,1.53,3.92,2.3,6.37,2.3c2.45,0,4.57-0.77,6.37-2.3c1.79-1.53,2.69-3.92,2.69-7.16v-49.37c0-3.24-0.9-5.62-2.69-7.16
				c-1.79-1.53-3.92-2.3-6.37-2.3c-2.45,0-4.58,0.77-6.37,2.3c-1.8,1.53-2.69,3.92-2.69,7.16V-2941.49z"/>
			<path class="st3" d="M-1042.46-2916.74c-2.92,0-5.85-0.52-8.72-1.56c-2.88-1.04-5.5-2.62-7.77-4.69
				c-2.38-2.01-4.3-4.56-5.72-7.58c-1.43-3.04-2.15-6.72-2.15-10.92v-49.37c0-4.02,0.72-7.64,2.14-10.77
				c1.42-3.12,3.35-5.77,5.73-7.86c2.27-1.99,4.88-3.52,7.77-4.56c5.73-2.07,11.7-2.07,17.44,0c2.87,1.04,5.52,2.56,7.87,4.54
				l0.06,0.05c2.28,2.09,4.15,4.73,5.57,7.84c1.42,3.12,2.14,6.75,2.14,10.77v49.37c0,4.2-0.72,7.88-2.15,10.92
				c-1.42,3.03-3.3,5.58-5.59,7.58c-2.35,2.07-5.01,3.65-7.9,4.69C-1036.61-2917.26-1039.55-2916.74-1042.46-2916.74z
				 M-1042.46-3011.81c-2.48,0-4.98,0.45-7.43,1.33c-2.43,0.88-4.64,2.17-6.55,3.84c-1.97,1.73-3.58,3.95-4.77,6.58
				c-1.19,2.63-1.8,5.72-1.8,9.19v49.37c0,3.64,0.6,6.77,1.79,9.3c1.19,2.54,2.79,4.66,4.75,6.31l0.06,0.06
				c1.9,1.75,4.1,3.07,6.52,3.94c4.9,1.77,9.95,1.77,14.86,0c2.43-0.88,4.68-2.21,6.68-3.97c1.9-1.66,3.46-3.79,4.66-6.34
				c1.19-2.53,1.79-5.66,1.79-9.3v-49.37c0-3.47-0.61-6.57-1.8-9.19c-1.19-2.63-2.76-4.84-4.64-6.58c-2-1.67-4.24-2.96-6.68-3.84
				C-1037.49-3011.36-1039.99-3011.81-1042.46-3011.81z M-1042.46-2930.13c-2.91,0-5.47-0.93-7.61-2.76
				c-2.23-1.9-3.36-4.79-3.36-8.6v-49.37c0-3.81,1.13-6.7,3.36-8.6c2.14-1.83,4.7-2.75,7.61-2.75c2.9,0,5.46,0.93,7.6,2.75
				c2.23,1.91,3.36,4.8,3.36,8.61v49.37c0,3.81-1.13,6.7-3.36,8.6C-1037-2931.06-1039.56-2930.13-1042.46-2930.13z
				 M-1042.46-2998.42c-2,0-3.68,0.6-5.13,1.84c-1.36,1.16-2.02,3.03-2.02,5.71v49.37c0,2.68,0.66,4.55,2.02,5.71
				c1.45,1.24,3.13,1.84,5.13,1.84c2,0,3.68-0.6,5.13-1.84c1.36-1.16,2.02-3.03,2.02-5.71v-49.37c0-2.68-0.66-4.54-2.02-5.71
				C-1038.79-2997.81-1040.46-2998.42-1042.46-2998.42z"/>
		</g>
		<g>
			<path class="st4" d="M-1007.8-2919.43v-93.5h13.39v93.5H-1007.8z"/>
			<path class="st3" d="M-992.5-2917.53h-17.2v-97.3h17.2V-2917.53z M-1005.89-2921.34h9.59v-89.69h-9.59V-2921.34z"/>
		</g>
		<g>
			<path class="st4" d="M-981.93-2919.43v-93.5h12.87l20.22,56.33h0.26v-56.33h13.39v93.5h-12.61l-20.48-56.2h-0.26v56.2H-981.93z"
				/>
			<path class="st3" d="M-933.28-2917.53h-15.84l-17.51-48.04v48.04h-17.2v-97.3h16.11l17.24,48.03v-48.03h17.2V-2917.53z
				 M-946.46-2921.34h9.37v-89.69h-9.59v56.33h-3.51l-20.22-56.33h-9.62v89.69h9.58v-56.2h3.5L-946.46-2921.34z"/>
		</g>
		<g>
			<path class="st4" d="M-923.89-2990.87c0-3.76,0.66-7.09,1.97-9.98c1.31-2.89,3.06-5.3,5.25-7.22c2.1-1.84,4.49-3.24,7.16-4.2
				c2.67-0.96,5.36-1.44,8.08-1.44c2.71,0,5.4,0.48,8.08,1.44c2.67,0.96,5.1,2.36,7.29,4.2c2.1,1.93,3.81,4.33,5.12,7.22
				c1.31,2.89,1.97,6.22,1.97,9.98v4.73h-13.39v-4.73c0-3.24-0.9-5.62-2.69-7.16c-1.79-1.53-3.92-2.3-6.37-2.3
				c-2.45,0-4.58,0.77-6.37,2.3c-1.8,1.53-2.69,3.92-2.69,7.16v49.37c0,3.24,0.9,5.63,2.69,7.16c1.79,1.53,3.92,2.3,6.37,2.3
				c2.45,0,4.57-0.77,6.37-2.3c1.79-1.53,2.69-3.92,2.69-7.16v-17.6h-10.64v-11.82h24.03v29.41c0,3.94-0.66,7.31-1.97,10.11
				c-1.31,2.8-3.02,5.12-5.12,6.96c-2.19,1.93-4.62,3.37-7.29,4.33c-2.67,0.96-5.36,1.44-8.08,1.44c-2.71,0-5.41-0.48-8.08-1.44
				c-2.67-0.96-5.06-2.41-7.16-4.33c-2.19-1.84-3.94-4.16-5.25-6.96c-1.31-2.8-1.97-6.17-1.97-10.11V-2990.87z"/>
			<path class="st3" d="M-901.44-2916.74c-2.92,0-5.85-0.52-8.72-1.56c-2.88-1.04-5.5-2.62-7.77-4.69c-2.38-2.01-4.3-4.56-5.72-7.58
				c-1.43-3.04-2.15-6.72-2.15-10.92v-49.37c0-4.02,0.72-7.64,2.14-10.77c1.42-3.12,3.35-5.77,5.73-7.86
				c2.27-1.99,4.88-3.52,7.77-4.56c5.73-2.07,11.7-2.07,17.44,0c2.87,1.04,5.52,2.56,7.87,4.54l0.06,0.05
				c2.28,2.09,4.15,4.73,5.57,7.84c1.42,3.12,2.14,6.75,2.14,10.77v6.63h-17.2v-6.63c0-2.68-0.66-4.54-2.02-5.71
				c-1.45-1.24-3.13-1.84-5.13-1.84c-2,0-3.68,0.6-5.13,1.84c-1.36,1.16-2.02,3.03-2.02,5.71v49.37c0,2.68,0.66,4.55,2.02,5.71
				c1.45,1.24,3.13,1.84,5.13,1.84c2,0,3.68-0.6,5.13-1.84c1.36-1.16,2.02-3.03,2.02-5.71v-15.69h-10.64v-15.63h27.84v31.32
				c0,4.2-0.72,7.88-2.15,10.92c-1.42,3.03-3.3,5.58-5.59,7.58c-2.35,2.07-5.01,3.65-7.9,4.69
				C-895.59-2917.26-898.52-2916.74-901.44-2916.74z M-901.44-3011.81c-2.48,0-4.98,0.45-7.43,1.33c-2.43,0.88-4.64,2.17-6.55,3.84
				c-1.97,1.73-3.58,3.95-4.77,6.58c-1.19,2.63-1.8,5.72-1.8,9.19v49.37c0,3.64,0.6,6.77,1.79,9.3c1.19,2.54,2.79,4.66,4.75,6.31
				l0.06,0.06c1.9,1.75,4.1,3.07,6.52,3.94c4.9,1.77,9.95,1.77,14.86,0c2.43-0.88,4.68-2.21,6.68-3.97c1.9-1.66,3.46-3.79,4.66-6.34
				c1.19-2.53,1.79-5.66,1.79-9.3V-2969h-20.22v8.01h10.64v19.5c0,3.81-1.13,6.7-3.36,8.6c-2.14,1.83-4.7,2.75-7.6,2.75
				c-2.91,0-5.47-0.93-7.61-2.76c-2.23-1.9-3.36-4.79-3.36-8.6v-49.37c0-3.81,1.13-6.7,3.36-8.6c2.14-1.83,4.7-2.75,7.61-2.75
				c2.9,0,5.46,0.93,7.6,2.75c2.23,1.91,3.36,4.8,3.36,8.61v2.82h9.59v-2.82c0-3.47-0.61-6.57-1.8-9.19
				c-1.19-2.63-2.76-4.84-4.64-6.58c-2-1.67-4.24-2.96-6.68-3.84C-896.46-3011.36-898.96-3011.81-901.44-3011.81z"/>
		</g>
	</g>
	<text transform="matrix(1 0 0 1 -1122.7148 -2872.9512)"><tspan x="0" y="0" class="st4" style="font-family:'Krub-Regular'; font-size:28.8897px;">Part of </tspan><tspan x="96.66" y="0" class="st4" style="font-family:'Krub-Bold'; font-size:28.8897px;">Capgemini</tspan></text>
</g>
<g>
	<g>
		<polygon class="st0" points="-498,-2877.7 -498,-3290 -1063,-3290 -608,-2910 		"/>
	</g>
	<g>
		<polygon class="st1" points="-1063,-3290 -1248,-3290 -1248,-2539.55 -608,-2910 		"/>
	</g>
	<g>
		<polygon class="st2" points="-1247.5,-1955.96 -1247.5,-1955.5 -1242.33,-1955.5 		"/>
		<polygon class="st2" points="-498.5,-1955.5 -498.5,-2877.63 -608,-2910 -1247.5,-2539.81 -1247.5,-1955.96 -1242.33,-1955.5 		
			"/>
	</g>
</g>
<g>
	<circle class="st3" cx="-1002" cy="-2941" r="185"/>
	<g>
		<g>
			<path class="st4" d="M-1120.07-2919.43v-93.5h19.83c7.7,0,13.55,2.1,17.53,6.3c3.98,4.2,5.97,10.16,5.97,17.86v43.73
				c0,8.75-2.12,15.21-6.37,19.37c-4.25,4.16-10.35,6.24-18.32,6.24H-1120.07z M-1106.68-3000.32v68.28h6.17
				c3.76,0,6.43-0.94,8.01-2.82c1.58-1.88,2.36-4.84,2.36-8.86v-45.04c0-3.68-0.74-6.52-2.23-8.54c-1.49-2.01-4.2-3.02-8.14-3.02
				H-1106.68z"/>
			<path class="st3" d="M-1101.42-2917.53h-20.55v-97.3h21.73c8.21,0,14.57,2.32,18.91,6.9c4.31,4.55,6.5,11,6.5,19.17v43.73
				c0,9.24-2.33,16.22-6.94,20.73C-1086.37-2919.81-1092.98-2917.53-1101.42-2917.53z M-1118.17-2921.34h16.74
				c7.41,0,13.13-1.92,16.99-5.69c3.85-3.77,5.8-9.83,5.8-18.01v-43.73c0-7.16-1.83-12.73-5.45-16.55
				c-3.59-3.79-9.03-5.71-16.15-5.71h-17.92V-2921.34z M-1100.5-2930.13h-8.08v-72.09h8.08c4.56,0,7.81,1.28,9.67,3.79
				c1.73,2.34,2.61,5.6,2.61,9.67v45.04c0,4.53-0.92,7.83-2.81,10.09C-1092.98-2931.31-1096.17-2930.13-1100.5-2930.13z
				 M-1104.77-2933.94h4.27c3.16,0,5.36-0.72,6.55-2.14c1.27-1.52,1.92-4.09,1.92-7.64v-45.04c0-3.24-0.63-5.73-1.86-7.4
				c-1.1-1.49-3.33-2.25-6.61-2.25h-4.27V-2933.94z"/>
		</g>
		<g>
			<path class="st4" d="M-1064.92-2990.87c0-3.76,0.66-7.09,1.97-9.98c1.31-2.89,3.06-5.3,5.25-7.22c2.1-1.84,4.49-3.24,7.16-4.2
				c2.67-0.96,5.36-1.44,8.08-1.44c2.71,0,5.4,0.48,8.08,1.44c2.67,0.96,5.1,2.36,7.29,4.2c2.1,1.93,3.81,4.33,5.12,7.22
				c1.31,2.89,1.97,6.22,1.97,9.98v49.37c0,3.94-0.66,7.31-1.97,10.11c-1.31,2.8-3.02,5.12-5.12,6.96
				c-2.19,1.93-4.62,3.37-7.29,4.33c-2.67,0.96-5.36,1.44-8.08,1.44c-2.71,0-5.41-0.48-8.08-1.44c-2.67-0.96-5.06-2.41-7.16-4.33
				c-2.19-1.84-3.94-4.16-5.25-6.96c-1.31-2.8-1.97-6.17-1.97-10.11V-2990.87z M-1051.53-2941.49c0,3.24,0.9,5.63,2.69,7.16
				c1.79,1.53,3.92,2.3,6.37,2.3c2.45,0,4.57-0.77,6.37-2.3c1.79-1.53,2.69-3.92,2.69-7.16v-49.37c0-3.24-0.9-5.62-2.69-7.16
				c-1.79-1.53-3.92-2.3-6.37-2.3c-2.45,0-4.58,0.77-6.37,2.3c-1.8,1.53-2.69,3.92-2.69,7.16V-2941.49z"/>
			<path class="st3" d="M-1042.46-2916.74c-2.92,0-5.85-0.52-8.72-1.56c-2.88-1.04-5.5-2.62-7.77-4.69
				c-2.38-2.01-4.3-4.56-5.72-7.58c-1.43-3.04-2.15-6.72-2.15-10.92v-49.37c0-4.02,0.72-7.64,2.14-10.77
				c1.42-3.12,3.35-5.77,5.73-7.86c2.27-1.99,4.88-3.52,7.77-4.56c5.73-2.07,11.7-2.07,17.44,0c2.87,1.04,5.52,2.56,7.87,4.54
				l0.06,0.05c2.28,2.09,4.15,4.73,5.57,7.84c1.42,3.12,2.14,6.75,2.14,10.77v49.37c0,4.2-0.72,7.88-2.15,10.92
				c-1.42,3.03-3.3,5.58-5.59,7.58c-2.35,2.07-5.01,3.65-7.9,4.69C-1036.61-2917.26-1039.55-2916.74-1042.46-2916.74z
				 M-1042.46-3011.81c-2.48,0-4.98,0.45-7.43,1.33c-2.43,0.88-4.64,2.17-6.55,3.84c-1.97,1.73-3.58,3.95-4.77,6.58
				c-1.19,2.63-1.8,5.72-1.8,9.19v49.37c0,3.64,0.6,6.77,1.79,9.3c1.19,2.54,2.79,4.66,4.75,6.31l0.06,0.06
				c1.9,1.75,4.1,3.07,6.52,3.94c4.9,1.77,9.95,1.77,14.86,0c2.43-0.88,4.68-2.21,6.68-3.97c1.9-1.66,3.46-3.79,4.66-6.34
				c1.19-2.53,1.79-5.66,1.79-9.3v-49.37c0-3.47-0.61-6.57-1.8-9.19c-1.19-2.63-2.76-4.84-4.64-6.58c-2-1.67-4.24-2.96-6.68-3.84
				C-1037.49-3011.36-1039.99-3011.81-1042.46-3011.81z M-1042.46-2930.13c-2.91,0-5.47-0.93-7.61-2.76
				c-2.23-1.9-3.36-4.79-3.36-8.6v-49.37c0-3.81,1.13-6.7,3.36-8.6c2.14-1.83,4.7-2.75,7.61-2.75c2.9,0,5.46,0.93,7.6,2.75
				c2.23,1.91,3.36,4.8,3.36,8.61v49.37c0,3.81-1.13,6.7-3.36,8.6C-1037-2931.06-1039.56-2930.13-1042.46-2930.13z
				 M-1042.46-2998.42c-2,0-3.68,0.6-5.13,1.84c-1.36,1.16-2.02,3.03-2.02,5.71v49.37c0,2.68,0.66,4.55,2.02,5.71
				c1.45,1.24,3.13,1.84,5.13,1.84c2,0,3.68-0.6,5.13-1.84c1.36-1.16,2.02-3.03,2.02-5.71v-49.37c0-2.68-0.66-4.54-2.02-5.71
				C-1038.79-2997.81-1040.46-2998.42-1042.46-2998.42z"/>
		</g>
		<g>
			<path class="st4" d="M-1007.8-2919.43v-93.5h13.39v93.5H-1007.8z"/>
			<path class="st3" d="M-992.5-2917.53h-17.2v-97.3h17.2V-2917.53z M-1005.89-2921.34h9.59v-89.69h-9.59V-2921.34z"/>
		</g>
		<g>
			<path class="st4" d="M-981.93-2919.43v-93.5h12.87l20.22,56.33h0.26v-56.33h13.39v93.5h-12.61l-20.48-56.2h-0.26v56.2H-981.93z"
				/>
			<path class="st3" d="M-933.28-2917.53h-15.84l-17.51-48.04v48.04h-17.2v-97.3h16.11l17.24,48.03v-48.03h17.2V-2917.53z
				 M-946.46-2921.34h9.37v-89.69h-9.59v56.33h-3.51l-20.22-56.33h-9.62v89.69h9.58v-56.2h3.5L-946.46-2921.34z"/>
		</g>
		<g>
			<path class="st4" d="M-923.89-2990.87c0-3.76,0.66-7.09,1.97-9.98c1.31-2.89,3.06-5.3,5.25-7.22c2.1-1.84,4.49-3.24,7.16-4.2
				c2.67-0.96,5.36-1.44,8.08-1.44c2.71,0,5.4,0.48,8.08,1.44c2.67,0.96,5.1,2.36,7.29,4.2c2.1,1.93,3.81,4.33,5.12,7.22
				c1.31,2.89,1.97,6.22,1.97,9.98v4.73h-13.39v-4.73c0-3.24-0.9-5.62-2.69-7.16c-1.79-1.53-3.92-2.3-6.37-2.3
				c-2.45,0-4.58,0.77-6.37,2.3c-1.8,1.53-2.69,3.92-2.69,7.16v49.37c0,3.24,0.9,5.63,2.69,7.16c1.79,1.53,3.92,2.3,6.37,2.3
				c2.45,0,4.57-0.77,6.37-2.3c1.79-1.53,2.69-3.92,2.69-7.16v-17.6h-10.64v-11.82h24.03v29.41c0,3.94-0.66,7.31-1.97,10.11
				c-1.31,2.8-3.02,5.12-5.12,6.96c-2.19,1.93-4.62,3.37-7.29,4.33c-2.67,0.96-5.36,1.44-8.08,1.44c-2.71,0-5.41-0.48-8.08-1.44
				c-2.67-0.96-5.06-2.41-7.16-4.33c-2.19-1.84-3.94-4.16-5.25-6.96c-1.31-2.8-1.97-6.17-1.97-10.11V-2990.87z"/>
			<path class="st3" d="M-901.44-2916.74c-2.92,0-5.85-0.52-8.72-1.56c-2.88-1.04-5.5-2.62-7.77-4.69c-2.38-2.01-4.3-4.56-5.72-7.58
				c-1.43-3.04-2.15-6.72-2.15-10.92v-49.37c0-4.02,0.72-7.64,2.14-10.77c1.42-3.12,3.35-5.77,5.73-7.86
				c2.27-1.99,4.88-3.52,7.77-4.56c5.73-2.07,11.7-2.07,17.44,0c2.87,1.04,5.52,2.56,7.87,4.54l0.06,0.05
				c2.28,2.09,4.15,4.73,5.57,7.84c1.42,3.12,2.14,6.75,2.14,10.77v6.63h-17.2v-6.63c0-2.68-0.66-4.54-2.02-5.71
				c-1.45-1.24-3.13-1.84-5.13-1.84c-2,0-3.68,0.6-5.13,1.84c-1.36,1.16-2.02,3.03-2.02,5.71v49.37c0,2.68,0.66,4.55,2.02,5.71
				c1.45,1.24,3.13,1.84,5.13,1.84c2,0,3.68-0.6,5.13-1.84c1.36-1.16,2.02-3.03,2.02-5.71v-15.69h-10.64v-15.63h27.84v31.32
				c0,4.2-0.72,7.88-2.15,10.92c-1.42,3.03-3.3,5.58-5.59,7.58c-2.35,2.07-5.01,3.65-7.9,4.69
				C-895.59-2917.26-898.52-2916.74-901.44-2916.74z M-901.44-3011.81c-2.48,0-4.98,0.45-7.43,1.33c-2.43,0.88-4.64,2.17-6.55,3.84
				c-1.97,1.73-3.58,3.95-4.77,6.58c-1.19,2.63-1.8,5.72-1.8,9.19v49.37c0,3.64,0.6,6.77,1.79,9.3c1.19,2.54,2.79,4.66,4.75,6.31
				l0.06,0.06c1.9,1.75,4.1,3.07,6.52,3.94c4.9,1.77,9.95,1.77,14.86,0c2.43-0.88,4.68-2.21,6.68-3.97c1.9-1.66,3.46-3.79,4.66-6.34
				c1.19-2.53,1.79-5.66,1.79-9.3V-2969h-20.22v8.01h10.64v19.5c0,3.81-1.13,6.7-3.36,8.6c-2.14,1.83-4.7,2.75-7.6,2.75
				c-2.91,0-5.47-0.93-7.61-2.76c-2.23-1.9-3.36-4.79-3.36-8.6v-49.37c0-3.81,1.13-6.7,3.36-8.6c2.14-1.83,4.7-2.75,7.61-2.75
				c2.9,0,5.46,0.93,7.6,2.75c2.23,1.91,3.36,4.8,3.36,8.61v2.82h9.59v-2.82c0-3.47-0.61-6.57-1.8-9.19
				c-1.19-2.63-2.76-4.84-4.64-6.58c-2-1.67-4.24-2.96-6.68-3.84C-896.46-3011.36-898.96-3011.81-901.44-3011.81z"/>
		</g>
	</g>
	<text transform="matrix(1 0 0 1 -1122.7148 -2872.9512)"><tspan x="0" y="0" class="st4" style="font-family:'Krub-Regular'; font-size:28.8897px;">Part of </tspan><tspan x="96.66" y="0" class="st4" style="font-family:'Krub-Bold'; font-size:28.8897px;">Capgemini</tspan></text>
</g>
<rect x="1" y="-3290" class="st4" width="749" height="1335"/>
<g>
	<defs>
		<path id="SVGID_1_" d="M611.81-2097.5H142.68c-29.1,0-52.69-23.59-52.69-52.69v-918.62c0-29.1,23.59-52.69,52.69-52.69h469.13
			c29.1,0,52.69,23.59,52.69,52.69v918.62C664.5-2121.09,640.91-2097.5,611.81-2097.5z"/>
	</defs>
	<clipPath id="SVGID_2_">
		<use xlink:href="#SVGID_1_"  style="overflow:visible;"/>
	</clipPath>
	<g class="st5">
		<g>
			<polygon class="st6" points="664,-2805.36 664,-3122 230.08,-3122 579.52,-2830.16 			"/>
		</g>
		<g>
			<polygon class="st7" points="230.08,-3122 88,-3122 88,-2545.65 579.52,-2830.16 			"/>
		</g>
		<g>
			<polygon class="st2" points="88.38,-2097.45 88.38,-2097.1 92.36,-2097.1 			"/>
			<polygon class="st8" points="663.62,-2097.1 663.62,-2805.3 579.52,-2830.16 88.38,-2545.85 88.38,-2097.45 92.36,-2097.1 			"/>
		</g>
	</g>
</g>
<g class="st9">
	<path class="st4" d="M498.42-2470.3c-14.95,3.68-29.61,7.28-44.54,10.95c5.99-15.96,4.66-32.19,2.55-48.7
		c6.09,0.41,11.66-0.81,16.99-4.24C479.19-2496.78,485.79-2481.86,498.42-2470.3z"/>
	<path class="st4" d="M439.99-2528.48c-2.62-10.83,3.88-21.41,14.76-24.03c10.6-2.55,21.37,4.09,23.89,14.71
		c2.53,10.65-4.04,21.49-14.55,24.02C453.25-2511.17,442.61-2517.66,439.99-2528.48z"/>
	<path class="st4" d="M480.64-2445.27c-9.29,2.28-18.58,4.59-27.88,6.84c-3.24,0.79-6.35-0.41-8.13-2.99
		c-1.73-2.52-1.84-5.91,0.28-8.36c1.17-1.35,2.97-2.54,4.69-2.98c18.47-4.67,36.98-9.2,55.5-13.71c4.55-1.11,8.72,1.3,9.57,5.3
		c0.9,4.28-1.55,7.92-6.15,9.05c-9.29,2.3-18.58,4.57-27.87,6.86C480.65-2445.26,480.64-2445.27,480.64-2445.27z"/>
</g>
<g class="st10">
	<path class="st4" d="M353.6-2370.5c-11.85-1.68-23.46-3.32-35.3-5c8.94-9.78,12.68-21.87,15.94-34.4c4.28,2.06,8.65,2.8,13.48,1.86
		C347.4-2395.16,347.84-2382.49,353.6-2370.5z"/>
	<path class="st4" d="M328.3-2429.38c1.25-8.57,9-14.32,17.61-13.06c8.38,1.23,14.23,9.14,12.98,17.53
		c-1.26,8.41-9.14,14.33-17.45,13.11C332.85-2413.06,327.06-2420.82,328.3-2429.38z"/>
	<path class="st4" d="M333.53-2357.59c-7.36-1.04-14.73-2.07-22.09-3.14c-2.57-0.37-4.46-2.13-5-4.51
		c-0.52-2.32,0.38-4.79,2.62-5.95c1.24-0.64,2.88-0.97,4.24-0.79c14.68,1.98,29.34,4.07,44,6.18c3.6,0.52,5.92,3.46,5.37,6.59
		c-0.59,3.35-3.41,5.26-7.06,4.75C348.26-2355.49,340.9-2356.54,333.53-2357.59C333.53-2357.58,333.53-2357.59,333.53-2357.59z"/>
</g>
<g class="st9">
	<path class="st4" d="M340.3-2829.46c7.24,2.9,14.31,5.73,21.49,8.61c-5.94,17.71-10.84,35.43-7.21,54.63
		c-15.78-6.32-31.18-12.49-46.88-18.78C323.6-2796.09,332.22-2812.43,340.3-2829.46z"/>
	<path class="st4" d="M352.88-2830.15c-6.57-2.63-13.14-5.25-19.7-7.9c-3.28-1.32-3.9-2.67-2.78-5.99
		c2.68-7.88,5.37-15.75,8.06-23.62c1-2.92,2.44-3.62,5.36-2.47c6.02,2.36,7.67,2.4,4.63,9.62c-0.74,1.76-1.28,3.61-1.84,5.44
		c-0.71,2.32,0.16,3.79,2.7,4.76c2.34,0.88,3.92,0.33,4.89-1.9c1.16-2.67,2.15-5.41,3.28-8.1c1.08-2.56,2.53-3.2,5.16-2.27
		c1.88,0.67,3.73,1.42,5.58,2.19c2.73,1.15,3.39,2.55,2.38,5.32c-0.94,2.58-2.05,5.1-3.01,7.67c-1.03,2.74-0.45,4.13,2.06,5.19
		c2.68,1.13,4.26,0.59,5.48-2.01c1.2-2.56,2.26-5.19,3.45-7.75c1.15-2.46,2.75-3.16,5.27-2.14c5.7,2.32,8.15,2.04,4.35,9.63
		c-3.27,6.54-6.12,13.3-9.21,19.93c-1.48,3.18-2.9,3.7-6.2,2.38C366.16-2824.82,359.53-2827.49,352.88-2830.15z"/>
	<path class="st4" d="M323.62-2756.91c-8.73-3.5-17.47-6.99-26.19-10.5c-4.56-1.83-6.55-5.85-4.95-9.92c1.57-4,5.86-5.6,10.47-3.74
		c12.97,5.22,25.9,10.54,38.86,15.77c4.85,1.96,9.8,3.67,14.61,5.71c3.61,1.53,5.21,5.28,4.13,8.88c-1.01,3.36-4.34,5.59-7.88,5.17
		c-0.97-0.12-1.92-0.5-2.84-0.87C341.08-2749.91,332.35-2753.42,323.62-2756.91z"/>
</g>
<g class="st10">
	<path class="st4" d="M564.04-2443.01c3.63,1.45,7.16,2.87,10.76,4.31c-2.98,8.86-5.42,17.74-3.61,27.35
		c-7.9-3.16-15.61-6.25-23.47-9.4C555.68-2426.3,560-2434.48,564.04-2443.01z"/>
	<path class="st4" d="M570.34-2443.36c-3.29-1.32-6.58-2.63-9.86-3.95c-1.64-0.66-1.95-1.34-1.39-3c1.34-3.94,2.69-7.88,4.04-11.83
		c0.5-1.46,1.22-1.81,2.68-1.24c3.01,1.18,3.84,1.2,2.32,4.81c-0.37,0.88-0.64,1.81-0.92,2.72c-0.35,1.16,0.08,1.9,1.35,2.38
		c1.17,0.44,1.96,0.16,2.45-0.95c0.58-1.34,1.08-2.71,1.64-4.05c0.54-1.28,1.27-1.6,2.58-1.13c0.94,0.33,1.87,0.71,2.79,1.1
		c1.37,0.58,1.7,1.28,1.19,2.66c-0.47,1.29-1.02,2.55-1.51,3.84c-0.52,1.37-0.23,2.07,1.03,2.6c1.34,0.56,2.13,0.3,2.74-1
		c0.6-1.28,1.13-2.6,1.73-3.88c0.57-1.23,1.38-1.58,2.64-1.07c2.85,1.16,4.08,1.02,2.18,4.82c-1.64,3.28-3.06,6.66-4.61,9.98
		c-0.74,1.59-1.45,1.85-3.11,1.19C576.99-2440.69,573.67-2442.02,570.34-2443.36z"/>
	<path class="st4" d="M555.7-2406.69c-4.37-1.75-8.74-3.5-13.11-5.26c-2.28-0.92-3.28-2.93-2.48-4.97c0.78-2,2.93-2.8,5.24-1.87
		c6.49,2.61,12.97,5.27,19.46,7.89c2.43,0.98,4.9,1.84,7.31,2.86c1.81,0.77,2.61,2.64,2.07,4.44c-0.5,1.68-2.17,2.8-3.95,2.59
		c-0.49-0.06-0.96-0.25-1.42-0.43C564.44-2403.19,560.07-2404.94,555.7-2406.69z"/>
</g>
<g class="st9">
	<path class="st4" d="M251.69-2962.17c-16.5,7.43-32.87,14.8-50.04,22.53c0.21-5.4,0.12-10.36,0.65-15.26
		c0.96-8.85,4.38-17.03,7.39-25.32c2.05-5.64,3.64-11.44,2.78-17.56c-0.19-1.39-0.38-2.92-1.09-4.05c-0.77-1.21-2.07-2.69-3.3-2.84
		c-1.2-0.16-3.04,0.88-3.82,1.96c-3.67,5.03-7.08,10.26-10.58,15.42c-1.89,2.78-4.46,4.47-7.87,4.56
		c-6.24,0.16-11.37-6.22-10.2-12.84c1.22-6.96,2.71-13.87,3.99-20.82c0.8-4.33-0.08-8.05-4.13-10.61c-1.21-0.76-2.13-1.99-3.1-2.93
		c0.25-0.48,0.29-0.71,0.4-0.76c7.91-3.49,15.57-7.82,23.8-10.26c13.58-4.03,28.93,3.01,37.36,15.96
		c5.19,7.97,8.49,16.85,10.78,25.95c2.71,10.77,4.48,21.78,6.61,32.7C251.58-2965,251.57-2963.58,251.69-2962.17z"/>
	<path class="st4" d="M235.15-2932.76c-8.8,3.96-17.6,7.93-26.41,11.89c-2.95,1.33-5.73,0.95-8.15-1.14
		c-2.38-2.05-3.28-4.88-1.98-7.66c0.87-1.87,2.59-3.85,4.42-4.69c17.46-8.05,35.01-15.9,52.57-23.71c4.05-1.8,8.24-0.09,9.86,3.66
		c1.68,3.9,0,7.99-4.13,9.87C252.61-2940.61,243.88-2936.69,235.15-2932.76z"/>
</g>
<g class="st10">
	<path class="st4" d="M510.96-2807.84c-10.49,0.41-20.9,0.81-31.82,1.23c1.29-2.86,2.32-5.55,3.67-8.07
		c2.44-4.55,6.06-8.21,9.48-12.01c2.33-2.59,4.45-5.36,5.32-8.84c0.2-0.79,0.43-1.65,0.29-2.42c-0.15-0.82-0.53-1.9-1.16-2.25
		c-0.61-0.34-1.83-0.19-2.48,0.22c-3.07,1.91-6.04,3.98-9.05,5.99c-1.62,1.08-3.37,1.43-5.22,0.74c-3.39-1.27-4.76-5.82-2.69-9.13
		c2.17-3.48,4.48-6.87,6.68-10.33c1.37-2.16,1.71-4.35,0.09-6.6c-0.48-0.67-0.71-1.53-1.03-2.25c0.24-0.21,0.31-0.32,0.38-0.32
		c5.01-0.16,10.08-0.82,15.03-0.34c8.18,0.79,14.91,7.91,16.63,16.71c1.06,5.42,0.9,10.91,0.15,16.3
		c-0.89,6.38-2.33,12.69-3.56,19.03C511.52-2809.38,511.2-2808.62,510.96-2807.84z"/>
	<path class="st4" d="M495.67-2795.61c-5.6,0.22-11.19,0.44-16.79,0.65c-1.87,0.07-3.29-0.73-4.13-2.39
		c-0.83-1.62-0.7-3.34,0.6-4.55c0.88-0.82,2.23-1.51,3.4-1.56c11.14-0.53,22.29-0.94,33.44-1.32c2.57-0.09,4.45,1.74,4.51,4.11
		c0.06,2.46-1.74,4.3-4.37,4.41C506.77-2796.03,501.22-2795.83,495.67-2795.61z"/>
</g>
<g class="st9">
	<path class="st4" d="M551.77-2294.97c0.95,1.46,1.77,2.81,2.67,4.1c1.16,1.67,0.89,2.86-0.73,4.18c-4.65,3.77-9.18,7.7-13.73,11.58
		c-2.41,2.05-2.8,4.11-1.24,6.01c1.57,1.91,3.93,1.85,6.36-0.19c3.95-3.32,7.89-6.64,11.82-9.98c1-0.85,2.03-1.56,2.66,0.26
		c3.1,8.94,2.81,17.52-3.08,25.35c-3.42,4.55-8.12,6.76-13.78,6.9c-6.72,0.17-12.91-1.59-18.13-5.87
		c-7.49-6.14-8.77-17.98-3.11-26.83c4.38-6.85,10.77-11.47,17.56-15.62c1.34-0.82,2.8-1.44,4.42-2.26c-2.16-3.05-3.36-6.12-1.77-9.3
		c0.92-1.83,2.41-3.7,4.14-4.71c4.12-2.41,9.37-0.56,11.53,3.61C559.74-2303.07,557.82-2298.35,551.77-2294.97z"/>
	<path class="st4" d="M522.08-2247.78c6.89,4.73,14.45,6.75,22.7,6.28c-3.08,17.08-6.2,33.96,0.21,51.14
		c-16.52-4.55-32.66-8.99-49.14-13.52C509.65-2215.51,516.08-2231.41,522.08-2247.78z"/>
	<path class="st4" d="M514.98-2177.77c-9.07-2.49-18.13-4.98-27.2-7.49c-4.76-1.31-7.22-5.1-6.07-9.28c1.16-4.2,5.2-6.24,9.93-4.94
		c18.22,5,36.43,10.01,54.63,15.04c4.68,1.29,7.11,5.2,5.91,9.38c-1.16,4.05-5.24,6.08-9.77,4.84
		C533.27-2172.73,524.12-2175.25,514.98-2177.77z"/>
</g>
<g class="st10">
	<path class="st4" d="M234.05-2853.48c0.5,0.76,0.93,1.47,1.4,2.15c0.61,0.87,0.47,1.5-0.38,2.19c-2.43,1.97-4.8,4.03-7.19,6.06
		c-1.26,1.08-1.47,2.15-0.65,3.15c0.82,1,2.06,0.97,3.33-0.1c2.06-1.74,4.13-3.48,6.19-5.22c0.52-0.44,1.06-0.82,1.39,0.14
		c1.62,4.68,1.47,9.17-1.61,13.27c-1.79,2.38-4.25,3.54-7.21,3.61c-3.52,0.09-6.76-0.83-9.49-3.07c-3.92-3.21-4.59-9.41-1.63-14.04
		c2.29-3.58,5.64-6,9.19-8.18c0.7-0.43,1.47-0.75,2.32-1.18c-1.13-1.6-1.76-3.21-0.93-4.87c0.48-0.96,1.26-1.94,2.17-2.46
		c2.15-1.26,4.9-0.29,6.03,1.89C238.22-2857.72,237.22-2855.25,234.05-2853.48z"/>
	<path class="st4" d="M218.51-2828.79c3.61,2.47,7.56,3.53,11.88,3.28c-1.61,8.94-3.25,17.78,0.11,26.77
		c-8.64-2.38-17.09-4.7-25.72-7.08C212.01-2811.89,215.37-2820.22,218.51-2828.79z"/>
	<path class="st4" d="M214.79-2792.14c-4.75-1.31-9.49-2.61-14.23-3.92c-2.49-0.69-3.78-2.67-3.18-4.86c0.61-2.2,2.72-3.27,5.2-2.59
		c9.53,2.62,19.07,5.24,28.6,7.87c2.45,0.68,3.72,2.72,3.09,4.91c-0.61,2.12-2.74,3.18-5.11,2.53
		C224.37-2789.5,219.58-2790.82,214.79-2792.14z"/>
</g>
<g class="st9">
	<path class="st4" d="M532.78-2689.89c5.16-1.09,10.18-2.19,15.21-3.2c2.58-0.52,5.78-1.96,7.61-0.97c1.64,0.89,1.79,4.54,2.59,6.97
		c4.05,12.32,8.98,24.18,17.7,34.07c1.03,1.17,2.16,2.26,3.43,3.59c-16.62,3.52-32.99,6.98-49.63,10.5
		C536.35-2655.58,535.02-2672.59,532.78-2689.89z"/>
	<path class="st4" d="M539.88-2712.62c-4.8,1.02-9.62,1.95-14.39,3.09c-1.63,0.39-2.54-0.03-3.09-1.51
		c-0.92-2.48-2.03-4.92-2.68-7.47c-1.44-5.64-2.68-11.3-6.17-16.18c-1.52-2.12-0.84-3.22,1.82-3.66c3.07-0.5,5.72,0.55,8.23,2.16
		c2.66,1.71,3.34,1.47,4.61-1.46c0.53-1.21,1.1-2.43,1.82-3.53c2.35-3.61,4.24-3.96,7.82-1.43c1.22,0.86,2.37,1.83,3.44,2.87
		c1.71,1.65,2.93,1.04,3.98-0.7c1.54-2.56,3.48-4.65,6.44-5.56c3.13-0.97,4.17-0.19,3.67,2.99c-0.89,5.6-0.22,11.08,0.71,16.6
		c0.47,2.76,0.48,5.6,0.66,8.41c0.09,1.37-0.57,2.02-1.98,2.29C549.8-2714.77,544.84-2713.66,539.88-2712.62
		C539.88-2712.62,539.88-2712.62,539.88-2712.62z"/>
	<path class="st4" d="M558.47-2624.47c-9.2,1.95-18.4,3.9-27.61,5.83c-4.7,0.98-8.46-1.19-9.44-5.4c-0.99-4.28,1.58-7.99,6.43-9.02
		c16.44-3.52,32.89-6.99,49.34-10.45c2.66-0.56,5.35-1.13,8.06-1.31c4.21-0.29,7.2,2.19,7.75,6.05c0.55,3.81-1.93,7.33-5.96,8.23
		c-5.93,1.32-11.88,2.53-17.82,3.79C565.63-2625.98,562.05-2625.23,558.47-2624.47z"/>
	<path class="st4" d="M535.47-2760.47c6.74,0.47,12.69,1.95,15.66,8.51c-3.08,2.03-5.94,3.92-8.93,5.88
		c-6.73-4.98-12.54-5.3-17.73,3.77c-3.39-0.58-6.69-1.15-10.44-1.79c-0.25-7.28,4.97-10.9,10.28-13.89
		c-0.72-2.29-1.75-4.39-1.91-6.56c-0.1-1.36,0.85-3.02,1.77-4.2c1.84-2.35,5.46-2.85,8.21-1.45
		C535.44-2768.64,536.48-2765.48,535.47-2760.47z"/>
	<path class="st4" d="M541.11-2707.56c5.37-1.14,10.74-2.29,16.12-3.41c3.4-0.71,6.17,0.86,6.77,3.76c0.6,2.89-1.3,5.67-4.56,6.38
		c-10.74,2.32-21.48,4.61-32.24,6.83c-3.58,0.74-6.33-0.96-6.92-4c-0.59-3.06,1.26-5.4,4.96-6.2
		C530.52-2705.33,535.82-2706.44,541.11-2707.56z"/>
</g>
<g class="st10">
	<path class="st4" d="M200.52-2636.38c2.93-0.62,5.78-1.25,8.64-1.82c1.46-0.29,3.28-1.11,4.32-0.55c0.93,0.51,1.02,2.58,1.47,3.96
		c2.3,7,5.1,13.74,10.05,19.35c0.59,0.66,1.22,1.28,1.95,2.04c-9.44,2-18.74,3.97-28.19,5.97
		C202.55-2616.89,201.8-2626.55,200.52-2636.38z"/>
	<path class="st4" d="M204.56-2649.3c-2.73,0.58-5.46,1.11-8.17,1.75c-0.93,0.22-1.45-0.02-1.76-0.86
		c-0.52-1.41-1.15-2.79-1.52-4.24c-0.82-3.2-1.52-6.42-3.51-9.19c-0.86-1.2-0.48-1.83,1.04-2.08c1.75-0.28,3.25,0.31,4.68,1.23
		c1.51,0.97,1.9,0.83,2.62-0.83c0.3-0.69,0.62-1.38,1.03-2.01c1.33-2.05,2.41-2.25,4.44-0.81c0.69,0.49,1.35,1.04,1.96,1.63
		c0.97,0.93,1.66,0.59,2.26-0.4c0.88-1.45,1.98-2.64,3.66-3.16c1.78-0.55,2.37-0.11,2.08,1.7c-0.51,3.18-0.12,6.29,0.41,9.43
		c0.26,1.57,0.27,3.18,0.37,4.78c0.05,0.78-0.32,1.15-1.13,1.3C210.19-2650.51,207.38-2649.89,204.56-2649.3
		C204.56-2649.29,204.56-2649.29,204.56-2649.3z"/>
	<path class="st4" d="M215.12-2599.21c-5.23,1.1-10.45,2.22-15.68,3.31c-2.67,0.56-4.81-0.68-5.36-3.07
		c-0.56-2.43,0.9-4.54,3.65-5.13c9.34-2,18.69-3.97,28.03-5.94c1.51-0.32,3.04-0.64,4.58-0.75c2.39-0.17,4.09,1.24,4.41,3.44
		c0.31,2.16-1.1,4.17-3.39,4.68c-3.37,0.75-6.75,1.44-10.13,2.15C219.19-2600.07,217.15-2599.64,215.12-2599.21z"/>
	<path class="st4" d="M202.05-2676.48c3.83,0.27,7.21,1.11,8.9,4.83c-1.75,1.15-3.38,2.23-5.07,3.34
		c-3.83-2.83-7.12-3.01-10.07,2.14c-1.92-0.33-3.8-0.65-5.93-1.02c-0.14-4.14,2.82-6.19,5.84-7.89c-0.41-1.3-0.99-2.5-1.09-3.72
		c-0.06-0.77,0.48-1.72,1.01-2.39c1.05-1.34,3.1-1.62,4.66-0.83C202.03-2681.12,202.63-2679.32,202.05-2676.48z"/>
	<path class="st4" d="M205.26-2646.42c3.05-0.65,6.1-1.3,9.16-1.93c1.93-0.4,3.51,0.49,3.85,2.14c0.34,1.64-0.74,3.22-2.59,3.62
		c-6.1,1.32-12.2,2.62-18.32,3.88c-2.03,0.42-3.6-0.54-3.93-2.27c-0.34-1.74,0.72-3.07,2.82-3.52
		C199.24-2645.15,202.25-2645.78,205.26-2646.42z"/>
</g>
<g class="st9">
	<path class="st4" d="M240.97-2439.95c-13.26-10.75-26.21-21.25-39.41-31.96c17.04-5.36,29.5-16.97,41.42-29.58
		c6.12,4.96,12.15,9.85,18.33,14.86C251.61-2472.5,242.7-2458.02,240.97-2439.95z"/>
	<path class="st4" d="M286.99-2537.09c4.27,3.46,8.55,6.89,12.79,10.38c3.65,3.01,3.61,6.17-0.1,9.03
		c-6.99,5.37-14.01,10.68-20.98,16.07c-1.07,0.83-1.79,0.71-2.78-0.1c-6.95-5.69-13.92-11.36-20.95-16.96
		c-1.28-1.02-1.48-1.82-0.75-3.31c3.86-7.92,7.58-15.91,11.39-23.86c1.76-3.66,5.01-4.42,8.17-1.91c4.42,3.53,8.8,7.12,13.19,10.68
		C286.98-2537.07,286.98-2537.08,286.99-2537.09z"/>
	<path class="st4" d="M208.55-2440.41c-7.37-5.98-14.74-11.94-22.1-17.93c-3.66-2.97-4.3-7.4-1.61-10.77
		c2.58-3.23,7.13-3.66,10.69-0.79c14.9,12.01,29.78,24.05,44.61,36.14c3.64,2.97,4.16,7.67,1.46,10.85
		c-2.73,3.21-7.24,3.4-10.94,0.42C223.27-2428.44,215.91-2434.43,208.55-2440.41z"/>
	<path class="st4" d="M301.76-2532.04c-7.71-6.25-15.18-12.31-22.85-18.53c3.8-2.17,7.61-2.33,11.41-0.97
		c1.86,0.67,2.88,0.3,3.9-1.24c0.86-1.3,1.95-2.45,3.17-3.96c-1.34-1.09-2.56-2.03-3.72-3.03c-2.23-1.91-2.55-4.3-0.9-6.35
		c1.58-1.95,3.79-2.11,6.16-0.36c1.25,0.92,2.42,1.95,3.85,3.11c1.27-1.56,2.26-2.87,3.34-4.1c1.71-1.94,4.09-2.17,5.99-0.67
		c1.92,1.52,2.24,3.87,0.71,5.95c-0.97,1.33-2.07,2.57-3.37,4.18c1.28,1.04,2.42,1.94,3.54,2.88c2.46,2.05,2.86,4.34,1.14,6.47
		c-1.65,2.05-4.08,2.11-6.6,0.16c-1.1-0.85-2.16-1.75-3.48-2.82c-1.46,1.8-2.86,3.32-3.98,5.03c-0.35,0.54-0.15,1.7,0.18,2.39
		C302.1-2540.18,303.54-2536.45,301.76-2532.04z"/>
	<path class="st4" d="M255.41-2498.27c-4.13-3.35-8.28-6.69-12.4-10.06c-2.48-2.03-3.27-4.44-2.28-6.78
		c1.4-3.31,5.28-4.15,8.32-1.71c5.91,4.74,11.77,9.54,17.65,14.31c2.71,2.2,5.45,4.38,8.14,6.61c2.74,2.27,3.28,5.34,1.4,7.66
		c-1.98,2.44-5.16,2.61-8.01,0.33c-4.29-3.43-8.54-6.91-12.81-10.37C255.42-2498.28,255.41-2498.28,255.41-2498.27z"/>
</g>
<g class="st10">
	<path class="st4" d="M416.63-2223.27c-9.26,3.38-18.32,6.69-27.54,10.06c2.4-10.04,0.34-19.66-2.37-29.31
		c4.27-1.56,8.49-3.1,12.81-4.68C403.65-2238.2,408.18-2229.49,416.63-2223.27z"/>
	<path class="st4" d="M382.13-2274.91c2.98-1.09,5.96-2.19,8.94-3.26c2.58-0.92,4.13,0.04,4.44,2.73
		c0.59,5.06,1.13,10.12,1.74,15.17c0.09,0.78-0.18,1.1-0.87,1.35c-4.88,1.76-9.76,3.53-14.62,5.35c-0.88,0.33-1.34,0.19-1.86-0.61
		c-2.78-4.26-5.64-8.48-8.45-12.73c-1.29-1.96-0.71-3.8,1.47-4.62c3.06-1.15,6.14-2.25,9.21-3.37
		C382.14-2274.9,382.13-2274.9,382.13-2274.91z"/>
	<path class="st4" d="M406.78-2207.33c-5.15,1.88-10.29,3.76-15.45,5.63c-2.56,0.93-4.95-0.07-5.82-2.4
		c-0.84-2.24,0.3-4.62,2.78-5.54c10.38-3.82,20.76-7.62,31.16-11.39c2.55-0.92,5.04,0.21,5.81,2.5c0.78,2.3-0.46,4.6-3.04,5.55
		C417.08-2211.08,411.93-2209.21,406.78-2207.33z"/>
	<path class="st4" d="M389.02-2280.73c-5.38,1.97-10.61,3.87-15.97,5.83c0.05-2.53,1.1-4.47,2.91-5.95c0.88-0.72,1-1.34,0.54-2.3
		c-0.39-0.81-0.64-1.7-1.02-2.75c-0.94,0.34-1.76,0.67-2.61,0.95c-1.61,0.54-2.89-0.01-3.41-1.44c-0.5-1.36,0.08-2.51,1.65-3.16
		c0.83-0.35,1.69-0.62,2.68-0.99c-0.4-1.09-0.75-1.97-1.04-2.88c-0.45-1.42,0.14-2.67,1.45-3.17c1.33-0.5,2.58,0.04,3.16,1.41
		c0.37,0.88,0.66,1.79,1.07,2.91c0.89-0.33,1.68-0.62,2.48-0.9c1.74-0.61,3-0.13,3.55,1.36c0.53,1.42-0.16,2.65-1.88,3.32
		c-0.75,0.29-1.51,0.55-2.43,0.89c0.46,1.26,0.8,2.41,1.31,3.47c0.16,0.34,0.8,0.58,1.24,0.62
		C385.08-2283.32,387.36-2282.93,389.02-2280.73z"/>
	<path class="st4" d="M392-2247.73c-2.89,1.05-5.77,2.12-8.67,3.16c-1.74,0.63-3.17,0.3-4.04-0.88c-1.23-1.68-0.49-3.85,1.62-4.63
		c4.1-1.52,8.22-3,12.34-4.5c1.9-0.69,3.79-1.4,5.69-2.08c1.94-0.68,3.62-0.04,4.21,1.58c0.62,1.7-0.24,3.33-2.21,4.07
		C397.97-2249.9,394.98-2248.83,392-2247.73C392-2247.74,392-2247.74,392-2247.73z"/>
</g>
<g class="st9">
	<path class="st4" d="M206.47-2219.77c5.77,14.53,10.69,29.07,7,45.8c15.21-7.39,30.13-14.65,45.42-22.08
		c-15.42-7.69-23.88-20.41-31.6-33.84C220.34-2226.51,213.49-2223.18,206.47-2219.77z"/>
	<path class="st4" d="M265.03-2192.96c-4.74,2.19-9.34,4.7-14.05,6.97c-12.59,6.08-25.22,12.08-37.8,18.17
		c-4.47,2.16-6.17,6.42-4.27,10.27c1.94,3.92,6.25,5.15,10.68,3.01c8.47-4.1,16.92-8.22,25.38-12.33
		c8.46-4.11,16.92-8.22,25.37-12.34c0.89-0.43,1.81-0.88,2.55-1.52c2.7-2.33,3.29-6.31,1.48-9.31
		C272.43-2193.26,268.59-2194.6,265.03-2192.96z"/>
	<path class="st4" d="M230.48-2233c1.26-7.83-0.88-14.51-6.47-20.44c-2.67,3.38-2.7,7.29-2.72,11.66
		c-10.66-14.16-25.42-19.91-41.61-23.21c10.63,7.21,18.89,16.11,21.53,29.2c-3.11-1.1-6.15-2.17-9.67-3.41
		c-0.23,5.07,1.98,8.62,3.81,12.64c-3.15-0.45-5.09-2.25-6.81-4.25c-1.63-1.89-3.03-3.98-4.56-5.95c-3.4-4.37-7.29-7.54-13.42-5.01
		c4.67-4.19,9.15-5.84,16.29-6.15c-2.77-1.96-5.46-3.7-7.96-5.67c-9.54-7.49-16.38-16.58-17.06-29.26
		c-0.47-8.76,2.34-16.2,8.87-22.15c0.5-0.46,1.08-0.83,1.78-1.13c-4.72,6.74-6.21,13.68-1.75,21.07c3.18,5.26,7.76,8.47,14.29,9.41
		c-2.86-6.51-4.57-12.72-0.25-19.45c0.98,7.3,5.69,11.79,10.4,16.09c5.3,4.85,10.99,9.28,16.82,13.71
		c-1.82-7.3-2.27-14.25,2.35-21.51c-0.18,7.16,3.06,11.92,7.14,16.44c5.7,6.32,10.4,13.3,12.11,21.86
		C234.71-2242.91,233.98-2237.67,230.48-2233z"/>
</g>
<g class="st10">
	<path class="st4" d="M355.01-2990.93c3.19,8.02,5.9,16.05,3.86,25.29c8.4-4.08,16.63-8.09,25.08-12.19
		c-8.51-4.24-13.19-11.27-17.44-18.68C362.66-2994.65,358.88-2992.81,355.01-2990.93z"/>
	<path class="st4" d="M387.34-2976.12c-2.62,1.21-5.16,2.59-7.75,3.85c-6.95,3.36-13.92,6.67-20.87,10.03
		c-2.47,1.19-3.41,3.54-2.36,5.67c1.07,2.16,3.45,2.84,5.89,1.66c4.67-2.26,9.34-4.54,14.01-6.81c4.67-2.27,9.34-4.54,14.01-6.81
		c0.49-0.24,1-0.49,1.41-0.84c1.49-1.29,1.82-3.48,0.82-5.14C391.43-2976.29,389.3-2977.03,387.34-2976.12z"/>
	<path class="st4" d="M368.26-2998.23c0.7-4.32-0.49-8.01-3.57-11.28c-1.47,1.86-1.49,4.03-1.5,6.44
		c-5.89-7.82-14.03-10.99-22.97-12.81c5.87,3.98,10.43,8.9,11.89,16.12c-1.72-0.6-3.4-1.2-5.34-1.88c-0.13,2.8,1.09,4.76,2.1,6.98
		c-1.74-0.25-2.81-1.24-3.76-2.35c-0.9-1.05-1.67-2.2-2.52-3.29c-1.88-2.41-4.02-4.16-7.41-2.76c2.58-2.31,5.05-3.22,8.99-3.39
		c-1.53-1.08-3.01-2.04-4.4-3.13c-5.27-4.13-9.04-9.15-9.42-16.15c-0.26-4.84,1.29-8.94,4.9-12.23c0.28-0.25,0.59-0.46,0.98-0.62
		c-2.61,3.72-3.43,7.55-0.97,11.63c1.76,2.91,4.28,4.68,7.89,5.2c-1.58-3.59-2.52-7.02-0.14-10.74c0.54,4.03,3.14,6.51,5.74,8.89
		c2.93,2.68,6.07,5.13,9.29,7.57c-1.01-4.03-1.25-7.87,1.29-11.88c-0.1,3.95,1.69,6.58,3.94,9.07c3.15,3.49,5.74,7.34,6.69,12.07
		C370.6-3003.7,370.2-3000.81,368.26-2998.23z"/>
</g>
<g class="st9">
	<path class="st4" d="M513.21-2921.56c-7.18-2.46-14.36-4.9-21.53-7.37c-3.75-1.29-5.52-4.44-4.4-7.79c1.1-3.28,4.49-4.75,8.28-3.45
		c10.66,3.67,21.29,7.41,31.95,11.09c3.99,1.37,8.04,2.55,12,3.99c2.97,1.09,4.41,4.04,3.69,6.98c-0.67,2.75-3.26,4.68-6.13,4.49
		c-0.79-0.05-1.57-0.32-2.33-0.58C527.56-2916.64,520.39-2919.1,513.21-2921.56z"/>
	<path class="st4" d="M537.2-2948.83c-0.42,6.16-0.07,12.4,1.48,18.79c-12.97-4.44-25.63-8.77-38.53-13.18
		c5.13-3.99,9.22-8.65,12.65-13.76L537.2-2948.83z"/>
	<path class="st4" d="M539.34-2963.03c0.75-3.39,1.62-6.77,2.56-10.14c4.16-5.02,10.9-5.9,18.02-7.56
		c8.4-2.04,16.91-4.87,21.07-17.04c5.37-15.7-3.49-30.53-24.17-37.6c-11.15-3.81-20.62-3.45-27.8-0.66
		c-7.13,2.64-11.93,7.56-13.73,12.84c-3.81,11.15,10.32,15.33,10.57,15.09c4.03-7.96,12.52-14.56,24.7-10.4
		c8.66,2.96,12.19,8.92,9.98,15.38c-2.16,6.31-9.07,6.4-16.64,7.91c-7.42,1.56-15.63,4.49-20.09,16.56
		c-0.06,0.16-0.11,0.31-0.16,0.47c-1.31,3.13-2.66,6.22-4.11,9.24c0,0-2.92,9.06,6.69,12.35
		C537.54-2952.73,539.34-2963.03,539.34-2963.03z"/>
</g>
<g class="st10">
	<path class="st4" d="M412.37-2634.66c-2.8-0.96-5.61-1.91-8.41-2.88c-1.46-0.5-2.15-1.73-1.72-3.04c0.43-1.28,1.75-1.86,3.23-1.35
		c4.16,1.43,8.31,2.89,12.48,4.33c1.56,0.54,3.14,1,4.69,1.56c1.16,0.42,1.72,1.58,1.44,2.72c-0.26,1.07-1.27,1.83-2.4,1.75
		c-0.31-0.02-0.61-0.13-0.91-0.23C417.97-2632.74,415.17-2633.7,412.37-2634.66z"/>
	<path class="st4" d="M421.73-2645.31c-0.16,2.41-0.03,4.84,0.58,7.34c-5.06-1.73-10.01-3.42-15.05-5.15c2-1.56,3.6-3.38,4.94-5.37
		L421.73-2645.31z"/>
	<path class="st4" d="M422.57-2650.85c0.29-1.32,0.63-2.64,1-3.96c1.62-1.96,4.26-2.3,7.04-2.95c3.28-0.8,6.6-1.9,8.23-6.66
		c2.1-6.13-1.36-11.92-9.44-14.68c-4.35-1.49-8.05-1.35-10.85-0.26c-2.78,1.03-4.66,2.95-5.36,5.01c-1.49,4.35,4.03,5.99,4.13,5.89
		c1.58-3.11,4.89-5.69,9.64-4.06c3.38,1.16,4.76,3.48,3.9,6c-0.84,2.46-3.54,2.5-6.5,3.09c-2.9,0.61-6.1,1.75-7.84,6.47
		c-0.02,0.06-0.04,0.12-0.06,0.18c-0.51,1.22-1.04,2.43-1.61,3.61c0,0-1.14,3.54,2.61,4.82
		C421.86-2646.83,422.57-2650.85,422.57-2650.85z"/>
</g>
<path class="st11" d="M588.81-2124.5H165.68c-29.1,0-52.69-23.59-52.69-52.69v-865.62c0-29.1,23.59-52.69,52.69-52.69h423.13
	c29.1,0,52.69,23.59,52.69,52.69v865.62C641.5-2148.09,617.91-2124.5,588.81-2124.5z"/>
<rect x="-3669" y="-1579" class="st4" width="749" height="1335"/>
<g>
	<defs>
		<path id="SVGID_3_" d="M-3058.19-386.5h-469.13c-29.1,0-52.69-23.59-52.69-52.69v-918.62c0-29.1,23.59-52.69,52.69-52.69h469.13
			c29.1,0,52.69,23.59,52.69,52.69v918.62C-3005.5-410.09-3029.09-386.5-3058.19-386.5z"/>
	</defs>
	<clipPath id="SVGID_4_">
		<use xlink:href="#SVGID_3_"  style="overflow:visible;"/>
	</clipPath>
	<g class="st12">
		<g>
			<g>
				<polygon class="st0" points="-3003.88,-1095.38 -3003.88,-1412.09 -3437.88,-1412.09 -3088.37,-1120.19 				"/>
			</g>
			<g>
				<polygon class="st1" points="-3437.88,-1412.09 -3579.98,-1412.09 -3579.98,-835.63 -3088.37,-1120.19 				"/>
			</g>
			<g>
				<polygon class="st2" points="-3579.6,-387.35 -3579.6,-387 -3575.63,-387 				"/>
				<polygon class="st2" points="-3004.26,-387 -3004.26,-1095.33 -3088.37,-1120.19 -3579.6,-835.83 -3579.6,-387.35 
					-3575.63,-387 				"/>
			</g>
		</g>
		<g>
			<linearGradient id="SVGID_5_" gradientUnits="userSpaceOnUse" x1="-3436.0713" y1="-806.2768" x2="-2708.6321" y2="-806.2768">
				<stop  offset="0" style="stop-color:#447582"/>
				<stop  offset="1" style="stop-color:#5E8E9A;stop-opacity:0"/>
			</linearGradient>
			<path class="st13" d="M-3009.49-971.48c-0.51-0.52-1.02-1.03-1.54-1.54c-0.51-0.52-1.02-1.03-1.54-1.54
				c-0.51-0.52-1.02-1.03-1.54-1.54c-0.51-0.52-1.02-1.03-1.54-1.54c-0.51-0.52-1.02-1.03-1.54-1.54c-0.51-0.52-1.02-1.03-1.54-1.54
				c-0.51-0.52-1.02-1.03-1.54-1.54c-0.51-0.52-1.02-1.03-1.54-1.54c-0.51-0.52-1.02-1.03-1.54-1.54c-0.51-0.52-1.02-1.03-1.54-1.54
				c-0.51-0.52-1.02-1.03-1.54-1.54c-0.51-0.52-1.02-1.03-1.54-1.54c-0.51-0.52-1.02-1.03-1.54-1.54c-0.51-0.52-1.02-1.03-1.54-1.54
				c-0.51-0.52-1.02-1.03-1.54-1.54c-0.51-0.52-1.02-1.03-1.54-1.54c-0.51-0.52-1.02-1.03-1.54-1.54c-0.51-0.52-1.02-1.03-1.54-1.54
				c-0.51-0.52-1.02-1.03-1.54-1.54c-0.51-0.52-1.02-1.03-1.54-1.54c-0.51-0.52-1.02-1.03-1.54-1.54c-0.51-0.52-1.02-1.03-1.54-1.54
				c-0.51-0.52-1.02-1.03-1.54-1.54c-0.51-0.52-1.02-1.03-1.54-1.54c-0.51-0.52-1.02-1.03-1.54-1.54c-0.51-0.52-1.02-1.03-1.54-1.54
				c-0.51-0.52-1.02-1.03-1.54-1.54c-0.51-0.52-1.02-1.03-1.54-1.54c-0.51-0.52-1.02-1.03-1.54-1.54c-0.51-0.52-1.02-1.03-1.54-1.54
				c-0.51-0.52-1.02-1.03-1.54-1.54c-0.51-0.52-1.02-1.03-1.54-1.54c-0.51-0.52-1.02-1.03-1.54-1.54c-0.51-0.52-1.02-1.03-1.54-1.54
				c-0.51-0.52-1.02-1.03-1.54-1.54c-0.51-0.52-1.02-1.03-1.54-1.54c-0.51-0.52-1.02-1.03-1.54-1.54c-0.51-0.52-1.02-1.03-1.54-1.54
				c-0.51-0.52-1.02-1.03-1.54-1.54c-0.51-0.52-1.02-1.03-1.54-1.54c-0.51-0.52-1.02-1.03-1.54-1.54c-0.51-0.52-1.02-1.03-1.54-1.54
				c-0.51-0.52-1.02-1.03-1.54-1.54c-0.51-0.52-1.02-1.03-1.54-1.54c-0.51-0.52-1.02-1.03-1.54-1.54c-0.51-0.52-1.02-1.03-1.54-1.54
				c-0.51-0.52-1.02-1.03-1.54-1.54c-0.51-0.52-1.02-1.03-1.54-1.54c-0.51-0.52-1.02-1.03-1.54-1.54c-0.51-0.52-1.02-1.03-1.54-1.54
				c-0.51-0.52-1.02-1.03-1.54-1.54c-0.51-0.52-1.02-1.03-1.54-1.54c-0.51-0.52-1.02-1.03-1.54-1.54c-0.51-0.52-1.02-1.03-1.54-1.54
				c-0.51-0.52-1.02-1.03-1.54-1.54c-0.51-0.52-1.02-1.03-1.54-1.54c-0.51-0.52-1.02-1.03-1.54-1.54c-0.51-0.52-1.02-1.03-1.54-1.54
				c-0.51-0.52-1.02-1.03-1.54-1.54c-0.51-0.52-1.02-1.03-1.54-1.54c-0.51-0.52-1.02-1.03-1.54-1.54c-0.51-0.52-1.02-1.03-1.54-1.54
				c-0.51-0.52-1.02-1.03-1.54-1.54c-0.51-0.52-1.02-1.03-1.54-1.54c-0.51-0.52-1.02-1.03-1.54-1.54c-0.51-0.52-1.02-1.03-1.54-1.54
				c-0.51-0.52-1.02-1.03-1.54-1.54c-0.51-0.52-1.02-1.03-1.54-1.54c-0.51-0.52-1.02-1.03-1.54-1.54c-0.51-0.52-1.02-1.03-1.54-1.54
				c-0.51-0.52-1.02-1.03-1.54-1.54c-0.51-0.52-1.02-1.03-1.54-1.54c-0.51-0.52-1.02-1.03-1.54-1.54c-0.51-0.52-1.02-1.03-1.54-1.54
				c-0.51-0.52-1.02-1.03-1.54-1.54c-0.51-0.52-1.02-1.03-1.54-1.54c-0.51-0.52-1.02-1.03-1.54-1.54c-0.51-0.52-1.02-1.03-1.54-1.54
				c-0.51-0.52-1.02-1.03-1.54-1.54c-0.51-0.52-1.02-1.03-1.54-1.54c-0.51-0.52-1.02-1.03-1.54-1.54c-0.51-0.52-1.02-1.03-1.54-1.54
				c-0.51-0.52-1.02-1.03-1.54-1.54c-0.51-0.52-1.02-1.03-1.54-1.54c-0.51-0.52-1.02-1.03-1.54-1.54c-0.51-0.52-1.02-1.03-1.54-1.54
				c-0.51-0.52-1.02-1.03-1.54-1.54c-0.51-0.52-1.02-1.03-1.54-1.54c-0.51-0.52-1.02-1.03-1.54-1.54c-0.51-0.52-1.02-1.03-1.54-1.54
				c-0.51-0.52-1.02-1.03-1.54-1.54c-0.51-0.52-1.02-1.03-1.54-1.54c-0.51-0.52-1.02-1.03-1.54-1.54c-0.51-0.52-1.02-1.03-1.54-1.54
				c-0.51-0.52-1.02-1.03-1.54-1.54c-0.51-0.52-1.02-1.03-1.54-1.54c-0.51-0.52-1.02-1.03-1.54-1.54c-0.51-0.52-1.02-1.03-1.54-1.54
				c-0.51-0.52-1.02-1.03-1.54-1.54c-0.51-0.52-1.02-1.03-1.54-1.54c-0.51-0.52-1.02-1.03-1.54-1.54c-0.51-0.52-1.02-1.03-1.54-1.54
				c-0.51-0.52-1.02-1.03-1.54-1.54c-0.51-0.52-1.02-1.03-1.54-1.54c-0.51-0.52-1.02-1.03-1.54-1.54c-0.51-0.52-1.02-1.03-1.54-1.54
				c-0.51-0.52-1.02-1.03-1.54-1.54c-0.51-0.52-1.02-1.03-1.54-1.54c-0.51-0.52-1.02-1.03-1.54-1.54c-0.51-0.52-1.02-1.03-1.54-1.54
				c-0.51-0.52-1.02-1.03-1.54-1.54c-0.51-0.52-1.02-1.03-1.54-1.54c-0.51-0.52-1.02-1.03-1.54-1.54c-0.51-0.52-1.02-1.03-1.54-1.54
				c-0.51-0.52-1.02-1.03-1.54-1.54c-0.51-0.52-1.02-1.03-1.54-1.54c-0.51-0.52-1.02-1.03-1.54-1.54c-0.51-0.52-1.02-1.03-1.54-1.54
				c-0.51-0.52-1.02-1.03-1.54-1.54c-0.51-0.52-1.02-1.03-1.54-1.54c-0.51-0.52-1.02-1.03-1.54-1.54c-0.51-0.52-1.02-1.03-1.54-1.54
				c-0.51-0.52-1.02-1.03-1.54-1.54c-0.51-0.52-1.02-1.03-1.54-1.54c-0.51-0.52-1.02-1.03-1.54-1.54c-0.51-0.52-1.02-1.03-1.54-1.54
				c-0.51-0.52-1.02-1.03-1.54-1.54c-0.51-0.52-1.02-1.03-1.54-1.54c-0.51-0.52-1.02-1.03-1.54-1.54c-0.51-0.52-1.02-1.03-1.54-1.54
				c-0.51-0.52-1.02-1.03-1.54-1.54c-0.51-0.52-1.02-1.03-1.54-1.54c-0.51-0.52-1.02-1.03-1.54-1.54c-0.51-0.52-1.02-1.03-1.54-1.54
				c-0.51-0.52-1.02-1.03-1.54-1.54c-0.51-0.52-1.02-1.03-1.54-1.54c-0.51-0.52-1.02-1.03-1.54-1.54c-0.51-0.52-1.02-1.03-1.54-1.54
				c-0.51-0.52-1.02-1.03-1.54-1.54c-0.51-0.52-1.02-1.03-1.54-1.54c-0.51-0.52-1.02-1.03-1.54-1.54c-0.51-0.52-1.02-1.03-1.54-1.54
				c-0.51-0.52-1.02-1.03-1.54-1.54c-0.51-0.52-1.02-1.03-1.54-1.54c-0.51-0.52-1.02-1.03-1.54-1.54c-0.51-0.52-1.02-1.03-1.54-1.54
				c-0.51-0.52-1.02-1.03-1.54-1.54c-0.51-0.52-1.02-1.03-1.54-1.54c-0.51-0.52-1.02-1.03-1.54-1.54c-0.51-0.52-1.02-1.03-1.54-1.54
				c-13.79-14.14-32.96-23-54.12-23.12c-43.15-0.23-77.24,33.41-77.4,76.38c-0.08,21.97,8.76,41.62,23.17,55.61
				c0.51,0.52,1.02,1.03,1.54,1.54c0.51,0.52,1.02,1.03,1.54,1.54c0.51,0.52,1.02,1.03,1.54,1.54c0.5,0.52,1.02,1.03,1.54,1.54
				c0.51,0.52,1.02,1.03,1.54,1.54c0.51,0.52,1.02,1.03,1.54,1.54c0.51,0.52,1.02,1.03,1.54,1.54c0.51,0.52,1.02,1.03,1.54,1.54
				c0.51,0.52,1.02,1.03,1.54,1.54c0.51,0.52,1.02,1.03,1.54,1.54c0.51,0.52,1.02,1.03,1.54,1.54c0.5,0.52,1.02,1.03,1.54,1.54
				c0.51,0.52,1.02,1.03,1.54,1.54c0.51,0.52,1.02,1.03,1.54,1.54c0.5,0.52,1.02,1.03,1.54,1.54c0.51,0.52,1.02,1.03,1.54,1.54
				c0.51,0.52,1.02,1.03,1.54,1.54c0.51,0.52,1.02,1.03,1.54,1.54c0.51,0.52,1.02,1.03,1.54,1.54c0.5,0.52,1.02,1.03,1.54,1.54
				c0.51,0.52,1.02,1.03,1.54,1.54c0.51,0.52,1.02,1.03,1.54,1.54c0.5,0.52,1.02,1.03,1.54,1.54c0.51,0.52,1.02,1.03,1.54,1.54
				c0.51,0.52,1.02,1.03,1.54,1.54c0.51,0.52,1.02,1.03,1.54,1.54c0.25,0.26,0.5,0.52,0.76,0.77c-7.03-0.88-14.06-2.48-21.12-4.73
				c-7.3,63.78-17.26,125.76-54.36,180.03c0.85,0,1.7,0,2.56,0c-0.34,0.51-0.67,1.03-1.02,1.54c0.85,0,1.7,0,2.56,0
				c-0.34,0.51-0.67,1.03-1.02,1.54c0.85,0,1.7,0,2.56,0c-0.34,0.51-0.67,1.03-1.02,1.54c0.85,0,1.7,0,2.56,0
				c-0.34,0.51-0.67,1.03-1.02,1.54c0.85,0,1.7,0,2.56,0c-0.34,0.51-0.67,1.03-1.02,1.54c0.85,0,1.7,0,2.56,0
				c-0.34,0.51-0.67,1.03-1.02,1.54c0.85,0,1.7,0,2.56,0c-0.34,0.51-0.67,1.03-1.02,1.54c0.85,0,1.7,0,2.56,0
				c-0.34,0.51-0.67,1.03-1.02,1.54c0.85,0,1.7,0,2.56,0c-0.34,0.51-0.67,1.03-1.02,1.54c0.85,0,1.7,0,2.56,0
				c-0.34,0.51-0.67,1.03-1.02,1.54c0.85,0,1.7,0,2.56,0c-0.34,0.51-0.67,1.03-1.02,1.54c0.85,0,1.7,0,2.56,0
				c-0.34,0.51-0.67,1.03-1.02,1.54c0.85,0,1.7,0,2.56,0c-0.34,0.51-0.67,1.03-1.02,1.54c0.85,0,1.7,0,2.56,0
				c-0.13,0.19-0.26,0.39-0.39,0.58c-14.74,0.06-29.48,0.13-44.22,0.23c-6.85,0.05-14.67,2.84-20.3,6.82
				c-10.2,7.22-12.92,20.01-8.75,31.03c1.62,4.29,4.14,8,7.34,10.96c0.49,0.53,1.01,1.04,1.54,1.54c0.49,0.53,1.01,1.04,1.54,1.54
				c0.49,0.53,1.01,1.04,1.54,1.54c0.49,0.53,1,1.04,1.54,1.54c0.49,0.53,1.01,1.04,1.54,1.54c0.49,0.53,1.01,1.04,1.54,1.54
				c0.49,0.53,1.01,1.04,1.54,1.54c0.49,0.53,1.01,1.04,1.54,1.54c0.49,0.53,1.01,1.04,1.54,1.54c0.49,0.53,1.01,1.04,1.54,1.54
				c0.49,0.53,1.01,1.04,1.54,1.54c0.49,0.53,1,1.04,1.54,1.54c0.49,0.53,1.01,1.04,1.54,1.54c0.49,0.53,1.01,1.04,1.54,1.54
				c0.49,0.53,1.01,1.04,1.54,1.54c0.49,0.53,1.01,1.04,1.54,1.54c0.49,0.53,1.01,1.04,1.54,1.54c0.49,0.53,1.01,1.04,1.54,1.54
				c0.49,0.53,1.01,1.04,1.54,1.54c0.49,0.53,1,1.04,1.54,1.54c0.49,0.53,1.01,1.04,1.54,1.54c0.49,0.53,1.01,1.04,1.54,1.54
				c0.49,0.53,1.01,1.04,1.54,1.54c0.49,0.53,1.01,1.04,1.54,1.54c0.49,0.53,1.01,1.04,1.54,1.54c0.49,0.53,1.01,1.04,1.54,1.54
				c0.49,0.53,1.01,1.04,1.54,1.54c0.49,0.53,1,1.04,1.54,1.54c0.49,0.53,1.01,1.04,1.54,1.54c0.49,0.53,1.01,1.04,1.54,1.54
				c0.49,0.53,1.01,1.04,1.54,1.54c0.49,0.53,1.01,1.04,1.54,1.54c0.49,0.53,1.01,1.04,1.54,1.54c0.49,0.53,1.01,1.04,1.54,1.54
				c0.49,0.53,1.01,1.04,1.54,1.54c0.49,0.53,1,1.04,1.54,1.54c0.49,0.53,1.01,1.04,1.54,1.54c0.49,0.53,1.01,1.04,1.54,1.54
				c0.49,0.53,1.01,1.04,1.54,1.54c0.49,0.53,1.01,1.04,1.54,1.54c0.49,0.53,1.01,1.04,1.54,1.54c0.49,0.53,1.01,1.04,1.54,1.54
				c0.49,0.53,1.01,1.04,1.54,1.54c0.49,0.53,1,1.04,1.54,1.54c0.49,0.53,1.01,1.04,1.54,1.54c0.49,0.53,1.01,1.04,1.54,1.54
				c0.49,0.53,1.01,1.04,1.54,1.54c0.49,0.53,1.01,1.04,1.54,1.54c0.49,0.53,1.01,1.04,1.54,1.54c0.49,0.53,1.01,1.04,1.54,1.54
				c0.49,0.53,1.01,1.04,1.54,1.54c0.49,0.53,1,1.04,1.54,1.54c0.49,0.53,1.01,1.04,1.54,1.54c0.49,0.53,1.01,1.04,1.54,1.54
				c0.49,0.53,1.01,1.04,1.54,1.54c0.49,0.53,1.01,1.04,1.54,1.54c0.49,0.53,1.01,1.04,1.54,1.54c0.49,0.53,1.01,1.04,1.54,1.54
				c0.49,0.53,1.01,1.04,1.54,1.54c0.49,0.53,1,1.04,1.54,1.54c0.49,0.53,1.01,1.04,1.54,1.54c0.49,0.53,1.01,1.04,1.54,1.54
				c0.49,0.53,1.01,1.04,1.54,1.54c0.49,0.53,1.01,1.04,1.54,1.54c0.49,0.53,1.01,1.04,1.54,1.54c0.49,0.53,1.01,1.04,1.54,1.54
				c0.49,0.53,1.01,1.04,1.54,1.54c0.49,0.53,1,1.04,1.54,1.54c0.49,0.53,1.01,1.04,1.54,1.54c0.49,0.53,1.01,1.04,1.54,1.54
				c0.49,0.53,1.01,1.04,1.54,1.54c0.49,0.53,1.01,1.04,1.54,1.54c0.49,0.53,1.01,1.04,1.54,1.54c0.49,0.53,1.01,1.04,1.54,1.54
				c0.49,0.53,1.01,1.04,1.54,1.54c0.49,0.53,1,1.04,1.54,1.54c0.49,0.53,1.01,1.04,1.54,1.54c0.49,0.53,1.01,1.04,1.54,1.54
				c0.49,0.53,1,1.04,1.54,1.54c0.49,0.53,1.01,1.04,1.54,1.54c0.49,0.53,1.01,1.04,1.54,1.54c0.49,0.53,1.01,1.04,1.54,1.54
				c0.49,0.53,1.01,1.04,1.54,1.54c0.49,0.53,1.01,1.04,1.54,1.54c0.49,0.53,1.01,1.04,1.54,1.54c0.49,0.53,1.01,1.04,1.54,1.54
				c0.49,0.53,1,1.04,1.54,1.54c0.49,0.53,1.01,1.04,1.54,1.54c0.49,0.53,1.01,1.04,1.54,1.54c0.49,0.53,1.01,1.04,1.54,1.54
				c0.49,0.53,1.01,1.04,1.54,1.54c0.49,0.53,1.01,1.04,1.54,1.54c0.49,0.53,1.01,1.04,1.54,1.54c0.49,0.53,1.01,1.04,1.54,1.54
				c0.49,0.53,1,1.04,1.54,1.54c0.49,0.53,1.01,1.04,1.54,1.54c0.49,0.53,1.01,1.04,1.54,1.54c0.49,0.53,1.01,1.04,1.54,1.54
				c0.49,0.53,1.01,1.04,1.54,1.54c0.49,0.53,1.01,1.04,1.54,1.54c0.49,0.53,1.01,1.04,1.54,1.54c0.49,0.53,1.01,1.04,1.54,1.54
				c0.49,0.53,1,1.04,1.54,1.54c0.49,0.53,1.01,1.04,1.54,1.54c0.49,0.53,1.01,1.04,1.54,1.54c0.49,0.53,1.01,1.04,1.54,1.54
				c0.49,0.53,1.01,1.04,1.54,1.54c0.49,0.53,1.01,1.04,1.54,1.54c0.49,0.53,1.01,1.04,1.54,1.54c0.49,0.53,1.01,1.04,1.54,1.54
				c0.49,0.53,1,1.04,1.54,1.54c0.49,0.53,1.01,1.04,1.54,1.54c0.49,0.53,1.01,1.04,1.54,1.54c0.49,0.53,1.01,1.04,1.54,1.54
				c0.49,0.53,1.01,1.04,1.54,1.54c0.49,0.53,1.01,1.04,1.54,1.54c0.49,0.53,1.01,1.04,1.54,1.54c0.49,0.53,1.01,1.04,1.54,1.54
				c0.49,0.53,1,1.04,1.54,1.54c0.49,0.53,1.01,1.04,1.54,1.54c0.49,0.53,1.01,1.04,1.54,1.54c0.49,0.53,1.01,1.04,1.54,1.54
				c0.49,0.53,1.01,1.04,1.54,1.54c0.49,0.53,1.01,1.04,1.54,1.54c0.49,0.53,1.01,1.04,1.54,1.54c0.49,0.53,1.01,1.04,1.54,1.54
				c0.49,0.53,1,1.04,1.54,1.54c0.49,0.53,1.01,1.04,1.54,1.54c0.49,0.53,1.01,1.04,1.54,1.54c0.49,0.53,1.01,1.04,1.54,1.54
				c0.49,0.53,1.01,1.04,1.54,1.54c0.49,0.53,1.01,1.04,1.54,1.54c0.49,0.53,1.01,1.04,1.54,1.54c0.49,0.53,1.01,1.04,1.54,1.54
				c0.49,0.53,1,1.04,1.54,1.54c0.49,0.53,1.01,1.04,1.54,1.54c0.49,0.53,1.01,1.04,1.54,1.54c0.49,0.53,1.01,1.04,1.54,1.54
				c0.49,0.53,1.01,1.04,1.54,1.54c0.49,0.53,1.01,1.04,1.54,1.54c0.49,0.53,1.01,1.04,1.54,1.54c0.49,0.53,1.01,1.04,1.54,1.54
				c0.49,0.53,1,1.04,1.54,1.54c0.49,0.53,1.01,1.04,1.54,1.54c0.49,0.53,1.01,1.04,1.54,1.54c0.49,0.53,1.01,1.04,1.54,1.54
				c0.49,0.53,1.01,1.04,1.54,1.54c0.49,0.53,1.01,1.04,1.54,1.54c0.49,0.53,1.01,1.04,1.54,1.54c0.49,0.53,1.01,1.04,1.54,1.54
				c0.49,0.53,1,1.04,1.54,1.54c0.49,0.53,1.01,1.04,1.54,1.54c0.49,0.53,1.01,1.04,1.54,1.54c0.49,0.53,1.01,1.04,1.54,1.54
				c0.49,0.53,1.01,1.04,1.54,1.54c0.49,0.53,1.01,1.04,1.54,1.54c0.49,0.53,1.01,1.04,1.54,1.54c0.49,0.53,1.01,1.04,1.54,1.54
				c0.49,0.53,1,1.04,1.54,1.54c0.49,0.53,1.01,1.04,1.54,1.54c0.49,0.53,1.01,1.04,1.54,1.54c0.49,0.53,1,1.04,1.54,1.54
				c0.49,0.53,1.01,1.04,1.54,1.54c0.49,0.53,1.01,1.04,1.54,1.54c0.49,0.53,1.01,1.04,1.54,1.54c0.49,0.53,1.01,1.04,1.54,1.54
				c0.49,0.53,1,1.04,1.54,1.54c0.49,0.53,1.01,1.04,1.54,1.54c0.49,0.53,1.01,1.04,1.54,1.54c0.49,0.53,1,1.04,1.54,1.54
				c0.49,0.53,1.01,1.04,1.54,1.54c0.49,0.53,1.01,1.04,1.54,1.54c0.49,0.53,1.01,1.04,1.54,1.54c0.49,0.53,1.01,1.04,1.54,1.54
				c0.49,0.53,1.01,1.04,1.54,1.54c0.49,0.53,1.01,1.04,1.54,1.54c0.49,0.53,1.01,1.04,1.54,1.54c0.49,0.53,1,1.04,1.54,1.54
				c0.49,0.53,1.01,1.04,1.54,1.54c0.49,0.53,1.01,1.04,1.54,1.54c0.49,0.53,1.01,1.04,1.54,1.54c0.49,0.53,1.01,1.04,1.54,1.54
				c0.49,0.53,1.01,1.04,1.54,1.54c0.49,0.53,1.01,1.04,1.54,1.54c0.49,0.53,1.01,1.04,1.54,1.54c0.49,0.53,1,1.04,1.54,1.54
				c0.49,0.53,1.01,1.04,1.54,1.54c0.49,0.53,1.01,1.04,1.54,1.54c0.49,0.53,1.01,1.04,1.54,1.54c0.49,0.53,1.01,1.04,1.54,1.54
				c0.49,0.53,1.01,1.04,1.54,1.54c0.49,0.53,1.01,1.04,1.54,1.54c0.49,0.53,1.01,1.04,1.54,1.54c0.49,0.53,1,1.04,1.54,1.54
				c0.49,0.53,1.01,1.04,1.54,1.54c0.49,0.53,1.01,1.04,1.54,1.54c0.49,0.53,1.01,1.04,1.54,1.54c0.49,0.53,1.01,1.04,1.54,1.54
				c0.36,0.39,76.02,76.06,115.72,115.74v-581.42c-0.33-0.34-0.66-0.67-1-1C-3008.46-970.46-3008.97-970.97-3009.49-971.48z"/>
		</g>
		<g class="st14">
			<path class="st4" d="M-3206.23-877.04c-59.37,0-117.56,0-176.84,0c37.1-54.26,47.07-116.24,54.36-180.03
				c22.43,7.13,44.42,7.72,67.5-0.24C-3253.85-993.87-3242.88-931.95-3206.23-877.04z"/>
			<path class="st4" d="M-3371.45-1148.66c0.15-42.96,34.25-76.61,77.4-76.38c42.03,0.23,76.26,34.97,75.92,77.08
				c-0.33,42.2-34.91,76.76-76.6,76.54C-3337.74-1071.64-3371.6-1105.73-3371.45-1148.66z"/>
			<path class="st4" d="M-3295.82-799.68c-36.9,0-73.8,0.07-110.69-0.04c-12.88-0.04-23.39-7.36-27.68-18.68
				c-4.17-11.02-1.45-23.81,8.75-31.03c5.63-3.98,13.44-6.78,20.3-6.82c73.47-0.49,146.95-0.43,220.42-0.27
				c18.06,0.04,31.48,12.89,30.94,28.65c-0.57,16.85-13.1,28.21-31.35,28.24c-36.89,0.05-73.79,0.02-110.68,0.02
				C-3295.82-799.64-3295.82-799.66-3295.82-799.68z"/>
		</g>
	</g>
</g>
<path class="st11" d="M-3081.19-413.5h-423.13c-29.1,0-52.69-23.59-52.69-52.69v-865.62c0-29.1,23.59-52.69,52.69-52.69h423.13
	c29.1,0,52.69,23.59,52.69,52.69v865.62C-3028.5-437.09-3052.09-413.5-3081.19-413.5z"/>
<rect x="1099" y="-3290" class="st4" width="749" height="1335"/>
<g>
	<defs>
		<path id="SVGID_6_" d="M1709.81-2097.5h-469.13c-29.1,0-52.69-23.59-52.69-52.69v-918.62c0-29.1,23.59-52.69,52.69-52.69h469.13
			c29.1,0,52.69,23.59,52.69,52.69v918.62C1762.5-2121.09,1738.91-2097.5,1709.81-2097.5z"/>
	</defs>
	<clipPath id="SVGID_7_">
		<use xlink:href="#SVGID_6_"  style="overflow:visible;"/>
	</clipPath>
	<g class="st15">
		<g>
			<g>
				<polygon class="st0" points="1763.37,-2804.25 1763.37,-3120 1330.68,-3120 1679.13,-2828.98 				"/>
			</g>
			<g>
				<polygon class="st1" points="1330.68,-3120 1189,-3120 1189,-2545.28 1679.13,-2828.98 				"/>
			</g>
			<g>
				<polygon class="st2" points="1189.38,-2098.35 1189.38,-2098 1193.34,-2098 				"/>
				<polygon class="st2" points="1762.99,-2098 1762.99,-2804.19 1679.13,-2828.98 1189.38,-2545.48 1189.38,-2098.35 
					1193.34,-2098 				"/>
			</g>
		</g>
		<linearGradient id="SVGID_8_" gradientUnits="userSpaceOnUse" x1="1335.7437" y1="-2590.8928" x2="1762.6066" y2="-2590.8928">
			<stop  offset="0" style="stop-color:#447582"/>
			<stop  offset="1" style="stop-color:#5E8E9A;stop-opacity:0"/>
		</linearGradient>
		<path class="st16" d="M1762.61-2803.4c-0.4-0.44-0.82-0.85-1.26-1.24c-0.47-0.55-0.99-1.06-1.53-1.53
			c-0.47-0.55-0.99-1.06-1.53-1.53c-0.47-0.55-0.99-1.06-1.53-1.53c-0.47-0.55-0.99-1.06-1.53-1.53c-0.47-0.55-0.99-1.06-1.53-1.53
			c-0.47-0.55-0.99-1.06-1.53-1.53c-0.47-0.55-0.99-1.06-1.53-1.53c-0.47-0.55-0.99-1.06-1.53-1.53c-0.47-0.55-0.99-1.06-1.53-1.53
			c-0.47-0.55-0.99-1.06-1.53-1.53c-0.47-0.55-0.99-1.06-1.53-1.53c-0.47-0.55-0.99-1.06-1.53-1.53c-0.47-0.55-0.99-1.06-1.53-1.53
			c-0.47-0.55-0.99-1.06-1.53-1.53c-0.47-0.55-0.99-1.06-1.53-1.53c-0.47-0.55-0.99-1.06-1.53-1.53c-0.47-0.55-0.99-1.06-1.53-1.53
			c-0.47-0.55-0.99-1.06-1.53-1.53c-0.47-0.55-0.99-1.06-1.53-1.53c-0.47-0.55-0.99-1.06-1.53-1.53c-0.47-0.55-0.99-1.06-1.53-1.53
			c-0.47-0.55-0.99-1.06-1.53-1.53c-0.47-0.55-0.99-1.06-1.53-1.53c-0.47-0.55-0.99-1.06-1.53-1.53c-0.47-0.55-0.99-1.06-1.53-1.53
			c-0.47-0.55-0.99-1.06-1.53-1.53c-0.47-0.55-0.99-1.06-1.53-1.53c-0.47-0.55-0.99-1.06-1.53-1.53c-0.47-0.55-0.99-1.06-1.53-1.53
			c-0.47-0.55-0.99-1.06-1.53-1.53c-0.47-0.55-0.99-1.06-1.53-1.53c-0.47-0.55-0.99-1.06-1.53-1.53c-0.47-0.55-0.99-1.06-1.53-1.53
			c-0.47-0.55-0.99-1.06-1.53-1.53c-0.47-0.55-0.99-1.06-1.53-1.53c-0.47-0.55-0.99-1.06-1.53-1.53c-0.47-0.55-0.99-1.06-1.53-1.53
			c-0.47-0.55-0.99-1.06-1.53-1.53c-0.47-0.55-0.99-1.06-1.53-1.53c-0.47-0.55-0.99-1.06-1.53-1.53c-0.47-0.55-0.99-1.06-1.53-1.53
			c-0.47-0.55-0.99-1.06-1.53-1.53c-0.47-0.55-0.99-1.06-1.53-1.53c-0.47-0.55-0.99-1.06-1.53-1.53c-0.47-0.55-0.99-1.06-1.53-1.53
			c-0.47-0.55-0.99-1.06-1.53-1.53c-0.47-0.55-0.99-1.06-1.53-1.53c-0.47-0.55-0.99-1.06-1.53-1.53c-0.47-0.55-0.99-1.06-1.53-1.53
			c-0.47-0.55-0.99-1.06-1.53-1.53c-0.47-0.55-0.99-1.06-1.53-1.53c-0.47-0.55-0.99-1.06-1.53-1.53c-0.47-0.55-0.99-1.06-1.53-1.53
			c-0.47-0.55-0.99-1.06-1.53-1.53c-0.47-0.55-0.99-1.06-1.53-1.53c-0.47-0.55-0.99-1.06-1.53-1.53c-0.47-0.55-0.99-1.06-1.53-1.53
			c-0.47-0.55-0.99-1.06-1.53-1.53c-0.47-0.55-0.99-1.06-1.53-1.53c-0.47-0.55-0.99-1.06-1.53-1.53c-0.47-0.55-0.99-1.06-1.53-1.53
			c-0.47-0.55-0.99-1.06-1.53-1.53c-0.47-0.55-0.99-1.06-1.53-1.53c-0.47-0.55-0.99-1.06-1.53-1.53c-0.47-0.55-0.99-1.06-1.53-1.53
			c-0.47-0.55-0.99-1.06-1.53-1.53c-0.47-0.55-0.99-1.06-1.53-1.53c-0.47-0.55-0.99-1.06-1.53-1.53c-0.47-0.55-0.99-1.06-1.53-1.53
			c-0.47-0.55-0.99-1.06-1.53-1.53c-0.47-0.55-0.99-1.06-1.53-1.53c-0.47-0.55-0.99-1.06-1.53-1.53c-0.47-0.55-0.99-1.06-1.53-1.53
			c-0.47-0.55-0.99-1.06-1.53-1.53c-0.47-0.55-0.99-1.06-1.53-1.53c-0.47-0.55-0.99-1.06-1.53-1.53c-0.47-0.55-0.99-1.06-1.53-1.53
			c-0.47-0.55-0.99-1.06-1.53-1.53c-0.47-0.55-0.99-1.06-1.53-1.53c-0.47-0.55-0.99-1.06-1.53-1.53c-0.47-0.55-0.99-1.06-1.53-1.53
			c-0.47-0.55-0.99-1.06-1.53-1.53c-0.47-0.55-0.99-1.06-1.53-1.53c-0.47-0.55-0.99-1.06-1.53-1.53c-0.47-0.55-0.99-1.06-1.53-1.53
			c-0.47-0.55-0.99-1.06-1.53-1.53c-0.47-0.55-0.99-1.06-1.53-1.53c-0.47-0.55-0.99-1.06-1.53-1.53c-0.47-0.55-0.99-1.06-1.53-1.53
			c-0.47-0.55-0.99-1.06-1.53-1.53c-0.47-0.55-0.99-1.06-1.53-1.53c-0.47-0.55-0.99-1.06-1.53-1.53c-0.47-0.55-0.99-1.06-1.53-1.53
			c-0.47-0.55-0.99-1.06-1.53-1.53c-0.47-0.55-0.99-1.06-1.53-1.53c-0.47-0.55-0.99-1.06-1.53-1.53c-0.47-0.55-0.99-1.06-1.53-1.53
			c-0.47-0.55-0.99-1.06-1.53-1.53c-0.47-0.55-0.99-1.06-1.53-1.53c-0.47-0.55-0.99-1.06-1.53-1.53c-0.47-0.55-0.99-1.06-1.53-1.53
			c-0.47-0.55-0.99-1.06-1.53-1.53c-0.47-0.55-0.99-1.06-1.53-1.53c-0.47-0.55-0.99-1.06-1.53-1.53c-0.47-0.55-0.99-1.06-1.53-1.53
			c-0.47-0.55-0.99-1.06-1.53-1.53c-0.47-0.55-0.99-1.06-1.53-1.53c-0.47-0.55-0.99-1.06-1.53-1.53c-0.47-0.55-0.99-1.06-1.53-1.53
			c-0.47-0.55-0.99-1.06-1.53-1.53c-0.47-0.55-0.99-1.06-1.53-1.53c-0.47-0.55-0.99-1.06-1.53-1.53c-0.47-0.55-0.99-1.06-1.53-1.53
			c-0.47-0.55-0.99-1.06-1.53-1.53c-0.47-0.55-0.99-1.06-1.53-1.53c-0.47-0.55-0.99-1.06-1.53-1.53c-0.47-0.55-0.99-1.06-1.53-1.53
			c-0.47-0.55-0.99-1.06-1.53-1.53c-0.47-0.55-0.99-1.06-1.53-1.53c-0.47-0.55-0.99-1.06-1.53-1.53c-0.47-0.55-0.99-1.06-1.53-1.53
			c-0.47-0.55-0.99-1.06-1.53-1.53c-0.47-0.55-0.99-1.06-1.53-1.53c-0.47-0.55-0.99-1.06-1.53-1.53c-0.47-0.55-0.99-1.06-1.53-1.53
			c-0.47-0.55-0.99-1.06-1.53-1.53c-0.47-0.55-0.99-1.06-1.53-1.53c-0.47-0.55-0.99-1.06-1.53-1.53c-0.47-0.55-0.99-1.06-1.53-1.53
			c-0.47-0.55-0.99-1.06-1.53-1.53c-0.47-0.55-0.99-1.06-1.53-1.53c-0.47-0.55-0.99-1.06-1.53-1.53c-0.47-0.55-0.99-1.06-1.53-1.53
			c-0.47-0.55-0.99-1.06-1.53-1.53c-0.47-0.55-0.99-1.06-1.53-1.53c-0.47-0.55-0.99-1.06-1.53-1.53c-0.47-0.55-0.99-1.06-1.53-1.53
			c-0.47-0.55-0.99-1.06-1.53-1.53c-0.47-0.55-0.99-1.06-1.53-1.53c-0.47-0.55-0.99-1.06-1.53-1.53c-0.47-0.55-0.99-1.06-1.53-1.53
			c-0.47-0.55-0.99-1.06-1.53-1.53c-0.47-0.55-0.99-1.06-1.53-1.53c-0.47-0.55-0.99-1.06-1.53-1.53c-0.47-0.55-0.99-1.06-1.53-1.53
			c-0.47-0.55-0.99-1.06-1.53-1.53c-0.47-0.55-0.99-1.06-1.53-1.53c-0.47-0.55-0.99-1.06-1.53-1.53c-0.47-0.55-0.99-1.06-1.53-1.53
			c-0.47-0.55-0.99-1.06-1.53-1.53c-0.47-0.55-0.99-1.06-1.53-1.53c-0.47-0.55-0.99-1.06-1.53-1.53c-0.47-0.55-0.99-1.06-1.53-1.53
			c-0.47-0.55-0.99-1.06-1.53-1.53c-0.47-0.55-0.99-1.06-1.53-1.53c-0.47-0.55-0.99-1.06-1.53-1.53c-0.47-0.55-0.99-1.06-1.53-1.53
			c-0.47-0.55-0.99-1.06-1.53-1.53c-0.47-0.55-0.99-1.06-1.53-1.53c-0.47-0.55-0.99-1.06-1.53-1.53c-0.47-0.55-0.99-1.06-1.53-1.53
			c-0.47-0.55-0.99-1.06-1.53-1.53c-0.47-0.55-0.99-1.06-1.53-1.53c-0.47-0.55-0.99-1.06-1.53-1.53c-0.47-0.55-0.99-1.06-1.53-1.53
			c-0.47-0.55-0.99-1.06-1.53-1.53c-0.47-0.55-0.99-1.06-1.53-1.53c-0.47-0.55-0.99-1.06-1.53-1.53c-0.47-0.55-0.99-1.06-1.53-1.53
			c-0.47-0.55-0.99-1.06-1.53-1.53c-0.47-0.55-0.99-1.06-1.53-1.53c-0.47-0.55-0.99-1.06-1.53-1.53c-0.47-0.55-0.99-1.06-1.53-1.53
			c-0.47-0.55-0.99-1.06-1.53-1.53c-0.47-0.55-0.99-1.06-1.53-1.53c-0.47-0.55-0.99-1.06-1.53-1.53c-0.47-0.55-0.99-1.06-1.53-1.53
			c-0.47-0.55-0.99-1.06-1.53-1.53c-2.94-3.47-7.35-5.42-12.65-5.36c-9.31,0.1-15.86,6.59-16.27,16.51
			c-0.26,6.3-0.05,12.62-0.05,20.35c-7.06,0-13.05-0.22-19.02,0.05c-11.3,0.51-17.53,6.33-17.52,15.99
			c0.01,5.25,1.85,9.47,5.18,12.38c0.47,0.55,0.98,1.05,1.53,1.53c0.47,0.55,0.98,1.05,1.53,1.53c0.47,0.55,0.98,1.05,1.53,1.53
			c0.47,0.55,0.98,1.05,1.53,1.53c0.47,0.55,0.98,1.05,1.53,1.53c0.47,0.55,0.98,1.05,1.53,1.53c0.47,0.55,0.98,1.05,1.53,1.53
			c0.47,0.55,0.98,1.05,1.53,1.53c0.47,0.55,0.98,1.05,1.53,1.53c0.47,0.55,0.98,1.05,1.53,1.53c0.47,0.55,0.98,1.05,1.53,1.53
			c0.47,0.55,0.98,1.05,1.53,1.53c0.47,0.55,0.98,1.05,1.53,1.53c0.47,0.55,0.98,1.05,1.53,1.53c0.47,0.55,0.98,1.05,1.53,1.53
			c0.47,0.55,0.98,1.05,1.53,1.53c0.47,0.55,0.98,1.05,1.53,1.53c0.47,0.55,0.98,1.05,1.53,1.53c0.47,0.55,0.98,1.05,1.53,1.53
			c0.47,0.55,0.98,1.05,1.53,1.53c0.04,0.05,0.09,0.1,0.13,0.15c-1.15,2.85-3.64,4.78-7.99,6.3c-14.64,5.13-25.62,14.84-31.72,30.53
			c0.73,0,1.45,0,2.17,0c-0.21,0.51-0.44,1.01-0.64,1.53c0.73,0,1.45,0,2.17,0c-0.21,0.51-0.44,1.01-0.64,1.53c0.73,0,1.45,0,2.17,0
			c-0.21,0.51-0.44,1.01-0.64,1.53c0.73,0,1.45,0,2.17,0c-0.21,0.51-0.44,1.01-0.64,1.53c0.73,0,1.45,0,2.17,0
			c-0.21,0.51-0.44,1.01-0.64,1.53c0.73,0,1.45,0,2.17,0c-0.21,0.51-0.44,1.01-0.64,1.53c0.73,0,1.45,0,2.17,0
			c-0.21,0.51-0.44,1.01-0.64,1.53c0.73,0,1.45,0,2.17,0c-0.21,0.51-0.44,1.01-0.64,1.53c0.73,0,1.45,0,2.17,0
			c-0.21,0.51-0.44,1.01-0.64,1.53c0.73,0,1.45,0,2.17,0c-0.21,0.51-0.44,1.01-0.64,1.53c0.73,0,1.45,0,2.17,0
			c-0.21,0.51-0.44,1.01-0.64,1.53c0.73,0,1.45,0,2.17,0c-0.21,0.51-0.44,1.01-0.64,1.53c0.73,0,1.45,0,2.17,0
			c-0.21,0.51-0.44,1.01-0.64,1.53c0.73,0,1.45,0,2.17,0c-0.12,0.28-0.24,0.55-0.35,0.84c-10.07-0.01-20.15,0.01-30.22,0.09
			c-15.49,0.13-23.37,10.3-19.75,25.48c7.86,32.95,16.1,65.81,23.75,98.81c0.76,3.26,1.82,5.33,3.56,6.55
			c0.44,0.61,0.95,1.12,1.53,1.53c0.44,0.61,0.95,1.12,1.53,1.53c0.44,0.61,0.95,1.12,1.53,1.53c0.44,0.61,0.95,1.12,1.53,1.53
			c0.44,0.61,0.95,1.12,1.53,1.53c0.44,0.61,0.95,1.12,1.53,1.53c0.44,0.61,0.95,1.12,1.53,1.53c0.44,0.61,0.95,1.12,1.53,1.53
			c0.44,0.61,0.95,1.12,1.53,1.53c0.44,0.61,0.95,1.12,1.53,1.53c0.44,0.61,0.95,1.12,1.53,1.53c0.44,0.61,0.95,1.12,1.53,1.53
			c0.44,0.61,0.95,1.12,1.53,1.53c0.38,0.53,0.8,0.98,1.28,1.36c-9.25,0-18.49,0.01-27.74,0.06c-14.99,0.08-24.54,11.98-20.7,25.26
			c1.06,3.65,2.95,6.67,5.57,9.02c0.48,0.54,0.99,1.05,1.53,1.53c0.48,0.54,0.99,1.05,1.53,1.53c0.48,0.54,0.99,1.05,1.53,1.53
			c0.48,0.54,0.99,1.05,1.53,1.53c0.48,0.54,0.99,1.05,1.53,1.53c0.48,0.54,0.99,1.05,1.53,1.53c0.48,0.54,0.99,1.05,1.53,1.53
			c0.48,0.54,0.99,1.05,1.53,1.53c0.48,0.54,0.99,1.05,1.53,1.53c0.48,0.54,0.99,1.05,1.53,1.53c0.48,0.54,0.99,1.05,1.53,1.53
			c0.48,0.54,0.99,1.05,1.53,1.53c0.48,0.54,0.99,1.05,1.53,1.53c0.48,0.54,0.99,1.05,1.53,1.53c0.48,0.54,0.99,1.05,1.53,1.53
			c0.48,0.54,0.99,1.05,1.53,1.53c0.48,0.54,0.99,1.05,1.53,1.53c0.48,0.54,0.99,1.05,1.53,1.53c0.48,0.54,0.99,1.05,1.53,1.53
			c0.48,0.54,0.99,1.05,1.53,1.53c0.48,0.54,0.99,1.05,1.53,1.53c0.43,0.49,0.9,0.96,1.38,1.41
			c-5.21,63.95-14.98,126.12-51.49,181.28c0.84,0,1.68,0,2.52,0c-0.33,0.51-0.65,1.02-0.99,1.53c0.84,0,1.68,0,2.52,0
			c-0.33,0.51-0.65,1.02-0.99,1.53c0.84,0,1.68,0,2.52,0c-0.33,0.51-0.65,1.02-0.99,1.53c0.84,0,1.68,0,2.52,0
			c-0.33,0.51-0.65,1.02-0.99,1.53c0.84,0,1.68,0,2.52,0c-0.33,0.51-0.65,1.02-0.99,1.53c0.84,0,1.68,0,2.52,0
			c-0.33,0.51-0.65,1.02-0.99,1.53c0.84,0,1.68,0,2.52,0c-0.33,0.51-0.65,1.02-0.99,1.53c0.84,0,1.68,0,2.52,0
			c-0.33,0.51-0.65,1.02-0.99,1.53c0.84,0,1.68,0,2.52,0c-0.33,0.51-0.65,1.02-0.99,1.53c0.84,0,1.68,0,2.52,0
			c-0.33,0.51-0.65,1.02-0.99,1.53c0.84,0,1.68,0,2.52,0c-0.33,0.51-0.65,1.02-0.99,1.53c0.84,0,1.68,0,2.52,0
			c-0.33,0.51-0.65,1.02-0.99,1.53c0.84,0,1.68,0,2.52,0c-0.33,0.51-0.65,1.02-0.99,1.53c0.84,0,1.68,0,2.52,0
			c-0.13,0.2-0.26,0.41-0.39,0.61c-11.72,0.03-23.44,0.05-35.15,0.09c-17.6,0.05-30.15,12.36-30.02,28.26
			c0.07,8.29,3.27,15.35,8.73,20.34c0.49,0.53,1,1.04,1.53,1.53c0.49,0.53,1,1.04,1.53,1.53c0.49,0.53,1,1.04,1.53,1.53
			c0.49,0.53,1,1.04,1.53,1.53c0.49,0.53,1,1.04,1.53,1.53c0.49,0.53,1,1.04,1.53,1.53c0.49,0.53,1,1.04,1.53,1.53
			c0.49,0.53,1,1.04,1.53,1.53c0.49,0.53,1,1.04,1.53,1.53c0.49,0.53,1,1.04,1.53,1.53c0.49,0.53,1,1.04,1.53,1.53
			c0.49,0.53,1,1.04,1.53,1.53c0.49,0.53,1,1.04,1.53,1.53c0.49,0.53,1,1.04,1.53,1.53c0.49,0.53,1,1.04,1.53,1.53
			c0.49,0.53,1,1.04,1.53,1.53c0.49,0.53,1,1.04,1.53,1.53c0.49,0.53,1,1.04,1.53,1.53c0.49,0.53,1,1.04,1.53,1.53
			c0.49,0.53,1,1.04,1.53,1.53c0.49,0.53,1,1.04,1.53,1.53c0.49,0.53,1,1.04,1.53,1.53c0.49,0.53,1,1.04,1.53,1.53
			c0.49,0.53,1,1.04,1.53,1.53c0.49,0.53,1,1.04,1.53,1.53c0.49,0.53,1,1.04,1.53,1.53c0.49,0.53,1,1.04,1.53,1.53
			c0.49,0.53,1,1.04,1.53,1.53c0.49,0.53,1,1.04,1.53,1.53c0.49,0.53,1,1.04,1.53,1.53c0.49,0.53,1,1.04,1.53,1.53
			c0.49,0.53,1,1.04,1.53,1.53c0.49,0.53,1,1.04,1.53,1.53c0.49,0.53,1,1.04,1.53,1.53c0.49,0.53,1,1.04,1.53,1.53
			c0.49,0.53,1,1.04,1.53,1.53c0.49,0.53,1,1.04,1.53,1.53c0.49,0.53,1,1.04,1.53,1.53c0.49,0.53,1,1.04,1.53,1.53
			c0.49,0.53,1,1.04,1.53,1.53c0.49,0.53,1,1.04,1.53,1.53c0.49,0.53,1,1.04,1.53,1.53c0.49,0.53,1,1.04,1.53,1.53
			c0.49,0.53,1,1.04,1.53,1.53c0.49,0.53,1,1.04,1.53,1.53c0.49,0.53,1,1.04,1.53,1.53c0.49,0.53,1,1.04,1.53,1.53
			c0.49,0.53,1,1.04,1.53,1.53c0.49,0.53,1,1.04,1.53,1.53c0.49,0.53,1,1.04,1.53,1.53c0.49,0.53,1,1.04,1.53,1.53
			c0.49,0.53,1,1.04,1.53,1.53c0.49,0.53,1,1.04,1.53,1.53c0.49,0.53,1,1.04,1.53,1.53c0.49,0.53,1,1.04,1.53,1.53
			c0.49,0.53,1,1.04,1.53,1.53c0.49,0.53,1,1.04,1.53,1.53c0.49,0.53,1,1.04,1.53,1.53c0.49,0.53,1,1.04,1.53,1.53
			c0.49,0.53,1,1.04,1.53,1.53c0.49,0.53,1,1.04,1.53,1.53c0.49,0.53,1,1.04,1.53,1.53c0.49,0.53,1,1.04,1.53,1.53
			c0.49,0.53,1,1.04,1.53,1.53c0.49,0.53,1,1.04,1.53,1.53c0.49,0.53,1,1.04,1.53,1.53c0.49,0.53,1,1.04,1.53,1.53
			c0.49,0.53,1,1.04,1.53,1.53c0.49,0.53,1,1.04,1.53,1.53c0.49,0.53,1,1.04,1.53,1.53c0.49,0.53,1,1.04,1.53,1.53
			c0.49,0.53,1,1.04,1.53,1.53c0.49,0.53,1,1.04,1.53,1.53c0.49,0.53,1,1.04,1.53,1.53c0.49,0.53,1,1.04,1.53,1.53
			c0.49,0.53,1,1.04,1.53,1.53c0.49,0.53,1,1.04,1.53,1.53c0.49,0.53,1,1.04,1.53,1.53c0.49,0.53,1,1.04,1.53,1.53
			c0.49,0.53,1,1.04,1.53,1.53c0.49,0.53,1,1.04,1.53,1.53c0.49,0.53,1,1.04,1.53,1.53c0.49,0.53,1,1.04,1.53,1.53
			c0.49,0.53,1,1.04,1.53,1.53c0.49,0.53,1,1.04,1.53,1.53c0.49,0.53,1,1.04,1.53,1.53c0.49,0.53,1,1.04,1.53,1.53
			c0.49,0.53,1,1.04,1.53,1.53c0.49,0.53,1,1.04,1.53,1.53c0.49,0.53,1,1.04,1.53,1.53c0.49,0.53,1,1.04,1.53,1.53
			c0.49,0.53,1,1.04,1.53,1.53c0.49,0.53,1,1.04,1.53,1.53c0.49,0.53,1,1.04,1.53,1.53c0.49,0.53,1,1.04,1.53,1.53
			c0.49,0.53,1,1.04,1.53,1.53c0.49,0.53,1,1.04,1.53,1.53c0.49,0.53,1,1.04,1.53,1.53c0.49,0.53,1,1.04,1.53,1.53
			c0.49,0.53,1,1.04,1.53,1.53c0.49,0.53,1,1.04,1.53,1.53c0.49,0.53,1,1.04,1.53,1.53c0.49,0.53,1,1.04,1.53,1.53
			c0.49,0.53,1,1.04,1.53,1.53c0.49,0.53,1,1.04,1.53,1.53c0.49,0.53,1,1.04,1.53,1.53c0.49,0.53,1,1.04,1.53,1.53
			c0.49,0.53,1,1.04,1.53,1.53c0.49,0.53,1,1.04,1.53,1.53c0.49,0.53,1,1.04,1.53,1.53c0.49,0.53,1,1.04,1.53,1.53
			c0.49,0.53,1,1.04,1.53,1.53c0.49,0.53,1,1.04,1.53,1.53c0.49,0.53,1,1.04,1.53,1.53c0.49,0.53,1,1.04,1.53,1.53
			c0.49,0.53,1,1.04,1.53,1.53c0.49,0.53,1,1.04,1.53,1.53c0.49,0.53,1,1.04,1.53,1.53c0.49,0.53,1,1.04,1.53,1.53
			c0.49,0.53,1,1.04,1.53,1.53c0.49,0.53,1,1.04,1.53,1.53c0.49,0.53,1,1.04,1.53,1.53c0.49,0.53,1,1.04,1.53,1.53
			c0.49,0.53,1,1.04,1.53,1.53c0.49,0.53,1,1.04,1.53,1.53c0.49,0.53,1,1.04,1.53,1.53c0.49,0.53,1,1.04,1.53,1.53
			c0.49,0.53,1,1.04,1.53,1.53c0.49,0.53,1,1.04,1.53,1.53c0.49,0.53,1,1.04,1.53,1.53c0.49,0.53,1,1.04,1.53,1.53
			c0.49,0.53,1,1.04,1.53,1.53c0.49,0.53,1,1.04,1.53,1.53c0.49,0.53,1,1.04,1.53,1.53c0.49,0.53,1,1.04,1.53,1.53
			c0.49,0.53,1,1.04,1.53,1.53c0.49,0.53,1,1.04,1.53,1.53c0.49,0.53,1,1.04,1.53,1.53c0.49,0.53,1,1.04,1.53,1.53
			c0.49,0.53,1,1.04,1.53,1.53c0.49,0.53,1,1.04,1.53,1.53c0.49,0.53,1,1.04,1.53,1.53c0.49,0.53,1,1.04,1.53,1.53
			c0.49,0.53,1,1.04,1.53,1.53c0.49,0.53,1,1.04,1.53,1.53c0.49,0.53,1,1.04,1.53,1.53c0.49,0.53,1,1.04,1.53,1.53
			c0.49,0.53,1,1.04,1.53,1.53c0.49,0.53,1,1.04,1.53,1.53c0.49,0.53,1,1.04,1.53,1.53c0.49,0.53,1,1.04,1.53,1.53
			c0.49,0.53,1,1.04,1.53,1.53c0.49,0.53,1,1.04,1.53,1.53c0.49,0.53,1,1.04,1.53,1.53c0.49,0.53,1,1.04,1.53,1.53
			c0.49,0.53,1,1.04,1.53,1.53c0.49,0.53,1,1.04,1.53,1.53c0.49,0.53,1,1.04,1.53,1.53c0.49,0.53,1,1.04,1.53,1.53
			c0.49,0.53,1,1.04,1.53,1.53c0.49,0.53,1,1.04,1.53,1.53c0.49,0.53,1,1.04,1.53,1.53c0.49,0.53,1,1.04,1.53,1.53
			c0.49,0.53,1,1.04,1.53,1.53c0.49,0.53,1,1.04,1.53,1.53c0.49,0.53,1,1.04,1.53,1.53c0.49,0.53,1,1.04,1.53,1.53
			c0.49,0.53,1,1.04,1.53,1.53c0.49,0.53,1,1.04,1.53,1.53c0.49,0.53,1,1.04,1.53,1.53c0.49,0.53,1,1.04,1.53,1.53
			c0.49,0.53,1,1.04,1.53,1.53c0.49,0.53,1,1.04,1.53,1.53c0.49,0.53,1,1.04,1.53,1.53c0.49,0.53,1,1.04,1.53,1.53
			c0.49,0.53,1,1.04,1.53,1.53c0.49,0.53,1,1.04,1.53,1.53c0.49,0.53,1,1.04,1.53,1.53c0.49,0.53,1,1.04,1.53,1.53
			c0.49,0.53,1,1.04,1.53,1.53c0.49,0.53,1,1.04,1.53,1.53c0.49,0.53,1,1.04,1.53,1.53c0.49,0.53,1,1.04,1.53,1.53
			c0.49,0.53,1,1.04,1.53,1.53c0.49,0.53,1,1.04,1.53,1.53c0.49,0.53,1,1.04,1.53,1.53c0.49,0.53,1,1.04,1.53,1.53
			c0.49,0.53,1,1.04,1.53,1.53c0.49,0.53,1,1.04,1.53,1.53c0.49,0.53,1,1.04,1.53,1.53c0.49,0.53,1,1.04,1.53,1.53
			c0.49,0.53,1,1.04,1.53,1.53c0.49,0.53,1,1.04,1.53,1.53c0.49,0.53,1,1.04,1.53,1.53c0.49,0.53,1,1.04,1.53,1.53
			c0.49,0.53,1,1.04,1.53,1.53c0.49,0.53,1,1.04,1.53,1.53c0.49,0.53,1,1.04,1.53,1.53c0.49,0.53,1,1.04,1.53,1.53
			c0.49,0.53,1,1.04,1.53,1.53c0.49,0.53,1,1.04,1.53,1.53c0.49,0.53,1,1.04,1.53,1.53c0.49,0.53,1,1.04,1.53,1.53
			c0.49,0.53,1,1.04,1.53,1.53c0.49,0.53,1,1.04,1.53,1.53c0.49,0.53,1,1.04,1.53,1.53c0.49,0.53,1,1.04,1.53,1.53
			c0.49,0.53,1,1.04,1.53,1.53c0.49,0.53,1,1.04,1.53,1.53c0.49,0.53,1,1.04,1.53,1.53c0.49,0.53,1,1.04,1.53,1.53
			c0.49,0.53,1,1.04,1.53,1.53c0.49,0.53,1,1.04,1.53,1.53c0.49,0.53,1,1.04,1.53,1.53c0.49,0.53,1,1.04,1.53,1.53
			c0.49,0.53,1,1.04,1.53,1.53c0.49,0.53,1,1.04,1.53,1.53c0.49,0.53,1,1.04,1.53,1.53c0.49,0.53,1,1.04,1.53,1.53
			c0.49,0.53,1,1.04,1.53,1.53c0.49,0.53,1,1.04,1.53,1.53c0.49,0.53,1,1.04,1.53,1.53c0.49,0.53,1,1.04,1.53,1.53
			c0.49,0.53,1,1.04,1.53,1.53c0.49,0.53,1,1.04,1.53,1.53c0.49,0.53,1,1.04,1.53,1.53c0.49,0.53,1,1.04,1.53,1.53
			c0.49,0.53,1,1.04,1.53,1.53c0.49,0.53,1,1.04,1.53,1.53c0.49,0.53,1,1.04,1.53,1.53c0.49,0.53,1,1.04,1.53,1.53
			c0.49,0.53,1,1.04,1.53,1.53c0.49,0.53,1,1.04,1.53,1.53c0.49,0.53,1,1.04,1.53,1.53c0.27,0.29,0.56,0.56,0.84,0.84h58.89V-2803.4
			z"/>
		<g>
			<path class="st4" d="M1573.95-2527.6c-65.61,0-129.73,0-195.07,0c37.91-57.27,46.99-122.09,52.07-188.61c30.28,0,60.14,0,90.73,0
				C1526.91-2650.54,1535.37-2585.75,1573.95-2527.6z"/>
			<path class="st4" d="M1476.2-2929.07c21.11,0,42.23-0.13,63.34,0.04c18.2,0.14,25.73,9.68,21.54,27.21
				c-7.87,32.93-15.99,65.81-23.74,98.77c-1.19,5.07-3.62,6.46-8.54,6.43c-34.54-0.16-69.08-0.23-103.61,0.07
				c-6.28,0.05-8.8-1.85-10.24-8.06c-7.65-33-15.89-65.86-23.75-98.81c-3.62-15.18,4.26-25.35,19.75-25.48
				c21.75-0.18,43.5-0.05,65.26-0.05C1476.2-2928.99,1476.2-2929.03,1476.2-2929.07z"/>
			<path class="st4" d="M1476.03-2450.45c-36.46-0.01-72.93,0.04-109.39-0.03c-18.12-0.03-30.76-11.7-30.9-28.26
				c-0.13-15.89,12.42-28.2,30.02-28.26c73.57-0.22,147.15-0.28,220.72-0.08c18.07,0.05,30.99,12.81,30.61,28.86
				c-0.38,16.18-13.39,27.71-31.64,27.75C1548.98-2450.39,1512.51-2450.44,1476.03-2450.45z"/>
			<path class="st4" d="M1532.53-2949.74c-38.14,0-75.13,0-113.1,0c6.11-15.69,17.09-25.4,31.72-30.53
				c7.17-2.51,9.33-6.1,8.65-13.16c-0.57-5.98-0.12-12.05-0.12-19.5c-6.62,0-12.54,0.13-18.45-0.03
				c-11.27-0.31-18.03-6.68-18.04-16.78c-0.01-9.66,6.22-15.48,17.52-15.99c5.97-0.27,11.96-0.05,19.02-0.05
				c0-7.73-0.21-14.05,0.05-20.35c0.41-9.92,6.96-16.4,16.27-16.51c9.43-0.1,16.06,6.14,16.55,16.05
				c0.31,6.33,0.06,12.68,0.06,20.63c6.33,0,11.94-0.06,17.55,0.01c12.3,0.17,19.04,6.06,19.08,16.57
				c0.04,10.09-7.06,16.18-19.33,16.45c-5.34,0.12-10.69,0.02-17.21,0.02c0,8.91-0.51,16.85,0.3,24.66
				c0.26,2.47,3.66,5.45,6.32,6.68C1513.84-2974.88,1527.16-2967.24,1532.53-2949.74z"/>
			<path class="st4" d="M1475.87-2736.71c-20.46,0-40.92,0.05-61.38-0.02c-12.33-0.04-20.51-5.33-23.23-14.74
				c-3.85-13.27,5.71-25.18,20.7-25.26c29.12-0.15,58.24,0,87.36,0.01c13.44,0.01,26.88-0.13,40.31,0.01
				c13.69,0.15,22.72,8.02,22.73,19.5c0.01,12.08-9.09,20.3-23.12,20.4c-21.12,0.16-42.25,0.04-63.37,0.04
				C1475.87-2736.75,1475.87-2736.73,1475.87-2736.71z"/>
		</g>
	</g>
</g>
<path class="st11" d="M1686.81-2124.5h-423.13c-29.1,0-52.69-23.59-52.69-52.69v-865.62c0-29.1,23.59-52.69,52.69-52.69h423.13
	c29.1,0,52.69,23.59,52.69,52.69v865.62C1739.5-2148.09,1715.91-2124.5,1686.81-2124.5z"/>
<rect y="0" class="st4" width="749" height="1335"/>
<g>
	<defs>
		<path id="SVGID_9_" d="M610.81,1192.5H141.68c-29.1,0-52.69-23.59-52.69-52.69V221.19c0-29.1,23.59-52.69,52.69-52.69h469.13
			c29.1,0,52.69,23.59,52.69,52.69v918.62C663.5,1168.91,639.91,1192.5,610.81,1192.5z"/>
	</defs>
	<clipPath id="SVGID_10_">
		<use xlink:href="#SVGID_9_"  style="overflow:visible;"/>
	</clipPath>
	<g class="st17">
		<g>
			<g>
				<polygon class="st0" points="663.43,484.68 663.43,168.9 230.69,168.9 579.18,459.95 				"/>
			</g>
			<g>
				<polygon class="st1" points="230.69,168.9 89,168.9 89,743.68 579.18,459.95 				"/>
			</g>
			<g>
				<polygon class="st2" points="89.38,1190.65 89.38,1191 93.34,1191 				"/>
				<polygon class="st2" points="663.04,1191 663.04,484.74 579.18,459.95 89.38,743.48 89.38,1190.65 93.34,1191 				"/>
			</g>
		</g>
		<linearGradient id="SVGID_11_" gradientUnits="userSpaceOnUse" x1="246.1224" y1="722.8561" x2="663.4268" y2="722.8561">
			<stop  offset="0" style="stop-color:#447582"/>
			<stop  offset="1" style="stop-color:#5E8E9A;stop-opacity:0"/>
		</linearGradient>
		<path class="st18" d="M663.43,520.79c-0.34-0.35-0.68-0.69-1.05-1.03c-0.48-0.53-0.99-1.04-1.53-1.53
			c-0.48-0.53-0.99-1.04-1.53-1.53c-0.48-0.53-0.99-1.04-1.53-1.53c-0.48-0.53-0.99-1.04-1.53-1.53c-0.48-0.53-0.99-1.04-1.53-1.53
			c-0.48-0.53-0.99-1.04-1.53-1.53c-0.48-0.53-0.99-1.04-1.53-1.53c-0.48-0.53-0.99-1.04-1.53-1.53c-0.48-0.53-0.99-1.04-1.53-1.53
			c-0.48-0.53-0.99-1.04-1.53-1.53c-0.48-0.53-0.99-1.04-1.53-1.53c-0.48-0.53-0.99-1.04-1.53-1.53c-0.48-0.53-0.99-1.04-1.53-1.53
			c-0.48-0.53-0.99-1.04-1.53-1.53c-0.48-0.53-0.99-1.04-1.53-1.53c-0.48-0.53-0.99-1.04-1.53-1.53c-0.48-0.53-0.99-1.04-1.53-1.53
			c-0.48-0.53-0.99-1.04-1.53-1.53c-0.48-0.53-0.99-1.04-1.53-1.53c-0.48-0.53-0.99-1.04-1.53-1.53c-0.48-0.53-0.99-1.04-1.53-1.53
			c-0.48-0.53-0.99-1.04-1.53-1.53c-0.48-0.53-0.99-1.04-1.53-1.53c-0.48-0.53-0.99-1.04-1.53-1.53c-0.48-0.53-0.99-1.04-1.53-1.53
			c-0.48-0.53-0.99-1.04-1.53-1.53c-0.48-0.53-0.99-1.04-1.53-1.53c-0.48-0.53-0.99-1.04-1.53-1.53c-0.48-0.53-0.99-1.04-1.53-1.53
			c-0.48-0.53-0.99-1.04-1.53-1.53c-0.48-0.53-0.99-1.04-1.53-1.53c-0.48-0.53-0.99-1.04-1.53-1.53c-0.48-0.53-0.99-1.04-1.53-1.53
			c-0.48-0.53-0.99-1.04-1.53-1.53c-0.48-0.53-0.99-1.04-1.53-1.53c-0.48-0.53-0.99-1.04-1.53-1.53c-0.48-0.53-0.99-1.04-1.53-1.53
			c-0.48-0.53-0.99-1.04-1.53-1.53c-0.48-0.53-0.99-1.04-1.53-1.53c-0.48-0.53-0.99-1.04-1.53-1.53c-0.48-0.53-0.99-1.04-1.53-1.53
			c-0.48-0.53-0.99-1.04-1.53-1.53c-0.48-0.53-0.99-1.04-1.53-1.53c-0.48-0.53-0.99-1.04-1.53-1.53c-0.48-0.53-0.99-1.04-1.53-1.53
			c-0.48-0.53-0.99-1.04-1.53-1.53c-0.48-0.53-0.99-1.04-1.53-1.53c-0.48-0.53-0.99-1.04-1.53-1.53c-0.48-0.53-0.99-1.04-1.53-1.53
			c-0.48-0.53-0.99-1.04-1.53-1.53c-0.48-0.53-0.99-1.04-1.53-1.53c-0.48-0.53-0.99-1.04-1.53-1.53c-0.48-0.53-0.99-1.04-1.53-1.53
			c-0.48-0.53-0.99-1.04-1.53-1.53c-0.48-0.53-0.99-1.04-1.53-1.53c-0.48-0.53-0.99-1.04-1.53-1.53c-0.48-0.53-0.99-1.04-1.53-1.53
			c-0.48-0.53-0.99-1.04-1.53-1.53c-0.48-0.53-0.99-1.04-1.53-1.53c-0.48-0.53-0.99-1.04-1.53-1.53c-0.48-0.53-0.99-1.04-1.53-1.53
			c-0.48-0.53-0.99-1.04-1.53-1.53c-0.48-0.53-0.99-1.04-1.53-1.53c-0.48-0.53-0.99-1.04-1.53-1.53c-0.48-0.53-0.99-1.04-1.53-1.53
			c-0.48-0.53-0.99-1.04-1.53-1.53c-0.48-0.53-0.99-1.04-1.53-1.53c-0.48-0.53-0.99-1.04-1.53-1.53c-0.48-0.53-0.99-1.04-1.53-1.53
			c-0.48-0.53-0.99-1.04-1.53-1.53c-0.48-0.53-0.99-1.04-1.53-1.53c-0.48-0.53-0.99-1.04-1.53-1.53c-0.48-0.53-0.99-1.04-1.53-1.53
			c-0.48-0.53-0.99-1.04-1.53-1.53c-0.48-0.53-0.99-1.04-1.53-1.53c-0.48-0.53-0.99-1.04-1.53-1.53c-0.48-0.53-0.99-1.04-1.53-1.53
			c-0.48-0.53-0.99-1.04-1.53-1.53c-0.48-0.53-0.99-1.04-1.53-1.53c-0.48-0.53-0.99-1.04-1.53-1.53c-0.48-0.53-0.99-1.04-1.53-1.53
			c-0.48-0.53-0.99-1.04-1.53-1.53c-0.48-0.53-0.99-1.04-1.53-1.53c-0.48-0.53-0.99-1.04-1.53-1.53c-0.48-0.53-0.99-1.04-1.53-1.53
			c-0.48-0.53-0.99-1.04-1.53-1.53c-0.48-0.53-0.99-1.04-1.53-1.53c-0.48-0.53-0.99-1.04-1.53-1.53c-0.48-0.53-0.99-1.04-1.53-1.53
			c-0.48-0.53-0.99-1.04-1.53-1.53c-0.48-0.53-0.99-1.04-1.53-1.53c-0.48-0.53-0.99-1.04-1.53-1.53c-0.48-0.53-0.99-1.04-1.53-1.53
			c-0.48-0.53-0.99-1.04-1.53-1.53c-0.48-0.53-0.99-1.04-1.53-1.53c-0.48-0.53-0.99-1.04-1.53-1.53c-0.48-0.53-0.99-1.04-1.53-1.53
			c-0.48-0.53-0.99-1.04-1.53-1.53c-0.48-0.53-0.99-1.04-1.53-1.53c-0.48-0.53-0.99-1.04-1.53-1.53c-0.48-0.53-0.99-1.04-1.53-1.53
			c-0.48-0.53-0.99-1.04-1.53-1.53c-0.48-0.53-0.99-1.04-1.53-1.53c-0.48-0.53-0.99-1.04-1.53-1.53c-0.48-0.53-0.99-1.04-1.53-1.53
			c-0.48-0.53-0.99-1.04-1.53-1.53c-0.48-0.53-0.99-1.04-1.53-1.53c-0.48-0.53-0.99-1.04-1.53-1.53c-0.48-0.53-0.99-1.04-1.53-1.53
			c-0.48-0.53-0.99-1.04-1.53-1.53c-0.48-0.53-0.99-1.04-1.53-1.53c-0.48-0.53-0.99-1.04-1.53-1.53c-0.48-0.53-0.99-1.04-1.53-1.53
			c-0.48-0.53-0.99-1.04-1.53-1.53c-0.48-0.53-0.99-1.04-1.53-1.53c-0.48-0.53-0.99-1.04-1.53-1.53c-0.48-0.53-0.99-1.04-1.53-1.53
			c-0.48-0.53-0.99-1.04-1.53-1.53c-0.48-0.53-0.99-1.04-1.53-1.53c-0.48-0.53-0.99-1.04-1.53-1.53c-0.48-0.53-0.99-1.04-1.53-1.53
			c-0.48-0.53-0.99-1.04-1.53-1.53c-0.48-0.53-0.99-1.04-1.53-1.53c-0.48-0.53-0.99-1.04-1.53-1.53c-0.48-0.53-0.99-1.04-1.53-1.53
			c-0.48-0.53-0.99-1.04-1.53-1.53c-0.48-0.53-0.99-1.04-1.53-1.53c-0.48-0.53-0.99-1.04-1.53-1.53c-0.48-0.53-0.99-1.04-1.53-1.53
			c-0.48-0.53-0.99-1.04-1.53-1.53c-0.48-0.53-0.99-1.04-1.53-1.53c-0.48-0.53-0.99-1.04-1.53-1.53c-0.48-0.53-0.99-1.04-1.53-1.53
			c-0.48-0.53-0.99-1.04-1.53-1.53c-0.48-0.53-0.99-1.04-1.53-1.53c-0.48-0.53-0.99-1.04-1.53-1.53c-0.48-0.53-0.99-1.04-1.53-1.53
			c-0.48-0.53-0.99-1.04-1.53-1.53c-0.48-0.53-0.99-1.04-1.53-1.53c-0.48-0.53-0.99-1.04-1.53-1.53c-0.48-0.53-0.99-1.04-1.53-1.53
			c-0.48-0.53-0.99-1.04-1.53-1.53c-0.48-0.53-0.99-1.04-1.53-1.53c-0.48-0.53-0.99-1.04-1.53-1.53c-0.48-0.53-0.99-1.04-1.53-1.53
			c-0.48-0.53-0.99-1.04-1.53-1.53c-0.48-0.53-0.99-1.04-1.53-1.53c-0.48-0.53-0.99-1.04-1.53-1.53c-0.48-0.53-0.99-1.04-1.53-1.53
			c-0.48-0.53-0.99-1.04-1.53-1.53c-0.48-0.53-0.99-1.04-1.53-1.53c-0.48-0.53-0.99-1.04-1.53-1.53c-0.48-0.53-0.99-1.04-1.53-1.53
			c-0.48-0.53-0.99-1.04-1.53-1.53c-0.48-0.53-0.99-1.04-1.53-1.53c-0.48-0.53-0.99-1.04-1.53-1.53c-0.48-0.53-0.99-1.04-1.53-1.53
			c-0.48-0.53-0.99-1.04-1.53-1.53c-0.48-0.53-0.99-1.04-1.53-1.53c-0.48-0.53-0.99-1.04-1.53-1.53c-0.48-0.53-0.99-1.04-1.53-1.53
			c-0.48-0.53-0.99-1.04-1.53-1.53c-0.48-0.53-0.99-1.04-1.53-1.53c-0.48-0.53-0.99-1.04-1.53-1.53c-0.48-0.53-0.99-1.04-1.53-1.53
			c-0.48-0.53-0.99-1.04-1.53-1.53c-0.48-0.53-0.99-1.04-1.53-1.53c-0.88-0.96-1.85-1.87-2.92-2.74
			c-9.24-7.43-23.24-8.44-32.04-1.07c-4.41,3.7-9.3,9.18-10,14.39c-1.11,8.27,1.1,16.99,1.97,26.18
			c-22.35,7.01-44.85,16.47-49.72,44.05c0.58,0.23,1.13,0.45,1.7,0.68c-0.06,0.29-0.12,0.56-0.17,0.86c0.58,0.23,1.13,0.45,1.7,0.68
			c-0.06,0.29-0.12,0.56-0.17,0.86c0.58,0.23,1.13,0.45,1.7,0.68c-0.06,0.29-0.12,0.56-0.17,0.86c0.58,0.23,1.13,0.45,1.7,0.68
			c-0.06,0.29-0.12,0.56-0.17,0.86c0.58,0.23,1.13,0.45,1.7,0.68c-0.06,0.29-0.12,0.56-0.17,0.86c0.58,0.23,1.13,0.45,1.7,0.68
			c-0.06,0.29-0.12,0.56-0.17,0.86c0.58,0.23,1.13,0.45,1.7,0.68c-0.06,0.29-0.12,0.56-0.17,0.86c0.58,0.23,1.13,0.45,1.7,0.68
			c-0.06,0.29-0.12,0.56-0.17,0.86c0.58,0.23,1.13,0.45,1.7,0.68c-0.06,0.29-0.12,0.56-0.17,0.86c0.58,0.23,1.13,0.45,1.7,0.68
			c-0.06,0.29-0.12,0.56-0.17,0.86c0.58,0.23,1.13,0.45,1.7,0.68c-0.06,0.29-0.12,0.56-0.17,0.86c0.58,0.23,1.13,0.45,1.7,0.68
			c-0.06,0.29-0.12,0.56-0.17,0.86c0.58,0.23,1.13,0.45,1.7,0.68c-0.06,0.29-0.12,0.56-0.17,0.86c0.58,0.23,1.13,0.45,1.7,0.68
			c-0.06,0.29-0.12,0.56-0.17,0.86c0.58,0.23,1.13,0.45,1.7,0.68c-0.06,0.29-0.12,0.56-0.17,0.86c0.58,0.23,1.13,0.45,1.7,0.68
			c-0.06,0.29-0.12,0.56-0.17,0.86c0.58,0.23,1.13,0.45,1.7,0.68c-0.06,0.29-0.12,0.56-0.17,0.86c0.58,0.23,1.13,0.45,1.7,0.68
			c-0.06,0.29-0.12,0.56-0.17,0.86c0.58,0.23,1.13,0.45,1.7,0.68c-0.06,0.29-0.12,0.56-0.17,0.86c0.58,0.23,1.13,0.45,1.7,0.68
			c-0.06,0.29-0.12,0.56-0.17,0.86c0.58,0.23,1.13,0.45,1.7,0.68c-0.06,0.29-0.12,0.56-0.17,0.86c0.58,0.23,1.13,0.45,1.7,0.68
			c-0.06,0.29-0.12,0.56-0.17,0.86c0.58,0.23,1.13,0.45,1.7,0.68c-0.06,0.29-0.12,0.56-0.17,0.86c0.58,0.23,1.13,0.45,1.7,0.68
			c-0.06,0.29-0.12,0.56-0.17,0.86c0.58,0.23,1.13,0.45,1.7,0.68c-0.06,0.29-0.12,0.56-0.17,0.86c0.58,0.23,1.13,0.45,1.7,0.68
			c-0.06,0.29-0.12,0.56-0.17,0.86c0.58,0.23,1.13,0.45,1.7,0.68c-0.06,0.29-0.12,0.56-0.17,0.86c0.48,0.19,0.94,0.37,1.41,0.56
			c-3.79,3.01-6.95,1.41-13.02-4.58c-8.17-8.07-17.28-14.1-29.24-14.67c-10.35-0.5-13.78,3.12-9.77,12.3
			c9.25,21.13,9.39,43.42,10.33,65.78c0.43,10.12,2.66,20.17,4.14,30.24c0.46,3.11,1.51,5.22,3.33,6.52
			c0.43,0.6,0.94,1.11,1.53,1.53c0.43,0.6,0.94,1.11,1.53,1.53c0.43,0.6,0.94,1.11,1.53,1.53c0.43,0.6,0.94,1.11,1.53,1.53
			c0.43,0.6,0.94,1.11,1.53,1.53c0.43,0.6,0.94,1.11,1.53,1.53c0.43,0.6,0.94,1.11,1.53,1.53c0.43,0.6,0.94,1.11,1.53,1.53
			c0.43,0.6,0.94,1.11,1.53,1.53c0.43,0.6,0.94,1.11,1.53,1.53c0.43,0.6,0.94,1.11,1.53,1.53c0.43,0.6,0.94,1.11,1.53,1.53
			c0.43,0.6,0.94,1.11,1.53,1.53c0.43,0.6,0.94,1.11,1.53,1.53c0.01,0.01,0.02,0.03,0.03,0.04c-6.53,0-13.07,0.01-19.6,0.03
			c-14.53,0.05-23.36,7.38-23.57,19.37c-0.11,6.02,2.15,11.19,6.23,14.84c0.48,0.54,0.99,1.05,1.53,1.53
			c0.48,0.54,0.99,1.05,1.53,1.53c0.48,0.54,0.99,1.05,1.53,1.53c0.48,0.54,0.99,1.05,1.53,1.53c0.48,0.54,0.99,1.05,1.53,1.53
			c0.48,0.54,0.99,1.05,1.53,1.53c0.48,0.54,0.99,1.05,1.53,1.53c0.48,0.54,0.99,1.05,1.53,1.53c0.48,0.54,0.99,1.05,1.53,1.53
			c0.48,0.54,0.99,1.05,1.53,1.53c0.48,0.54,0.99,1.05,1.53,1.53c0.48,0.54,0.99,1.05,1.53,1.53c0.48,0.54,0.99,1.05,1.53,1.53
			c0.48,0.54,0.99,1.05,1.53,1.53c0.48,0.54,0.99,1.05,1.53,1.53c0.48,0.54,0.99,1.05,1.53,1.53c0.48,0.54,0.99,1.05,1.53,1.53
			c0.48,0.54,0.99,1.05,1.53,1.53c0.48,0.54,0.99,1.05,1.53,1.53c0.48,0.54,0.99,1.05,1.53,1.53c0.48,0.54,0.99,1.05,1.53,1.53
			c0.47,0.53,0.97,1.03,1.5,1.51c-5.41,63.99-14.76,126.11-51.48,181.12c0.85,0,1.69,0,2.54,0c-0.34,0.51-0.67,1.02-1.01,1.53
			c0.85,0,1.69,0,2.54,0c-0.34,0.51-0.67,1.02-1.01,1.53c0.85,0,1.69,0,2.54,0c-0.34,0.51-0.67,1.02-1.01,1.53c0.85,0,1.69,0,2.54,0
			c-0.34,0.51-0.67,1.02-1.01,1.53c0.85,0,1.69,0,2.54,0c-0.34,0.51-0.67,1.02-1.01,1.53c0.85,0,1.69,0,2.54,0
			c-0.34,0.51-0.67,1.02-1.01,1.53c0.85,0,1.69,0,2.54,0c-0.34,0.51-0.67,1.02-1.01,1.53c0.85,0,1.69,0,2.54,0
			c-0.34,0.51-0.67,1.02-1.01,1.53c0.85,0,1.69,0,2.54,0c-0.34,0.51-0.67,1.02-1.01,1.53c0.85,0,1.69,0,2.54,0
			c-0.34,0.51-0.67,1.02-1.01,1.53c0.85,0,1.69,0,2.54,0c-0.34,0.51-0.67,1.02-1.01,1.53c0.85,0,1.69,0,2.54,0
			c-0.34,0.51-0.67,1.02-1.01,1.53c0.85,0,1.69,0,2.54,0c-0.34,0.51-0.67,1.02-1.01,1.53c0.85,0,1.69,0,2.54,0
			c-0.15,0.22-0.29,0.45-0.44,0.67c-11.22,0.02-22.43,0.03-33.65,0.05c-19.04,0.04-31.68,11.94-31.36,28.82
			c0.15,8.14,3.23,14.97,8.49,19.84c0.49,0.53,1,1.04,1.53,1.53c0.49,0.53,1,1.04,1.53,1.53c0.49,0.53,1,1.04,1.53,1.53
			c0.49,0.53,1,1.04,1.53,1.53c0.49,0.53,1,1.04,1.53,1.53c0.49,0.53,1,1.04,1.53,1.53c0.49,0.53,1,1.04,1.53,1.53
			c0.49,0.53,1,1.04,1.53,1.53c0.49,0.53,1,1.04,1.53,1.53c0.49,0.53,1,1.04,1.53,1.53c0.49,0.53,1,1.04,1.53,1.53
			c0.49,0.53,1,1.04,1.53,1.53c0.49,0.53,1,1.04,1.53,1.53c0.49,0.53,1,1.04,1.53,1.53c0.49,0.53,1,1.04,1.53,1.53
			c0.49,0.53,1,1.04,1.53,1.53c0.49,0.53,1,1.04,1.53,1.53c0.49,0.53,1,1.04,1.53,1.53c0.49,0.53,1,1.04,1.53,1.53
			c0.49,0.53,1,1.04,1.53,1.53c0.49,0.53,1,1.04,1.53,1.53c0.49,0.53,1,1.04,1.53,1.53c0.49,0.53,1,1.04,1.53,1.53
			c0.49,0.53,1,1.04,1.53,1.53c0.49,0.53,1,1.04,1.53,1.53c0.49,0.53,1,1.04,1.53,1.53c0.49,0.53,1,1.04,1.53,1.53
			c0.49,0.53,1,1.04,1.53,1.53c0.49,0.53,1,1.04,1.53,1.53c0.49,0.53,1,1.04,1.53,1.53c0.49,0.53,1,1.04,1.53,1.53
			c0.49,0.53,1,1.04,1.53,1.53c0.49,0.53,1,1.04,1.53,1.53c0.49,0.53,1,1.04,1.53,1.53c0.49,0.53,1,1.04,1.53,1.53
			c0.49,0.53,1,1.04,1.53,1.53c0.49,0.53,1,1.04,1.53,1.53c0.49,0.53,1,1.04,1.53,1.53c0.49,0.53,1,1.04,1.53,1.53
			c0.49,0.53,1,1.04,1.53,1.53c0.49,0.53,1,1.04,1.53,1.53c0.49,0.53,1,1.04,1.53,1.53c0.49,0.53,1,1.04,1.53,1.53
			c0.49,0.53,1,1.04,1.53,1.53c0.49,0.53,1,1.04,1.53,1.53c0.49,0.53,1,1.04,1.53,1.53c0.49,0.53,1,1.04,1.53,1.53
			c0.49,0.53,1,1.04,1.53,1.53c0.49,0.53,1,1.04,1.53,1.53c0.49,0.53,1,1.04,1.53,1.53c0.49,0.53,1,1.04,1.53,1.53
			c0.49,0.53,1,1.04,1.53,1.53c0.49,0.53,1,1.04,1.53,1.53c0.49,0.53,1,1.04,1.53,1.53c0.49,0.53,1,1.04,1.53,1.53
			c0.49,0.53,1,1.04,1.53,1.53c0.49,0.53,1,1.04,1.53,1.53c0.49,0.53,1,1.04,1.53,1.53c0.49,0.53,1,1.04,1.53,1.53
			c0.49,0.53,1,1.04,1.53,1.53c0.49,0.53,1,1.04,1.53,1.53c0.49,0.53,1,1.04,1.53,1.53c0.49,0.53,1,1.04,1.53,1.53
			c0.49,0.53,1,1.04,1.53,1.53c0.49,0.53,1,1.04,1.53,1.53c0.49,0.53,1,1.04,1.53,1.53c0.49,0.53,1,1.04,1.53,1.53
			c0.49,0.53,1,1.04,1.53,1.53c0.49,0.53,1,1.04,1.53,1.53c0.49,0.53,1,1.04,1.53,1.53c0.49,0.53,1,1.04,1.53,1.53
			c0.49,0.53,1,1.04,1.53,1.53c0.49,0.53,1,1.04,1.53,1.53c0.49,0.53,1,1.04,1.53,1.53c0.49,0.53,1,1.04,1.53,1.53
			c0.49,0.53,1,1.04,1.53,1.53c0.49,0.53,1,1.04,1.53,1.53c0.49,0.53,1,1.04,1.53,1.53c0.49,0.53,1,1.04,1.53,1.53
			c0.49,0.53,1,1.04,1.53,1.53c0.49,0.53,1,1.04,1.53,1.53c0.49,0.53,1,1.04,1.53,1.53c0.49,0.53,1,1.04,1.53,1.53
			c0.49,0.53,1,1.04,1.53,1.53c0.49,0.53,1,1.04,1.53,1.53c0.49,0.53,1,1.04,1.53,1.53c0.49,0.53,1,1.04,1.53,1.53
			c0.49,0.53,1,1.04,1.53,1.53c0.49,0.53,1,1.04,1.53,1.53c0.49,0.53,1,1.04,1.53,1.53c0.49,0.53,1,1.04,1.53,1.53
			c0.49,0.53,1,1.04,1.53,1.53c0.49,0.53,1,1.04,1.53,1.53c0.49,0.53,1,1.04,1.53,1.53c0.49,0.53,1,1.04,1.53,1.53
			c0.49,0.53,1,1.04,1.53,1.53c0.49,0.53,1,1.04,1.53,1.53c0.49,0.53,1,1.04,1.53,1.53c0.49,0.53,1,1.04,1.53,1.53
			c0.49,0.53,1,1.04,1.53,1.53c0.49,0.53,1,1.04,1.53,1.53c0.49,0.53,1,1.04,1.53,1.53c0.49,0.53,1,1.04,1.53,1.53
			c0.49,0.53,1,1.04,1.53,1.53c0.49,0.53,1,1.04,1.53,1.53c0.49,0.53,1,1.04,1.53,1.53c0.49,0.53,1,1.04,1.53,1.53
			c0.49,0.53,1,1.04,1.53,1.53c0.49,0.53,1,1.04,1.53,1.53c0.49,0.53,1,1.04,1.53,1.53c0.49,0.53,1,1.04,1.53,1.53
			c0.49,0.53,1,1.04,1.53,1.53c0.49,0.53,1,1.04,1.53,1.53c0.49,0.53,1,1.04,1.53,1.53c0.49,0.53,1,1.04,1.53,1.53
			c0.49,0.53,1,1.04,1.53,1.53c0.49,0.53,1,1.04,1.53,1.53c0.49,0.53,1,1.04,1.53,1.53c0.49,0.53,1,1.04,1.53,1.53
			c0.49,0.53,1,1.04,1.53,1.53c0.49,0.53,1,1.04,1.53,1.53c0.49,0.53,1,1.04,1.53,1.53c0.49,0.53,1,1.04,1.53,1.53
			c0.49,0.53,1,1.04,1.53,1.53c0.49,0.53,1,1.04,1.53,1.53c0.49,0.53,1,1.04,1.53,1.53c0.49,0.53,1,1.04,1.53,1.53
			c0.49,0.53,1,1.04,1.53,1.53c0.49,0.53,1,1.04,1.53,1.53c0.49,0.53,1,1.04,1.53,1.53c0.49,0.53,1,1.04,1.53,1.53
			c0.49,0.53,1,1.04,1.53,1.53c0.49,0.53,1,1.04,1.53,1.53c0.49,0.53,1,1.04,1.53,1.53c0.49,0.53,1,1.04,1.53,1.53
			c0.49,0.53,1,1.04,1.53,1.53c0.49,0.53,1,1.04,1.53,1.53c0.49,0.53,1,1.04,1.53,1.53c0.49,0.53,1,1.04,1.53,1.53
			c0.49,0.53,1,1.04,1.53,1.53c0.49,0.53,1,1.04,1.53,1.53c0.49,0.53,1,1.04,1.53,1.53c0.49,0.53,1,1.04,1.53,1.53
			c0.49,0.53,1,1.04,1.53,1.53c0.49,0.53,1,1.04,1.53,1.53c0.49,0.53,1,1.04,1.53,1.53c0.49,0.53,1,1.04,1.53,1.53
			c0.49,0.53,1,1.04,1.53,1.53c0.49,0.53,1,1.04,1.53,1.53c0.49,0.53,1,1.04,1.53,1.53c0.49,0.53,1,1.04,1.53,1.53
			c0.49,0.53,1,1.04,1.53,1.53c0.49,0.53,1,1.04,1.53,1.53c0.49,0.53,1,1.04,1.53,1.53c0.49,0.53,1,1.04,1.53,1.53
			c0.49,0.53,1,1.04,1.53,1.53c0.49,0.53,1,1.04,1.53,1.53c0.49,0.53,1,1.04,1.53,1.53c0.49,0.53,1,1.04,1.53,1.53
			c0.49,0.53,1,1.04,1.53,1.53c0.49,0.53,1,1.04,1.53,1.53c0.49,0.53,1,1.04,1.53,1.53c0.49,0.53,1,1.04,1.53,1.53
			c0.49,0.53,1,1.04,1.53,1.53c0.49,0.53,1,1.04,1.53,1.53c0.49,0.53,1,1.04,1.53,1.53c0.49,0.53,1,1.04,1.53,1.53
			c0.49,0.53,1,1.04,1.53,1.53c0.49,0.53,1,1.04,1.53,1.53c0.49,0.53,1,1.04,1.53,1.53c0.49,0.53,1,1.04,1.53,1.53
			c0.49,0.53,1,1.04,1.53,1.53c0.49,0.53,1,1.04,1.53,1.53c0.49,0.53,1,1.04,1.53,1.53c0.49,0.53,1,1.04,1.53,1.53
			c0.49,0.53,1,1.04,1.53,1.53c0.49,0.53,1,1.04,1.53,1.53c0.49,0.53,1,1.04,1.53,1.53c0.49,0.53,1,1.04,1.53,1.53
			c0.49,0.53,1,1.04,1.53,1.53c0.49,0.53,1,1.04,1.53,1.53c0.49,0.53,1,1.04,1.53,1.53c0.49,0.53,1,1.04,1.53,1.53
			c0.49,0.53,1,1.04,1.53,1.53c0.49,0.53,1,1.04,1.53,1.53c0.49,0.53,1,1.04,1.53,1.53c0.49,0.53,1,1.04,1.53,1.53
			c0.49,0.53,1,1.04,1.53,1.53c0.49,0.53,1,1.04,1.53,1.53c0.49,0.53,1,1.04,1.53,1.53c0.49,0.53,1,1.04,1.53,1.53
			c0.49,0.53,1,1.04,1.53,1.53c0.49,0.53,1,1.04,1.53,1.53c0.49,0.53,1,1.04,1.53,1.53c0.49,0.53,1,1.04,1.53,1.53
			c0.49,0.53,1,1.04,1.53,1.53c0.49,0.53,1,1.04,1.53,1.53c0.49,0.53,1,1.04,1.53,1.53c0.49,0.53,1,1.04,1.53,1.53
			c0.49,0.53,1,1.04,1.53,1.53c0.49,0.53,1,1.04,1.53,1.53c0.49,0.53,1,1.04,1.53,1.53c0.49,0.53,1,1.04,1.53,1.53
			c0.49,0.53,1,1.04,1.53,1.53c0.49,0.53,1,1.04,1.53,1.53c0.49,0.53,1,1.04,1.53,1.53c0.49,0.53,1,1.04,1.53,1.53
			c0.49,0.53,1,1.04,1.53,1.53c0.49,0.53,1,1.04,1.53,1.53c0.49,0.53,1,1.04,1.53,1.53c0.49,0.53,1,1.04,1.53,1.53
			c0.49,0.53,1,1.04,1.53,1.53c0.49,0.53,1,1.04,1.53,1.53c0.49,0.53,1,1.04,1.53,1.53c0.49,0.53,1,1.04,1.53,1.53
			c0.49,0.53,1,1.04,1.53,1.53c0.49,0.53,1,1.04,1.53,1.53c0.49,0.53,1,1.04,1.53,1.53c0.49,0.53,1,1.04,1.53,1.53
			c0.49,0.53,1,1.04,1.53,1.53c0.49,0.53,1,1.04,1.53,1.53c0.49,0.53,1,1.04,1.53,1.53c0.49,0.53,1,1.04,1.53,1.53
			c0.49,0.53,1,1.04,1.53,1.53c0.49,0.53,1,1.04,1.53,1.53c0.49,0.53,1,1.04,1.53,1.53c0.49,0.53,1,1.04,1.53,1.53
			c0.49,0.53,1,1.04,1.53,1.53c0.49,0.53,1,1.04,1.53,1.53c0.49,0.53,1,1.04,1.53,1.53c0.49,0.53,1,1.04,1.53,1.53
			c0.49,0.53,1,1.04,1.53,1.53c0.49,0.53,1,1.04,1.53,1.53c0.49,0.53,1,1.04,1.53,1.53c0.49,0.53,1,1.04,1.53,1.53
			c0.49,0.53,1,1.04,1.53,1.53c0.49,0.53,1,1.04,1.53,1.53c0.49,0.53,1,1.04,1.53,1.53c0.49,0.53,1,1.04,1.53,1.53
			c0.49,0.53,1,1.04,1.53,1.53c0.29,0.32,0.6,0.61,0.91,0.91h40.27V520.79z"/>
		<g>
			<path class="st4" d="M341.26,563.59c20.26,0,40.02-0.15,59.78,0.06c10.11,0.11,23.31-2.77,29.4,2.41
				c5.46,4.65,3.12,18.49,4.19,28.28c5.43,49.55,14.52,98.09,39.46,142.22c2.95,5.22,6.31,10.21,10.05,16.22
				c-65.31,0-129.63,0-195.02,0C327.38,695.47,335.92,630.42,341.26,563.59z"/>
			<path class="st4" d="M386.07,483.72c-18.86,0-37.73-0.3-56.57,0.17c-6.46,0.16-9.54-2.15-10.42-8.14
				c-1.47-10.07-3.71-20.12-4.14-30.24c-0.94-22.36-1.08-44.66-10.33-65.78c-4.02-9.18-0.58-12.79,9.77-12.3
				c11.95,0.57,21.07,6.61,29.24,14.67c8.65,8.55,11.39,8.17,18.51-1.82c2.95-4.14,6.07-8.26,9.65-11.85
				c11.7-11.73,19.09-11.52,30.54,0.84c3.89,4.2,7.45,8.79,10.67,13.53c5.12,7.55,10.19,6.25,15.54,0.52
				c7.84-8.39,16.8-14.72,28.66-15.8c12.55-1.15,15.84,2.61,11.41,14.16c-7.8,20.34-9.63,41.5-10.52,62.99
				c-0.44,10.76-2.65,21.45-4.22,32.14c-0.77,5.22-3.76,7.14-9.28,7.05c-19.49-0.33-38.99-0.13-58.49-0.13
				C386.07,483.74,386.07,483.73,386.07,483.72z"/>
			<path class="st4" d="M385.81,830.09c-36.16-0.01-72.32,0.04-108.48-0.03c-18.46-0.04-30.89-11.23-31.2-27.83
				c-0.32-16.88,12.31-28.78,31.36-28.82c64.64-0.14,129.28-0.13,193.92-0.02c10.46,0.02,21.03,0.03,31.35,1.47
				c16.07,2.25,25.34,13.95,24.35,28.93c-0.98,14.76-13.11,26.05-28.99,26.23c-23.35,0.26-46.71,0.07-70.06,0.08
				C413.97,830.1,399.89,830.1,385.81,830.09z"/>
			<path class="st4" d="M407.54,300.25c24.98,7.13,46.19,17.46,52.12,44.47c-13.18,5.18-25.47,10-38.27,15.02
				c-21.36-24.11-42.95-29.92-69.69,0.06c-12.28-4.88-24.25-9.63-37.86-15.04c4.87-27.59,27.37-37.05,49.72-44.05
				c-0.87-9.19-3.08-17.91-1.97-26.18c0.7-5.21,5.59-10.7,10-14.39c8.8-7.38,22.8-6.37,32.04,1.07
				C413.95,269.5,415.36,282.2,407.54,300.25z"/>
			<path class="st4" d="M386.66,503.76c21.12,0,42.23-0.06,63.35,0.02c13.34,0.05,22.54,8.15,22.48,19.53
				c-0.06,11.33-9.4,20.29-22.24,20.35c-42.23,0.2-84.47,0.23-126.7,0.02c-14.04-0.07-23.06-8.64-22.85-20.54
				c0.22-11.99,9.04-19.33,23.57-19.37C345.07,503.71,365.86,503.76,386.66,503.76z"/>
		</g>
	</g>
</g>
<path class="st11" d="M587.81,1165.5H164.68c-29.1,0-52.69-23.59-52.69-52.69V247.19c0-29.1,23.59-52.69,52.69-52.69h423.13
	c29.1,0,52.69,23.59,52.69,52.69v865.62C640.5,1141.91,616.91,1165.5,587.81,1165.5z"/>
</svg>
